<svg width="240" height="180" viewBox="0 0 240 180" fill="none" xmlns="http://www.w3.org/2000/svg">
<path d="M180 91.0104C180 138.34 145.2 135.573 90 176.708C45.6 194.229 0 138.34 0 91.0104C0 43.6807 34.8 33.1166 90 5.31234C143.6 -18.6831 180 43.6807 180 91.0104Z" fill="white"/>
<path d="M240 131.904H60V131.994H240V131.904Z" fill="#EBEBEB"/>
<path d="M221.964 137.696H210.041V137.786H221.964V137.696Z" fill="#EBEBEB"/>
<path d="M179.239 138.676H176.11V138.766H179.239V138.676Z" fill="#EBEBEB"/>
<path d="M209.681 134.355H202.772V134.445H209.681V134.355Z" fill="#EBEBEB"/>
<path d="M94.4341 134.96H78.8857V135.05H94.4341V134.96Z" fill="#EBEBEB"/>
<path d="M99.9204 134.96H97.6416V135.05H99.9204V134.96Z" fill="#EBEBEB"/>
<path d="M141.054 136.479H107.329V136.569H141.054V136.479Z" fill="#EBEBEB"/>
<path d="M145.32 115.848H75.8079C75.2633 115.847 74.7414 115.63 74.3567 115.245C73.9719 114.859 73.7559 114.337 73.7559 113.792V16.0776C73.7606 15.5362 73.9788 15.0185 74.363 14.637C74.7472 14.2555 75.2664 14.041 75.8079 14.04H145.32C145.865 14.04 146.388 14.2566 146.774 14.6421C147.159 15.0276 147.376 15.5505 147.376 16.0956V113.792C147.376 114.338 147.159 114.86 146.774 115.246C146.388 115.631 145.865 115.848 145.32 115.848ZM75.8079 14.112C75.2872 14.113 74.7881 14.3205 74.4203 14.689C74.0525 15.0575 73.8459 15.557 73.8459 16.0776V113.792C73.8459 114.313 74.0525 114.813 74.4203 115.181C74.7881 115.55 75.2872 115.757 75.8079 115.758H145.32C145.841 115.757 146.341 115.55 146.709 115.181C147.078 114.813 147.285 114.313 147.286 113.792V16.0776C147.285 15.5566 147.078 15.0572 146.709 14.6888C146.341 14.3204 145.841 14.113 145.32 14.112H75.8079Z" fill="#EBEBEB"/>
<path d="M223.192 115.848H153.676C153.131 115.847 152.609 115.63 152.223 115.245C151.838 114.86 151.621 114.337 151.62 113.792V16.0776C151.626 15.5359 151.845 15.0182 152.23 14.6368C152.614 14.2554 153.134 14.041 153.676 14.04H223.192C223.733 14.0419 224.251 14.2568 224.634 14.6383C225.018 15.0197 225.235 15.5368 225.24 16.0776V113.792C225.24 114.336 225.025 114.858 224.641 115.243C224.257 115.629 223.736 115.846 223.192 115.848ZM153.676 14.112C153.155 14.113 152.655 14.3204 152.287 14.6888C151.918 15.0572 151.711 15.5566 151.71 16.0776V113.792C151.711 114.313 151.918 114.813 152.287 115.181C152.655 115.55 153.155 115.757 153.676 115.758H223.192C223.713 115.757 224.212 115.55 224.581 115.181C224.949 114.813 225.156 114.313 225.157 113.792V16.0776C225.156 15.5566 224.949 15.0572 224.581 14.6888C224.212 14.3204 223.713 14.113 223.192 14.112H153.676Z" fill="#EBEBEB"/>
<path d="M120.055 28.3931H95.3877V97.657H120.055V28.3931Z" fill="#FAFAFA"/>
<path d="M116.383 28.3931H114.939L106.339 97.657H107.779L116.383 28.3931Z" fill="#F5F5F5"/>
<path d="M119.62 28.7139H95.2334V29.4519H119.62V28.7139Z" fill="#E0E0E0"/>
<path d="M119.62 96.9229H95.2334V98.4996H119.62V96.9229Z" fill="#EBEBEB"/>
<path d="M119.213 98.4312H96.1689V98.4995H119.213V98.4312Z" fill="#EBEBEB"/>
<path d="M96.1688 28.7175H119.212V98.4315H120.591V27.6807H94.79V98.4315H96.1688V28.7175Z" fill="#EBEBEB"/>
<path d="M147.505 28.3931H122.838V97.657H147.505V28.3931Z" fill="#FAFAFA"/>
<path d="M140.662 28.3931H132.796L124.195 97.657H132.058L140.662 28.3931Z" fill="#F5F5F5"/>
<path d="M147.757 28.7139H122.68V29.4519H147.757V28.7139Z" fill="#E0E0E0"/>
<path d="M147.757 96.9229H122.68V98.4996H147.757V96.9229Z" fill="#EBEBEB"/>
<path d="M146.659 98.4312H123.615V98.4995H146.659V98.4312Z" fill="#EBEBEB"/>
<path d="M123.615 28.7175H146.659V98.4315H148.041V27.6807H122.236V98.4315H123.615V28.7175Z" fill="#EBEBEB"/>
<path d="M174.257 28.3931H150.284V97.657H174.257V28.3931Z" fill="#FAFAFA"/>
<path d="M163.867 28.3931H162.424L153.823 97.657H155.263L163.867 28.3931Z" fill="#F5F5F5"/>
<path d="M174.512 28.7139H150.126V29.4519H174.512V28.7139Z" fill="#E0E0E0"/>
<path d="M174.512 96.9229H150.126V98.4996H174.512V96.9229Z" fill="#EBEBEB"/>
<path d="M174.106 98.4312H151.062V98.4995H174.106V98.4312Z" fill="#EBEBEB"/>
<path d="M151.062 28.7175H174.106V98.4315H175.488V27.6807H149.684V98.4315H151.062V28.7175Z" fill="#EBEBEB"/>
<path d="M202.398 28.3931H177.73V97.657H202.398V28.3931Z" fill="#FAFAFA"/>
<path d="M199.982 28.3931H192.12L183.516 97.657H191.378L199.982 28.3931Z" fill="#F5F5F5"/>
<path d="M201.959 28.7139H177.572V29.4519H201.959V28.7139Z" fill="#E0E0E0"/>
<path d="M201.959 96.9229H177.572V98.4996H201.959V96.9229Z" fill="#EBEBEB"/>
<path d="M178.512 28.7175H201.556V98.4315H202.935V27.6807H177.13V98.4315H178.512V28.7175Z" fill="#EBEBEB"/>
<path d="M201.555 98.4312H178.512V98.4995H201.555V98.4312Z" fill="#EBEBEB"/>
<path d="M114.154 78.4116H103.444V96.9264H114.154V78.4116Z" fill="#EBEBEB"/>
<path d="M112.099 75.8232V80.4672H111.253H106.346H105.504V75.8232H112.099Z" fill="#EBEBEB"/>
<path d="M112.095 80.4673H113.467V79.0957H112.095V80.4673Z" fill="#FAFAFA"/>
<path d="M109.443 80.4673H110.814V79.0957H109.443V80.4673Z" fill="#FAFAFA"/>
<path d="M106.79 80.4673H108.161V79.0957H106.79V80.4673Z" fill="#FAFAFA"/>
<path d="M104.128 80.4673H105.5V79.0957H104.128V80.4673Z" fill="#F0F0F0"/>
<path d="M112.095 82.9585H113.467V81.5869H112.095V82.9585Z" fill="#F0F0F0"/>
<path d="M109.443 82.9585H110.814V81.5869H109.443V82.9585Z" fill="#F0F0F0"/>
<path d="M106.79 82.9585H108.161V81.5869H106.79V82.9585Z" fill="#FAFAFA"/>
<path d="M104.128 82.9585H105.5V81.5869H104.128V82.9585Z" fill="#FAFAFA"/>
<path d="M112.095 85.4458H113.467V84.0742H112.095V85.4458Z" fill="#F0F0F0"/>
<path d="M109.443 85.4458H110.814V84.0742H109.443V85.4458Z" fill="#FAFAFA"/>
<path d="M106.79 85.4458H108.161V84.0742H106.79V85.4458Z" fill="#FAFAFA"/>
<path d="M109.443 78.3145H110.814V76.9429H109.443V78.3145Z" fill="#FAFAFA"/>
<path d="M106.79 78.3145H108.161V76.9429H106.79V78.3145Z" fill="#F0F0F0"/>
<path d="M104.128 85.4458H105.5V84.0742H104.128V85.4458Z" fill="#F0F0F0"/>
<path d="M112.095 87.937H113.467V86.5654H112.095V87.937Z" fill="#FAFAFA"/>
<path d="M109.443 87.937H110.814V86.5654H109.443V87.937Z" fill="#F0F0F0"/>
<path d="M106.79 87.937H108.161V86.5654H106.79V87.937Z" fill="#F0F0F0"/>
<path d="M104.128 87.937H105.5V86.5654H104.128V87.937Z" fill="#FAFAFA"/>
<path d="M112.095 90.4282H113.467V89.0566H112.095V90.4282Z" fill="#F0F0F0"/>
<path d="M109.443 90.4282H110.814V89.0566H109.443V90.4282Z" fill="#FAFAFA"/>
<path d="M106.79 90.4282H108.161V89.0566H106.79V90.4282Z" fill="#FAFAFA"/>
<path d="M104.128 90.4282H105.5V89.0566H104.128V90.4282Z" fill="#F0F0F0"/>
<path d="M112.095 92.9194H113.467V91.5478H112.095V92.9194Z" fill="#F0F0F0"/>
<path d="M109.443 92.9194H110.814V91.5478H109.443V92.9194Z" fill="#FAFAFA"/>
<path d="M106.79 92.9194H108.161V91.5478H106.79V92.9194Z" fill="#F0F0F0"/>
<path d="M104.128 92.9194H105.5V91.5478H104.128V92.9194Z" fill="#FAFAFA"/>
<path d="M112.095 95.4106H113.467V94.039H112.095V95.4106Z" fill="#FAFAFA"/>
<path d="M109.443 95.4106H110.814V94.039H109.443V95.4106Z" fill="#FAFAFA"/>
<path d="M106.79 95.4106H108.161V94.039H106.79V95.4106Z" fill="#F0F0F0"/>
<path d="M104.128 95.4106H105.5V94.039H104.128V95.4106Z" fill="#F0F0F0"/>
<path d="M189.582 85.1543H179.988V96.9263H189.582V85.1543Z" fill="#F0F0F0"/>
<path d="M180.823 86.4614H183.055H183.671H184.283V87.689H183.671H183.055H180.823V86.4614Z" fill="#E6E6E6"/>
<path d="M180.823 88.8408H183.055H183.671H184.283V90.0684H183.671H183.055H180.823V88.8408Z" fill="#FAFAFA"/>
<path d="M180.823 91.2168H183.055H183.671H184.283V92.448H183.671H183.055H180.823V91.2168Z" fill="#E6E6E6"/>
<path d="M180.823 93.5962H183.055H184.006H184.283V94.8238H184.006H183.055H180.823V93.5962Z" fill="#FAFAFA"/>
<path d="M185.287 86.4614H187.519H188.131H188.747V87.689H188.131H187.519H185.287V86.4614Z" fill="#FAFAFA"/>
<path d="M185.287 88.8408H187.519H188.383H188.747V90.0684H188.383H187.519H185.287V88.8408Z" fill="#FAFAFA"/>
<path d="M185.287 91.2168H187.519H188.131H188.747V92.448H188.131H187.519H185.287V91.2168Z" fill="#E6E6E6"/>
<path d="M185.287 93.5962H187.519H188.131H188.747V94.8238H188.131H187.519H185.287V93.5962Z" fill="#FAFAFA"/>
<path d="M143.358 89.6113H134.643V96.9265H143.358V89.6113Z" fill="#F0F0F0"/>
<path d="M141.688 91.6416H142.804V90.5256H141.688V91.6416Z" fill="#FAFAFA"/>
<path d="M139.524 91.6416H140.64V90.5256H139.524V91.6416Z" fill="#FAFAFA"/>
<path d="M137.361 91.6416H138.477V90.5256H137.361V91.6416Z" fill="#FAFAFA"/>
<path d="M135.2 91.6416H136.316V90.5256H135.2V91.6416Z" fill="#FAFAFA"/>
<path d="M141.688 93.665H142.804V92.549H141.688V93.665Z" fill="#FAFAFA"/>
<path d="M139.524 93.665H140.64V92.549H139.524V93.665Z" fill="#FAFAFA"/>
<path d="M137.361 93.665H138.477V92.549H137.361V93.665Z" fill="#FAFAFA"/>
<path d="M135.2 93.665H136.316V92.549H135.2V93.665Z" fill="#E6E6E6"/>
<path d="M141.688 95.6953H142.804V94.5793H141.688V95.6953Z" fill="#E6E6E6"/>
<path d="M139.524 95.6953H140.64V94.5793H139.524V95.6953Z" fill="#E6E6E6"/>
<path d="M137.361 95.6953H138.477V94.5793H137.361V95.6953Z" fill="#FAFAFA"/>
<path d="M135.2 95.6953H136.316V94.5793H135.2V95.6953Z" fill="#E6E6E6"/>
<path d="M133.462 84.2041H124.746V96.9265H133.462V84.2041Z" fill="#F0F0F0"/>
<path d="M132.904 84.7622H129.628V87.905H132.904V84.7622Z" fill="#FAFAFA"/>
<path d="M128.58 84.7622H125.304V87.905H128.58V84.7622Z" fill="#FAFAFA"/>
<path d="M132.904 88.8154H129.628V91.9582H132.904V88.8154Z" fill="#FAFAFA"/>
<path d="M128.58 88.8154H125.304V91.9582H128.58V88.8154Z" fill="#FAFAFA"/>
<path d="M132.904 92.873H129.628V96.0158H132.904V92.873Z" fill="#FAFAFA"/>
<path d="M128.58 92.873H125.304V96.0158H128.58V92.873Z" fill="#FAFAFA"/>
<path d="M177.141 129.571H169.44L173.494 96.5522C173.594 95.8646 173.934 95.2344 174.454 94.7733C174.974 94.3121 175.64 94.0496 176.334 94.0322H209.976L205.041 129.582L177.141 129.571Z" fill="#F5F5F5"/>
<path d="M201.599 129.571H209.313L213.36 96.5518C213.407 96.2353 213.385 95.9124 213.294 95.6055C213.204 95.2986 213.047 95.0152 212.835 94.7752C212.624 94.5351 212.362 94.3442 212.069 94.2158C211.776 94.0874 211.459 94.0246 211.139 94.0318H208.489C207.794 94.0485 207.128 94.3107 206.608 94.772C206.088 95.2333 205.748 95.8639 205.649 96.5518L201.599 129.571Z" fill="#F0F0F0"/>
<path d="M198.758 129.532L200.155 113.562C200.186 113.216 200.334 112.89 200.575 112.64C200.816 112.389 201.135 112.228 201.48 112.183L202.056 112.111C202.518 112.052 202.945 111.836 203.268 111.5C203.591 111.164 203.789 110.728 203.831 110.264L204.086 107.352C204.111 107.07 204.076 106.786 203.985 106.518C203.894 106.25 203.748 106.004 203.557 105.795C203.366 105.586 203.133 105.419 202.874 105.305C202.615 105.191 202.335 105.131 202.052 105.131H214.94C215.222 105.133 215.5 105.194 215.758 105.309C216.015 105.424 216.246 105.591 216.435 105.8C216.625 106.009 216.77 106.254 216.86 106.521C216.95 106.788 216.984 107.071 216.96 107.352L216.704 110.264C216.663 110.728 216.464 111.164 216.142 111.5C215.819 111.836 215.391 112.052 214.929 112.111L214.353 112.183C214.008 112.228 213.689 112.389 213.448 112.64C213.207 112.89 213.059 113.216 213.029 113.562L211.632 129.532C211.583 130.094 211.325 130.617 210.909 130.999C210.493 131.38 209.95 131.591 209.385 131.591H196.512C197.076 131.591 197.62 131.38 198.036 130.999C198.452 130.617 198.709 130.094 198.758 129.532Z" fill="#E6E6E6"/>
<path d="M163.292 109.563C163.187 108.351 162.632 107.223 161.736 106.4C160.841 105.578 159.669 105.121 158.453 105.12H169.674C170.889 105.121 172.059 105.576 172.954 106.396C173.85 107.216 174.406 108.342 174.513 109.552L175.618 122.213H164.4L163.292 109.563Z" fill="#E6E6E6"/>
<path d="M153.471 105.12H158.453C159.667 105.121 160.837 105.576 161.733 106.396C162.628 107.216 163.184 108.342 163.291 109.552L164.4 122.224H191.127L192.232 109.563C192.336 108.352 192.891 107.224 193.786 106.401C194.681 105.579 195.851 105.122 197.067 105.12H202.053C202.336 105.121 202.616 105.18 202.875 105.294C203.134 105.408 203.366 105.575 203.557 105.784C203.749 105.993 203.894 106.239 203.986 106.507C204.077 106.775 204.111 107.059 204.087 107.341L203.831 110.254C203.79 110.718 203.591 111.154 203.269 111.489C202.946 111.825 202.518 112.041 202.056 112.101L201.48 112.173C201.135 112.217 200.816 112.378 200.575 112.629C200.334 112.879 200.186 113.205 200.155 113.551L198.759 129.521C198.71 130.083 198.452 130.606 198.036 130.988C197.62 131.369 197.076 131.58 196.512 131.58H159C158.436 131.58 157.892 131.369 157.476 130.988C157.06 130.606 156.803 130.083 156.754 129.521L155.357 113.551C155.327 113.205 155.179 112.879 154.938 112.628C154.697 112.377 154.377 112.216 154.032 112.173L153.46 112.101C152.997 112.042 152.569 111.826 152.245 111.49C151.922 111.155 151.723 110.718 151.681 110.254L151.44 107.352C151.414 107.069 151.447 106.785 151.538 106.515C151.628 106.246 151.773 105.999 151.964 105.789C152.155 105.579 152.387 105.411 152.647 105.296C152.906 105.181 153.187 105.121 153.471 105.12Z" fill="#F0F0F0"/>
<path d="M115.887 103.039H80.8262C80.8265 103.659 81.0659 104.254 81.4945 104.701C81.923 105.149 82.5077 105.413 83.1266 105.44C86.8958 105.613 92.6918 106.207 94.5278 108.291C97.955 112.179 97.6238 125.831 93.5198 128.991C92.231 129.981 88.4798 131.951 88.4798 131.951H108.24C108.24 131.951 104.734 129.942 103.513 128.991C99.4346 125.805 99.3158 112.161 102.757 108.291C104.525 106.308 109.957 105.667 113.601 105.465C114.219 105.43 114.801 105.158 115.226 104.707C115.651 104.256 115.888 103.659 115.887 103.039Z" fill="#F5F5F5"/>
<path d="M85.1709 105.57C88.7313 105.854 93.0009 106.56 94.5309 108.291C95.028 108.891 95.42 109.57 95.6901 110.3H101.58C101.859 109.57 102.256 108.891 102.757 108.291C104.291 106.567 108.596 105.858 112.088 105.57H85.1709Z" fill="#E6E6E6"/>
<path d="M100.953 103.057L100.475 97.6069H107.387L107.865 103.057H100.953Z" fill="#EBEBEB"/>
<path d="M100.953 103.057L100.474 97.6069H100.104L100.579 103.057H100.953Z" fill="#E0E0E0"/>
<path d="M101.608 102.503L101.23 98.165H106.731L107.109 102.503H101.608Z" fill="#F0F0F0"/>
<path d="M102.03 102.143L101.713 98.5215H106.31L106.627 102.143H102.03Z" fill="#FAFAFA"/>
<path d="M98.7103 103.039H91.7695L92.5399 94.2373H99.4807L98.7103 103.039Z" fill="#E6E6E6"/>
<path d="M98.7109 103.039H99.0421L99.8125 94.2373H99.4813L98.7109 103.039Z" fill="#E0E0E0"/>
<path d="M98.0807 102.143H92.5547L93.1703 95.1338H98.6963L98.0807 102.143Z" fill="#F0F0F0"/>
<path d="M97.6774 101.567H93.0586L93.5734 95.7095H98.1886L97.6774 101.567Z" fill="#FAFAFA"/>
<path d="M95.3451 98.345C95.4962 98.4954 95.7008 98.5798 95.9139 98.5798C96.1271 98.5798 96.3316 98.4954 96.4827 98.345C96.6331 98.1939 96.7175 97.9894 96.7175 97.7762C96.7175 97.5631 96.6331 97.3585 96.4827 97.2074C96.3316 97.0571 96.1271 96.9727 95.9139 96.9727C95.7008 96.9727 95.4962 97.0571 95.3451 97.2074C95.1948 97.3585 95.1104 97.5631 95.1104 97.7762C95.1104 97.9894 95.1948 98.1939 95.3451 98.345Z" fill="#EBEBEB"/>
<path d="M95.687 99.3275C95.6324 99.2728 95.5676 99.2293 95.4963 99.1997C95.4249 99.17 95.3484 99.1548 95.2712 99.1548C95.1939 99.1548 95.1174 99.17 95.046 99.1997C94.9747 99.2293 94.9099 99.2728 94.8554 99.3275C94.7717 99.41 94.7148 99.5157 94.6919 99.631C94.669 99.7462 94.6813 99.8656 94.727 99.9738C94.7728 100.082 94.85 100.174 94.9486 100.238C95.0472 100.302 95.1627 100.334 95.2802 100.332C95.3961 100.331 95.5091 100.295 95.6049 100.23C95.7007 100.165 95.7751 100.073 95.8186 99.9654C95.8621 99.858 95.8729 99.7401 95.8494 99.6265C95.826 99.513 95.7695 99.409 95.687 99.3275Z" fill="#F0F0F0"/>
<g opacity="0.2">
<path d="M150.001 166.162C188.55 166.162 219.801 164.337 219.801 162.086C219.801 159.836 188.55 158.011 150.001 158.011C111.451 158.011 80.2002 159.836 80.2002 162.086C80.2002 164.337 111.451 166.162 150.001 166.162Z" fill="#D1A53D"/>
</g>
<path d="M206.239 137.452C206.304 137.916 205.044 138.222 204.015 138.395C204.101 139.237 204.663 140.091 205.437 140.89C206.412 140.339 207.805 139.612 208.061 139.788C208.317 139.965 206.916 140.908 206.023 141.448C206.66 142.004 207.335 142.515 208.043 142.978C208.482 142.571 208.993 142.211 209.299 142.405C209.605 142.6 209.53 143.241 209.375 143.802C210.433 144.421 211.229 144.799 211.229 144.799C211.542 143.814 211.782 142.807 211.949 141.786C211.895 141.678 211.845 141.574 211.794 141.459C211.621 141.063 211.794 140.897 212.071 140.839C212.15 140.122 212.156 139.398 212.089 138.679C210.887 138.427 209.429 137.959 209.976 137.239C210.304 136.807 210.909 136.757 211.539 136.879C211.451 136.736 211.351 136.601 211.24 136.476C209.055 134.068 207.528 136.476 207.528 136.476C206.257 135.418 204.472 135.702 204.087 137.358C204.792 137.16 206.16 136.879 206.239 137.452Z" fill="#D1A53D"/>
<path opacity="0.3" d="M206.239 137.452C206.304 137.916 205.044 138.222 204.015 138.395C204.101 139.237 204.663 140.091 205.437 140.89C206.412 140.339 207.805 139.612 208.061 139.788C208.317 139.965 206.916 140.908 206.023 141.448C206.66 142.004 207.335 142.515 208.043 142.978C208.482 142.571 208.993 142.211 209.299 142.405C209.605 142.6 209.53 143.241 209.375 143.802C210.433 144.421 211.229 144.799 211.229 144.799C211.542 143.814 211.782 142.807 211.949 141.786C211.895 141.678 211.845 141.574 211.794 141.459C211.621 141.063 211.794 140.897 212.071 140.839C212.15 140.122 212.156 139.398 212.089 138.679C210.887 138.427 209.429 137.959 209.976 137.239C210.304 136.807 210.909 136.757 211.539 136.879C211.451 136.736 211.351 136.601 211.24 136.476C209.055 134.068 207.528 136.476 207.528 136.476C206.257 135.418 204.472 135.702 204.087 137.358C204.792 137.16 206.16 136.879 206.239 137.452Z" fill="white"/>
<path d="M208.965 155.16L208.652 155.135C208.652 154.973 209.944 138.841 206.326 137.318C206.156 137.241 205.97 137.203 205.783 137.208C205.596 137.213 205.412 137.261 205.246 137.347C203.939 138.028 203.313 140.854 203.306 140.882L202.996 140.814C203.021 140.692 203.662 137.815 205.098 137.066C205.308 136.956 205.541 136.895 205.778 136.888C206.015 136.881 206.25 136.929 206.466 137.027C210.279 138.632 209.04 154.483 208.965 155.16Z" fill="#D1A53D"/>
<path d="M209.421 154.8C209.357 154.08 207.881 137.005 210.642 135.194C211.304 134.762 211.895 134.669 212.399 134.921C213.705 135.58 213.875 138.373 213.882 138.492H213.565C213.565 138.467 213.399 135.767 212.255 135.191C211.862 134.993 211.376 135.076 210.815 135.446C208.208 137.153 209.717 154.581 209.735 154.757L209.421 154.8Z" fill="#D1A53D"/>
<path d="M209.84 156.186C209.818 155.631 209.361 142.567 211.877 141.426C212.112 141.316 212.367 141.258 212.626 141.258C212.885 141.258 213.141 141.316 213.375 141.426C215.103 142.185 216.169 145.404 216.212 145.541L215.913 145.638C215.913 145.605 214.833 142.416 213.249 141.714C213.055 141.622 212.844 141.574 212.63 141.574C212.415 141.574 212.204 141.622 212.011 141.714C210.081 142.592 210.016 152.453 210.153 156.179L209.84 156.186Z" fill="#D1A53D"/>
<path d="M209.199 155.588L208.882 155.552C209.328 151.664 210.174 141.304 208.788 140.072C208.721 139.992 208.632 139.932 208.532 139.901C208.431 139.87 208.324 139.868 208.223 139.896C207.294 140.256 206.729 143.622 206.589 144.893L206.275 144.857C206.329 144.371 206.837 140.09 208.108 139.601C208.263 139.549 208.431 139.543 208.589 139.585C208.748 139.626 208.891 139.713 209.001 139.835C210.79 141.43 209.263 155.012 209.199 155.588Z" fill="#D1A53D"/>
<path d="M203.921 148.219H215.283L214.332 160.945H204.868L203.921 148.219Z" fill="#D1A53D"/>
<path opacity="0.2" d="M207.37 148.219L207.687 160.945H214.333L215.283 148.219H207.37Z" fill="white"/>
<path d="M205.469 143.546C205.351 143.856 204.469 143.615 203.774 143.366C203.559 144.026 203.567 144.738 203.795 145.393C204.587 145.393 205.693 145.418 205.793 145.616C205.894 145.814 204.713 145.912 203.968 145.94C204.17 146.501 204.41 147.047 204.688 147.575C205.099 147.474 205.538 147.427 205.657 147.65C205.775 147.873 205.516 148.244 205.225 148.539C205.667 149.285 206.027 149.789 206.027 149.789C206.556 149.287 207.048 148.748 207.5 148.176C207.5 148.089 207.5 148.007 207.5 147.92C207.529 147.618 207.691 147.56 207.885 147.632C208.182 147.216 208.434 146.769 208.637 146.3C207.986 145.732 207.244 144.943 207.827 144.688C208.187 144.533 208.569 144.709 208.907 144.994C208.903 144.872 208.887 144.752 208.861 144.634C208.339 142.398 206.571 143.363 206.571 143.363C206.153 142.283 204.955 141.836 204.148 142.726C204.681 142.866 205.613 143.165 205.469 143.546Z" fill="#D1A53D"/>
<path opacity="0.3" d="M205.469 143.546C205.351 143.856 204.469 143.615 203.774 143.366C203.559 144.026 203.567 144.738 203.795 145.393C204.587 145.393 205.693 145.418 205.793 145.616C205.894 145.814 204.713 145.912 203.968 145.94C204.17 146.501 204.41 147.047 204.688 147.575C205.099 147.474 205.538 147.427 205.657 147.65C205.775 147.873 205.516 148.244 205.225 148.539C205.667 149.285 206.027 149.789 206.027 149.789C206.556 149.287 207.048 148.748 207.5 148.176C207.5 148.089 207.5 148.007 207.5 147.92C207.529 147.618 207.691 147.56 207.885 147.632C208.182 147.216 208.434 146.769 208.637 146.3C207.986 145.732 207.244 144.943 207.827 144.688C208.187 144.533 208.569 144.709 208.907 144.994C208.903 144.872 208.887 144.752 208.861 144.634C208.339 142.398 206.571 143.363 206.571 143.363C206.153 142.283 204.955 141.836 204.148 142.726C204.681 142.866 205.613 143.165 205.469 143.546Z" fill="white"/>
<path d="M213.904 145.059C213.551 145.089 213.202 145.163 212.867 145.278C212.774 145.038 212.722 144.783 212.712 144.526C212.64 142.236 214.282 143.201 215.146 142.528C215.341 142.356 215.57 142.228 215.818 142.15C216.066 142.072 216.327 142.046 216.586 142.074C216.512 142.2 216.447 142.331 216.391 142.467C216.371 142.517 216.363 142.571 216.366 142.625C216.37 142.679 216.386 142.731 216.412 142.778C216.439 142.825 216.476 142.865 216.52 142.896C216.565 142.927 216.615 142.948 216.669 142.956C216.886 143 217.112 142.974 217.313 142.881C217.369 142.845 217.423 142.807 217.475 142.765C217.615 143.005 217.721 143.263 217.792 143.532C217.877 143.852 217.927 144.18 217.939 144.511C217.81 144.539 217.682 144.575 217.558 144.619C217.508 144.641 217.465 144.674 217.429 144.715C217.394 144.756 217.369 144.804 217.355 144.857C217.341 144.909 217.339 144.963 217.35 145.016C217.36 145.069 217.382 145.12 217.414 145.163C217.55 145.301 217.71 145.413 217.885 145.494C217.827 145.863 217.73 146.225 217.597 146.574L217.482 146.592C217.398 146.607 217.315 146.627 217.234 146.653C217.186 146.665 217.141 146.682 217.097 146.704C217.04 146.728 216.991 146.766 216.953 146.814C216.915 146.863 216.89 146.92 216.881 146.981C216.873 147.043 216.881 147.107 216.905 147.165C216.929 147.223 216.968 147.274 217.018 147.312C217.072 147.35 217.129 147.385 217.187 147.417C216.971 147.796 216.658 148.111 216.28 148.331C215.949 148.179 215.627 148.008 215.315 147.82C215.383 147.73 215.452 147.636 215.517 147.543C215.589 147.437 215.624 147.31 215.614 147.183C215.596 147.054 215.529 146.938 215.427 146.859C215.376 146.819 215.318 146.79 215.256 146.774C215.194 146.757 215.129 146.753 215.066 146.761C215.002 146.769 214.941 146.79 214.886 146.823C214.83 146.855 214.781 146.898 214.743 146.949C214.667 147.06 214.584 147.168 214.501 147.276C214.073 146.957 213.689 146.582 213.36 146.16H213.393C213.605 146.106 213.822 146.071 214.041 146.056C214.162 146.031 214.269 145.961 214.341 145.86C214.412 145.76 214.443 145.636 214.428 145.513C214.412 145.39 214.35 145.278 214.255 145.199C214.16 145.12 214.038 145.08 213.915 145.087L213.904 145.059Z" fill="#D1A53D"/>
<path opacity="0.5" d="M213.904 145.059C213.551 145.089 213.202 145.163 212.867 145.278C212.774 145.038 212.722 144.783 212.712 144.526C212.64 142.236 214.282 143.201 215.146 142.528C215.341 142.356 215.57 142.228 215.818 142.15C216.066 142.072 216.327 142.046 216.586 142.074C216.512 142.2 216.447 142.331 216.391 142.467C216.371 142.517 216.363 142.571 216.366 142.625C216.37 142.679 216.386 142.731 216.412 142.778C216.439 142.825 216.476 142.865 216.52 142.896C216.565 142.927 216.615 142.948 216.669 142.956C216.886 143 217.112 142.974 217.313 142.881C217.369 142.845 217.423 142.807 217.475 142.765C217.615 143.005 217.721 143.263 217.792 143.532C217.877 143.852 217.927 144.18 217.939 144.511C217.81 144.539 217.682 144.575 217.558 144.619C217.508 144.641 217.465 144.674 217.429 144.715C217.394 144.756 217.369 144.804 217.355 144.857C217.341 144.909 217.339 144.963 217.35 145.016C217.36 145.069 217.382 145.12 217.414 145.163C217.55 145.301 217.71 145.413 217.885 145.494C217.827 145.863 217.73 146.225 217.597 146.574L217.482 146.592C217.398 146.607 217.315 146.627 217.234 146.653C217.186 146.665 217.141 146.682 217.097 146.704C217.04 146.728 216.991 146.766 216.953 146.814C216.915 146.863 216.89 146.92 216.881 146.981C216.873 147.043 216.881 147.107 216.905 147.165C216.929 147.223 216.968 147.274 217.018 147.312C217.072 147.35 217.129 147.385 217.187 147.417C216.971 147.796 216.658 148.111 216.28 148.331C215.949 148.179 215.627 148.008 215.315 147.82C215.383 147.73 215.452 147.636 215.517 147.543C215.589 147.437 215.624 147.31 215.614 147.183C215.596 147.054 215.529 146.938 215.427 146.859C215.376 146.819 215.318 146.79 215.256 146.774C215.194 146.757 215.129 146.753 215.066 146.761C215.002 146.769 214.941 146.79 214.886 146.823C214.83 146.855 214.781 146.898 214.743 146.949C214.667 147.06 214.584 147.168 214.501 147.276C214.073 146.957 213.689 146.582 213.36 146.16H213.393C213.605 146.106 213.822 146.071 214.041 146.056C214.162 146.031 214.269 145.961 214.341 145.86C214.412 145.76 214.443 145.636 214.428 145.513C214.412 145.39 214.35 145.278 214.255 145.199C214.16 145.12 214.038 145.08 213.915 145.087L213.904 145.059Z" fill="white"/>
<path d="M214.559 137.16C214.758 137.021 214.973 136.906 215.2 136.818C215.143 136.651 215.059 136.496 214.951 136.357C213.983 135.122 213.547 136.357 212.791 136.375C212.612 136.371 212.434 136.404 212.269 136.472C212.103 136.54 211.954 136.642 211.83 136.771C211.924 136.806 212.015 136.847 212.104 136.894C212.136 136.911 212.164 136.936 212.186 136.965C212.207 136.995 212.222 137.029 212.229 137.066C212.236 137.102 212.235 137.139 212.226 137.175C212.216 137.21 212.199 137.243 212.176 137.272C212.085 137.389 211.958 137.473 211.816 137.513C211.77 137.517 211.724 137.517 211.679 137.513C211.713 137.7 211.771 137.881 211.852 138.053C211.948 138.26 212.069 138.454 212.212 138.632C212.292 138.591 212.375 138.554 212.46 138.521C212.495 138.51 212.533 138.507 212.57 138.513C212.607 138.519 212.642 138.533 212.672 138.555C212.702 138.576 212.727 138.605 212.745 138.637C212.762 138.67 212.772 138.707 212.773 138.744C212.762 138.876 212.728 139.005 212.672 139.126C212.864 139.294 213.073 139.441 213.295 139.565L213.364 139.522C213.414 139.494 213.465 139.468 213.518 139.446L213.612 139.41C213.653 139.399 213.696 139.397 213.738 139.407C213.779 139.416 213.818 139.436 213.85 139.464C213.881 139.493 213.904 139.53 213.917 139.571C213.93 139.612 213.931 139.656 213.922 139.698C213.91 139.742 213.896 139.786 213.878 139.828C214.159 139.929 214.462 139.957 214.757 139.91C214.865 139.686 214.96 139.455 215.041 139.219L214.814 139.158C214.73 139.137 214.655 139.086 214.606 139.014C214.581 138.977 214.564 138.936 214.556 138.893C214.548 138.85 214.549 138.805 214.559 138.762C214.579 138.676 214.632 138.601 214.706 138.553C214.743 138.53 214.785 138.513 214.828 138.506C214.871 138.499 214.916 138.5 214.958 138.51L215.228 138.575C215.317 138.214 215.356 137.842 215.344 137.47H215.322C215.187 137.533 215.058 137.609 214.937 137.696C214.863 137.735 214.776 137.745 214.695 137.724C214.614 137.702 214.544 137.651 214.499 137.581C214.454 137.51 214.437 137.425 214.451 137.343C214.466 137.26 214.51 137.186 214.577 137.135L214.559 137.16Z" fill="#D1A53D"/>
<path opacity="0.3" d="M214.559 137.16C214.758 137.021 214.973 136.906 215.2 136.818C215.143 136.651 215.059 136.496 214.951 136.357C213.983 135.122 213.547 136.357 212.791 136.375C212.612 136.371 212.434 136.404 212.269 136.472C212.103 136.54 211.954 136.642 211.83 136.771C211.924 136.806 212.015 136.847 212.104 136.894C212.136 136.911 212.164 136.936 212.186 136.965C212.207 136.995 212.222 137.029 212.229 137.066C212.236 137.102 212.235 137.139 212.226 137.175C212.216 137.21 212.199 137.243 212.176 137.272C212.085 137.389 211.958 137.473 211.816 137.513C211.77 137.517 211.724 137.517 211.679 137.513C211.713 137.7 211.771 137.881 211.852 138.053C211.948 138.26 212.069 138.454 212.212 138.632C212.292 138.591 212.375 138.554 212.46 138.521C212.495 138.51 212.533 138.507 212.57 138.513C212.607 138.519 212.642 138.533 212.672 138.555C212.702 138.576 212.727 138.605 212.745 138.637C212.762 138.67 212.772 138.707 212.773 138.744C212.762 138.876 212.728 139.005 212.672 139.126C212.864 139.294 213.073 139.441 213.295 139.565L213.364 139.522C213.414 139.494 213.465 139.468 213.518 139.446L213.612 139.41C213.653 139.399 213.696 139.397 213.738 139.407C213.779 139.416 213.818 139.436 213.85 139.464C213.881 139.493 213.904 139.53 213.917 139.571C213.93 139.612 213.931 139.656 213.922 139.698C213.91 139.742 213.896 139.786 213.878 139.828C214.159 139.929 214.462 139.957 214.757 139.91C214.865 139.686 214.96 139.455 215.041 139.219L214.814 139.158C214.73 139.137 214.655 139.086 214.606 139.014C214.581 138.977 214.564 138.936 214.556 138.893C214.548 138.85 214.549 138.805 214.559 138.762C214.579 138.676 214.632 138.601 214.706 138.553C214.743 138.53 214.785 138.513 214.828 138.506C214.871 138.499 214.916 138.5 214.958 138.51L215.228 138.575C215.317 138.214 215.356 137.842 215.344 137.47H215.322C215.187 137.533 215.058 137.609 214.937 137.696C214.863 137.735 214.776 137.745 214.695 137.724C214.614 137.702 214.544 137.651 214.499 137.581C214.454 137.51 214.437 137.425 214.451 137.343C214.466 137.26 214.51 137.186 214.577 137.135L214.559 137.16Z" fill="white"/>
<path d="M205.303 139.453C205.235 139.918 206.495 140.224 207.525 140.397C207.442 141.239 206.88 142.092 206.085 142.888C205.109 142.341 203.716 141.613 203.46 141.79C203.205 141.966 204.605 142.906 205.498 143.449C204.86 144.004 204.185 144.516 203.478 144.979C203.043 144.569 202.528 144.213 202.225 144.407C201.923 144.601 201.991 145.239 202.15 145.804C201.07 146.423 200.292 146.797 200.292 146.797C199.979 145.812 199.739 144.805 199.572 143.784C199.626 143.68 199.68 143.572 199.727 143.46C199.9 143.064 199.727 142.895 199.45 142.841C199.371 142.123 199.365 141.4 199.432 140.681C200.634 140.429 202.096 139.961 201.549 139.241C201.217 138.805 200.613 138.759 199.986 138.881C200.071 138.737 200.17 138.602 200.281 138.478C202.47 136.066 203.993 138.478 203.993 138.478C205.264 137.416 207.049 137.704 207.435 139.36C206.751 139.151 205.386 138.877 205.303 139.453Z" fill="#D1A53D"/>
<path opacity="0.5" d="M205.303 139.453C205.235 139.918 206.495 140.224 207.525 140.397C207.442 141.239 206.88 142.092 206.085 142.888C205.109 142.341 203.716 141.613 203.46 141.79C203.205 141.966 204.605 142.906 205.498 143.449C204.86 144.004 204.185 144.516 203.478 144.979C203.043 144.569 202.528 144.213 202.225 144.407C201.923 144.601 201.991 145.239 202.15 145.804C201.07 146.423 200.292 146.797 200.292 146.797C199.979 145.812 199.739 144.805 199.572 143.784C199.626 143.68 199.68 143.572 199.727 143.46C199.9 143.064 199.727 142.895 199.45 142.841C199.371 142.123 199.365 141.4 199.432 140.681C200.634 140.429 202.096 139.961 201.549 139.241C201.217 138.805 200.613 138.759 199.986 138.881C200.071 138.737 200.17 138.602 200.281 138.478C202.47 136.066 203.993 138.478 203.993 138.478C205.264 137.416 207.049 137.704 207.435 139.36C206.751 139.151 205.386 138.877 205.303 139.453Z" fill="white"/>
<path d="M93.5195 154.195C93.5195 154.195 91.8419 150.534 93.7571 146.923C95.6723 143.313 96.2303 142.463 95.0099 141.725C93.7895 140.987 93.2099 144.605 93.2099 144.605C92.6043 142.965 92.5425 141.174 93.0335 139.497C93.8831 136.887 94.4159 132.631 93.2531 132.174C92.0903 131.717 93.0335 137.481 92.0255 139.446C91.5101 138.068 91.1785 136.627 91.0391 135.162C90.8987 133.063 91.1147 129.715 90.2003 128.855C89.2859 127.995 88.6919 128.589 89.5955 133.218C90.1365 135.985 90.4364 138.794 90.4919 141.613C90.4919 141.613 88.5119 135.547 87.1763 135.36C85.8407 135.173 85.8407 137.16 86.9855 138.852C88.1303 140.544 90.3371 143.615 90.6971 145.188C90.6971 145.188 88.5119 140.616 86.5463 142.02C84.5807 143.424 88.2563 146.178 89.8979 147.175C91.5395 148.173 92.6735 154.44 92.6735 154.44L93.5195 154.195Z" fill="#D1A53D"/>
<path opacity="0.2" d="M93.5195 154.195C93.5195 154.195 91.8419 150.534 93.7571 146.923C95.6723 143.313 96.2303 142.463 95.0099 141.725C93.7895 140.987 93.2099 144.605 93.2099 144.605C92.6043 142.965 92.5425 141.174 93.0335 139.497C93.8831 136.887 94.4159 132.631 93.2531 132.174C92.0903 131.717 93.0335 137.481 92.0255 139.446C91.5101 138.068 91.1785 136.627 91.0391 135.162C90.8987 133.063 91.1147 129.715 90.2003 128.855C89.2859 127.995 88.6919 128.589 89.5955 133.218C90.1365 135.985 90.4364 138.794 90.4919 141.613C90.4919 141.613 88.5119 135.547 87.1763 135.36C85.8407 135.173 85.8407 137.16 86.9855 138.852C88.1303 140.544 90.3371 143.615 90.6971 145.188C90.6971 145.188 88.5119 140.616 86.5463 142.02C84.5807 143.424 88.2563 146.178 89.8979 147.175C91.5395 148.173 92.6735 154.44 92.6735 154.44L93.5195 154.195Z" fill="black"/>
<path d="M92.1951 155.697C92.1951 155.697 93.8295 152.01 91.8675 148.428C89.9055 144.846 89.3475 144.008 90.5535 143.248C91.7595 142.488 92.3535 146.11 92.3535 146.11C92.9396 144.464 92.9813 142.673 92.4723 141.002C91.5903 138.402 91.0071 134.162 92.1627 133.683C93.3183 133.204 92.4471 138.986 93.4803 140.933C93.9773 139.547 94.2907 138.102 94.4127 136.635C94.5279 134.536 94.2723 131.192 95.1795 130.317C96.0867 129.442 96.6807 130.029 95.8347 134.673C95.3259 137.446 95.0597 140.259 95.0391 143.079C95.0391 143.079 96.9579 136.977 98.2791 136.779C99.6003 136.581 99.6363 138.546 98.5095 140.271C97.3827 141.995 95.2515 145.08 94.9203 146.661C94.9203 146.661 97.0515 142.056 99.0351 143.421C101.019 144.785 97.3755 147.608 95.7483 148.63C94.1211 149.652 93.0555 155.92 93.0555 155.92L92.1951 155.697Z" fill="#D1A53D"/>
<path d="M97.6883 153.969H87.9395L88.7315 160.946H96.8999L97.6883 153.969Z" fill="#263238"/>
<path d="M172.604 70.1997C172.604 70.1997 173.22 73.5729 177.68 75.0957C177.68 75.0957 175.142 72.6477 175.142 70.1997H172.604Z" fill="#D1A53D"/>
<path opacity="0.8" d="M172.604 70.1997C172.604 70.1997 173.22 73.5729 177.68 75.0957C177.68 75.0957 175.142 72.6477 175.142 70.1997H172.604Z" fill="white"/>
<path d="M178.969 62.5894H168.994C168.439 62.5894 167.989 63.039 167.989 63.5938V70.2502C167.989 70.8049 168.439 71.2546 168.994 71.2546H178.969C179.524 71.2546 179.974 70.8049 179.974 70.2502V63.5938C179.974 63.039 179.524 62.5894 178.969 62.5894Z" fill="#D1A53D"/>
<path opacity="0.8" d="M178.969 62.5894H168.994C168.439 62.5894 167.989 63.039 167.989 63.5938V70.2502C167.989 70.8049 168.439 71.2546 168.994 71.2546H178.969C179.524 71.2546 179.974 70.8049 179.974 70.2502V63.5938C179.974 63.039 179.524 62.5894 178.969 62.5894Z" fill="white"/>
<path d="M171.564 66.9204C171.564 67.0521 171.525 67.1809 171.452 67.2904C171.379 67.3999 171.275 67.4853 171.153 67.5357C171.032 67.5861 170.898 67.5993 170.768 67.5736C170.639 67.5479 170.521 67.4845 170.427 67.3913C170.334 67.2982 170.271 67.1795 170.245 67.0503C170.22 66.9211 170.233 66.7872 170.283 66.6655C170.334 66.5438 170.419 66.4398 170.528 66.3666C170.638 66.2935 170.767 66.2544 170.898 66.2544C170.986 66.2544 171.072 66.2716 171.153 66.3051C171.234 66.3386 171.308 66.3876 171.369 66.4495C171.431 66.5113 171.48 66.5847 171.514 66.6655C171.547 66.7463 171.564 66.8329 171.564 66.9204Z" fill="#D1A53D"/>
<path d="M173.979 67.5864C174.347 67.5864 174.645 67.2882 174.645 66.9204C174.645 66.5526 174.347 66.2544 173.979 66.2544C173.612 66.2544 173.313 66.5526 173.313 66.9204C173.313 67.2882 173.612 67.5864 173.979 67.5864Z" fill="#D1A53D"/>
<path d="M177.062 67.5864C177.429 67.5864 177.728 67.2882 177.728 66.9204C177.728 66.5526 177.429 66.2544 177.062 66.2544C176.694 66.2544 176.396 66.5526 176.396 66.9204C176.396 67.2882 176.694 67.5864 177.062 67.5864Z" fill="#D1A53D"/>
<path d="M158.889 79.2827C158.889 79.2827 158.277 82.6595 153.816 84.1823C153.816 84.1823 156.336 81.7307 156.336 79.2827H158.889Z" fill="#D1A53D"/>
<path opacity="0.8" d="M158.889 79.2827C158.889 79.2827 158.277 82.6595 153.816 84.1823C153.816 84.1823 156.336 81.7307 156.336 79.2827H158.889Z" fill="white"/>
<path d="M152.528 80.3481H162.503C163.058 80.3481 163.508 79.8985 163.508 79.3437V72.6873C163.508 72.1326 163.058 71.6829 162.503 71.6829H152.528C151.973 71.6829 151.523 72.1326 151.523 72.6873V79.3437C151.523 79.8985 151.973 80.3481 152.528 80.3481Z" fill="#D1A53D"/>
<path opacity="0.8" d="M152.528 80.3481H162.503C163.058 80.3481 163.508 79.8985 163.508 79.3437V72.6873C163.508 72.1326 163.058 71.6829 162.503 71.6829H152.528C151.973 71.6829 151.523 72.1326 151.523 72.6873V79.3437C151.523 79.8985 151.973 80.3481 152.528 80.3481Z" fill="white"/>
<path d="M159.933 76.014C159.932 76.1458 159.97 76.275 160.043 76.385C160.116 76.495 160.22 76.5809 160.341 76.6318C160.463 76.6828 160.597 76.6965 160.726 76.6712C160.856 76.6459 160.975 76.5828 161.068 76.4898C161.162 76.3968 161.226 76.2781 161.252 76.1488C161.278 76.0195 161.265 75.8854 161.214 75.7635C161.164 75.6416 161.079 75.5374 160.969 75.4641C160.859 75.3907 160.731 75.3516 160.599 75.3516C160.423 75.3516 160.254 75.4212 160.129 75.5454C160.004 75.6695 159.934 75.838 159.933 76.014Z" fill="#D1A53D"/>
<path d="M156.841 76.014C156.84 76.146 156.879 76.2753 156.952 76.3853C157.024 76.4954 157.128 76.5813 157.25 76.6322C157.372 76.683 157.506 76.6965 157.636 76.6709C157.765 76.6454 157.884 76.5819 157.978 76.4885C158.071 76.3951 158.135 76.2761 158.16 76.1466C158.186 76.0171 158.172 75.8829 158.121 75.761C158.071 75.6392 157.985 75.5352 157.875 75.4623C157.764 75.3894 157.635 75.3509 157.503 75.3516C157.328 75.3516 157.159 75.4214 157.035 75.5456C156.911 75.6698 156.841 75.8383 156.841 76.014Z" fill="#D1A53D"/>
<path d="M153.767 76.014C153.766 76.1458 153.804 76.275 153.877 76.385C153.95 76.495 154.054 76.5809 154.175 76.6318C154.297 76.6828 154.431 76.6965 154.56 76.6712C154.69 76.6459 154.809 76.5828 154.902 76.4898C154.996 76.3968 155.06 76.2781 155.086 76.1488C155.112 76.0195 155.099 75.8854 155.048 75.7635C154.998 75.6416 154.913 75.5374 154.803 75.4641C154.693 75.3907 154.564 75.3516 154.433 75.3516C154.257 75.3516 154.088 75.4212 153.963 75.5454C153.838 75.6695 153.768 75.838 153.767 76.014Z" fill="#D1A53D"/>
<path d="M133.527 68.1694C133.527 68.1694 132.915 71.5426 128.454 73.0654C128.454 73.0654 130.974 70.6174 130.974 68.1694H133.527Z" fill="#D1A53D"/>
<path opacity="0.8" d="M133.527 68.1694C133.527 68.1694 132.915 71.5426 128.454 73.0654C128.454 73.0654 130.974 70.6174 130.974 68.1694H133.527Z" fill="white"/>
<path d="M135.812 60.5664H128.825C128.27 60.5664 127.82 61.0161 127.82 61.5708V68.2272C127.82 68.7819 128.27 69.2316 128.825 69.2316H135.812C136.367 69.2316 136.817 68.7819 136.817 68.2272V61.5708C136.817 61.0161 136.367 60.5664 135.812 60.5664Z" fill="#D1A53D"/>
<path opacity="0.8" d="M135.812 60.5664H128.825C128.27 60.5664 127.82 61.0161 127.82 61.5708V68.2272C127.82 68.7819 128.27 69.2316 128.825 69.2316H135.812C136.367 69.2316 136.817 68.7819 136.817 68.2272V61.5708C136.817 61.0161 136.367 60.5664 135.812 60.5664Z" fill="white"/>
<path d="M134.36 73.0479C134.36 72.6173 134.428 72.2392 134.564 71.9135C134.712 71.5879 134.89 71.3096 135.1 71.0785C135.31 70.8475 135.583 70.5849 135.919 70.2908C136.371 69.8917 136.702 69.5451 136.912 69.251C137.133 68.9464 137.243 68.5788 137.243 68.1481C137.243 67.5704 137.017 67.1083 136.565 66.7617C136.114 66.4046 135.494 66.226 134.706 66.226C133.404 66.226 132.401 66.6514 131.697 67.5022L130.862 66.872C131.755 65.7796 133.062 65.2335 134.785 65.2335C135.888 65.2335 136.765 65.4803 137.416 65.9739C138.078 66.4676 138.409 67.1345 138.409 67.9748C138.409 68.4054 138.335 68.7888 138.188 69.1249C138.052 69.4505 137.878 69.7289 137.668 69.9599C137.469 70.191 137.201 70.4588 136.865 70.7634C136.413 71.1731 136.077 71.5407 135.856 71.8663C135.636 72.1814 135.526 72.5753 135.526 73.0479H134.36ZM134.943 76.4352C134.712 76.4352 134.517 76.3564 134.36 76.1989C134.202 76.0308 134.123 75.8365 134.123 75.616C134.123 75.3849 134.202 75.1958 134.36 75.0488C134.517 74.8912 134.712 74.8125 134.943 74.8125C135.184 74.8125 135.384 74.8912 135.541 75.0488C135.699 75.1958 135.778 75.3849 135.778 75.616C135.778 75.8365 135.694 76.0308 135.526 76.1989C135.368 76.3564 135.174 76.4352 134.943 76.4352Z" fill="#D1A53D"/>
<path d="M181.871 84.7115C181.369 84.5204 180.813 84.5359 180.323 84.7546C179.833 84.9732 179.45 85.3772 179.257 85.8779V85.8995C178.897 86.8211 178.537 87.7895 178.177 88.7291C177.817 89.6687 177.428 90.6119 177.039 91.5371C176.651 92.4623 176.237 93.3695 175.808 94.2371C175.596 94.6691 175.365 95.0903 175.142 95.4863C175.038 95.6627 174.93 95.8463 174.825 95.9903C174.735 95.8679 174.645 95.7347 174.555 95.5979C174.249 95.1263 173.954 94.6079 173.663 94.0751C173.371 93.5423 173.083 92.9951 172.802 92.4623L172.781 92.4227C172.668 92.2165 172.488 92.0556 172.27 91.9675C172.052 91.8794 171.811 91.8695 171.586 91.9396C171.362 92.0097 171.169 92.1553 171.04 92.3517C170.912 92.5481 170.855 92.7831 170.88 93.0167C170.961 93.6832 171.081 94.3443 171.24 94.9967C171.398 95.6613 171.598 96.3154 171.837 96.9551C171.971 97.2991 172.124 97.6356 172.295 97.9631C172.494 98.3538 172.743 98.7169 173.036 99.0431C173.244 99.2791 173.487 99.4819 173.756 99.6443C174.174 99.9072 174.66 100.04 175.153 100.026C175.437 100.015 175.717 99.9569 175.981 99.8531C176.201 99.7582 176.409 99.6373 176.6 99.4931C176.807 99.3355 176.995 99.1556 177.162 98.9567C177.586 98.4984 177.975 98.0086 178.325 97.4915L178.404 97.3727C178.703 96.9299 178.965 96.4907 179.217 96.0479C179.772 95.0867 180.254 94.1219 180.708 93.1679C180.873 92.8079 181.035 92.4479 181.19 92.0879C181.467 91.4687 181.727 90.8459 181.979 90.2195C182.367 89.2259 182.749 88.2575 183.091 87.2243C183.25 86.7289 183.211 86.1914 182.984 85.7235C182.757 85.2556 182.358 84.8932 181.871 84.7115Z" fill="#BE202F"/>
<path opacity="0.2" d="M181.165 92.1024C181.01 92.4624 180.848 92.8224 180.683 93.1824C180.229 94.1545 179.747 95.1193 179.192 96.0625C178.94 96.5053 178.677 96.9445 178.379 97.3873C177.849 94.4461 179.693 90.936 179.693 90.936C180.197 91.0296 180.701 91.4616 181.165 92.1024Z" fill="black"/>
<path d="M195.191 95.9472C195.191 96.4728 195.148 97.0272 195.119 97.5708C195.029 99.2196 194.874 101.023 194.64 102.971C194.566 103.619 194.48 104.285 194.384 104.969L179.084 105.232C178.339 103.194 177.67 98.7984 179.765 94.9752C179.765 92.5308 179.164 89.8236 179.088 87.2064C179.041 85.5684 180.463 84.0636 182.404 83.7216C185.377 83.2299 188.399 83.0982 191.404 83.3292C193.052 83.4408 194.352 84.4308 194.608 85.8024C194.858 87.2197 195.028 88.65 195.119 90.0864C195.22 91.7244 195.266 93.6756 195.191 95.9472Z" fill="#BE202F"/>
<path d="M183.97 83.2067C183.612 83.3725 183.328 83.6666 183.175 84.0311C183.023 84.3956 183.012 84.8041 183.146 85.1759C183.29 85.7148 183.569 86.2082 183.957 86.6099C184.344 87.0116 184.827 87.3084 185.36 87.4727C185.975 87.6023 189.626 85.6727 190.083 83.9627C190.54 82.2527 183.97 83.2067 183.97 83.2067Z" fill="black"/>
<path opacity="0.5" d="M183.97 83.2067C183.612 83.3725 183.328 83.6666 183.175 84.0311C183.023 84.3956 183.012 84.8041 183.146 85.1759C183.29 85.7148 183.569 86.2082 183.957 86.6099C184.344 87.0116 184.827 87.3084 185.36 87.4727C185.975 87.6023 189.626 85.6727 190.083 83.9627C190.54 82.2527 183.97 83.2067 183.97 83.2067Z" fill="#F34954"/>
<path opacity="0.2" d="M195.119 97.5601C195.029 99.2089 194.874 101.012 194.64 102.96C192.84 102.924 190.161 102.704 189.517 101.74C188.531 100.26 189.315 99.3817 189.315 99.3817C189.315 99.3817 193.531 98.4529 195.119 97.5601Z" fill="black"/>
<path opacity="0.2" d="M195.191 95.9474C193.255 93.9962 192.758 88.0273 192.758 88.0273C192.758 88.0273 193.877 88.8985 195.112 90.0901C195.22 91.7245 195.267 93.6758 195.191 95.9474Z" fill="black"/>
<path d="M171.704 94.2442L168.824 93.4163L170.909 90.9395C170.909 90.9395 173.339 91.6595 172.95 93.1679L171.704 94.2442Z" fill="#FEBBBA"/>
<path d="M167.896 91.5951L168.616 90.4539C168.675 90.3567 168.754 90.2724 168.846 90.2062C168.939 90.14 169.044 90.0932 169.156 90.0687C169.267 90.0441 169.382 90.0423 169.494 90.0634C169.606 90.0844 169.713 90.1279 169.807 90.1911L170.927 90.9399L168.843 93.4167L168.047 92.6463C167.905 92.5151 167.812 92.3389 167.785 92.1475C167.757 91.9561 167.797 91.7611 167.896 91.5951Z" fill="#FEBBBA"/>
<path d="M178.995 159.304L181.904 159.351C181.956 159.35 182.007 159.369 182.047 159.403C182.087 159.438 182.113 159.486 182.12 159.538L182.48 161.917C182.488 161.976 182.483 162.036 182.466 162.093C182.449 162.15 182.42 162.202 182.381 162.247C182.341 162.291 182.293 162.327 182.238 162.351C182.184 162.375 182.125 162.386 182.066 162.385C181.014 162.349 179.502 162.266 178.181 162.245C176.637 162.22 176.792 162.284 174.981 162.245C173.901 162.245 173.656 161.115 174.12 161.021C176.234 160.6 176.45 160.575 178.322 159.491C178.525 159.369 178.758 159.305 178.995 159.304Z" fill="#515959"/>
<path d="M183.373 131.4C186.613 117.778 189.716 111.867 188.488 105.12L179.081 105.232C179.081 105.232 175.373 123.761 176.162 131.749C176.983 140.058 178.181 159.394 178.181 159.394L182.476 159.455C182.476 159.455 184.978 140.692 183.373 131.4Z" fill="black"/>
<path opacity="0.3" d="M183.373 131.4C186.613 117.778 189.716 111.867 188.488 105.12L179.081 105.232C179.081 105.232 175.373 123.761 176.162 131.749C176.983 140.058 178.181 159.394 178.181 159.394L182.476 159.455C182.476 159.455 184.978 140.692 183.373 131.4Z" fill="black"/>
<path opacity="0.2" d="M183.84 129.471C185.579 122.526 187.21 117.699 188.085 113.652C181.976 115.848 182.498 123.459 183.84 129.471Z" fill="black"/>
<path d="M193.658 159.304L196.567 159.35C196.618 159.351 196.667 159.371 196.705 159.405C196.743 159.44 196.766 159.487 196.772 159.538L197.027 161.917C197.032 161.977 197.024 162.038 197.004 162.095C196.984 162.152 196.952 162.204 196.911 162.248C196.869 162.292 196.819 162.327 196.764 162.35C196.708 162.374 196.648 162.386 196.588 162.385C195.541 162.349 195.213 162.266 193.892 162.245C192.351 162.22 193.06 162.284 191.253 162.245C190.173 162.245 189.986 161.122 190.454 161.021C191.933 160.711 192.322 160.121 192.992 159.491C193.183 159.348 193.42 159.281 193.658 159.304Z" fill="#515959"/>
<path d="M193.319 131.4C194.781 117.778 196.501 111.716 194.399 104.962L184.593 105.225C184.593 105.225 184.326 123.754 186.166 131.742C188.081 140.051 192.549 159.387 192.549 159.387L196.869 159.448C196.869 159.448 196.145 140.692 193.319 131.4Z" fill="black"/>
<path opacity="0.3" d="M193.319 131.4C194.781 117.778 196.501 111.716 194.399 104.962L184.593 105.225C184.593 105.225 184.326 123.754 186.166 131.742C188.081 140.051 192.549 159.387 192.549 159.387L196.869 159.448C196.869 159.448 196.145 140.692 193.319 131.4Z" fill="black"/>
<path d="M188.178 79.5815C188.178 81.1475 188.272 82.9799 189.553 84.0815C188.833 85.0427 187.454 86.5151 185.456 86.2595C183.257 85.9787 183.682 83.9807 184.168 83.3543C185.248 82.7315 184.949 81.7955 184.826 81.1439L188.178 79.5815Z" fill="#FEBBBA"/>
<path opacity="0.2" d="M187.44 80.2224C187.44 80.1252 187.44 80.0244 187.44 79.9272L184.83 81.144C184.958 81.5824 184.983 82.0445 184.902 82.494C186.155 82.1124 187.411 81.1692 187.44 80.2224Z" fill="black"/>
<path d="M189.485 75.2401C189.15 77.8645 189.089 79.4161 187.667 80.6725C185.532 82.5589 182.353 81.1081 181.907 78.4297C181.497 76.0213 182.112 72.1333 184.762 71.2765C185.348 71.0882 185.973 71.0516 186.577 71.1702C187.181 71.2888 187.746 71.5586 188.218 71.9545C188.689 72.3504 189.053 72.8594 189.275 73.434C189.496 74.0085 189.569 74.6299 189.485 75.2401Z" fill="#FEBBBA"/>
<path d="M185.28 75.7802C185.28 75.9962 185.14 76.1618 185 76.1402C184.859 76.1186 184.758 75.9458 184.773 75.7334C184.787 75.521 184.91 75.3518 185.05 75.3734C185.19 75.395 185.298 75.5678 185.28 75.7802Z" fill="black"/>
<path d="M182.599 75.665C182.599 75.881 182.462 76.0466 182.322 76.025C182.181 76.0034 182.077 75.8306 182.091 75.6182C182.106 75.4058 182.232 75.2366 182.372 75.2582C182.512 75.2798 182.613 75.449 182.599 75.665Z" fill="black"/>
<path d="M183.38 75.9385C183.042 76.5552 182.62 77.1222 182.127 77.6233C182.259 77.7471 182.416 77.8408 182.587 77.898C182.759 77.9552 182.941 77.9745 183.121 77.9545L183.38 75.9385Z" fill="#F34954"/>
<path d="M185.77 74.3545C185.791 74.3506 185.812 74.3433 185.831 74.3329C185.858 74.3139 185.878 74.2849 185.884 74.252C185.891 74.2191 185.885 74.1849 185.867 74.1566C185.76 73.9855 185.615 73.8424 185.442 73.7391C185.269 73.6358 185.074 73.5752 184.873 73.5626C184.856 73.5621 184.84 73.565 184.824 73.5711C184.809 73.5773 184.795 73.5866 184.783 73.5984C184.771 73.6102 184.762 73.6242 184.756 73.6398C184.75 73.6553 184.747 73.6719 184.747 73.6886C184.747 73.7051 184.75 73.7215 184.757 73.7368C184.763 73.7521 184.772 73.7659 184.784 73.7776C184.796 73.7893 184.81 73.7986 184.825 73.805C184.84 73.8113 184.857 73.8146 184.873 73.8146C185.032 73.8271 185.186 73.8774 185.322 73.9613C185.458 74.0452 185.572 74.1602 185.654 74.2969C185.667 74.3153 185.685 74.3301 185.705 74.3402C185.725 74.3502 185.747 74.3551 185.77 74.3545Z" fill="black"/>
<path d="M181.785 74.5705C181.805 74.5747 181.826 74.5735 181.845 74.5672C181.865 74.5609 181.883 74.5496 181.897 74.5345C182.003 74.4175 182.136 74.3278 182.285 74.2727C182.433 74.2175 182.593 74.1987 182.75 74.2177C182.766 74.2208 182.783 74.2207 182.799 74.2173C182.815 74.2139 182.831 74.2074 182.845 74.198C182.858 74.1886 182.87 74.1766 182.879 74.1627C182.888 74.1488 182.894 74.1332 182.897 74.1169C182.9 74.1006 182.9 74.0838 182.897 74.0675C182.894 74.0513 182.887 74.0358 182.878 74.0221C182.868 74.0084 182.856 73.9967 182.842 73.9876C182.828 73.9785 182.813 73.9723 182.797 73.9693C182.599 73.9424 182.397 73.9637 182.209 74.0314C182.021 74.0991 181.852 74.2112 181.717 74.3581C181.705 74.3698 181.695 74.3838 181.689 74.3993C181.682 74.4147 181.679 74.4313 181.679 74.4481C181.679 74.4649 181.682 74.4814 181.689 74.4969C181.695 74.5124 181.705 74.5264 181.717 74.5381C181.735 74.5565 181.759 74.568 181.785 74.5705Z" fill="black"/>
<path d="M183.314 78.4803C183.572 78.8126 183.805 79.1627 184.013 79.5279L184.222 79.4487C185.161 79.0887 185.478 78.6135 185.546 78.1923C185.584 77.8682 185.508 77.5411 185.33 77.2671C184.945 77.7531 184.096 78.1563 183.631 78.3471C183.44 78.4443 183.314 78.4803 183.314 78.4803Z" fill="#BE202F"/>
<path d="M183.632 78.3613L183.848 78.6637C184.73 78.3217 185.309 77.9617 185.482 77.5837C185.446 77.4732 185.395 77.3679 185.331 77.2705C184.946 77.7601 184.096 78.1633 183.632 78.3613Z" fill="white"/>
<path d="M184.222 79.4556C185.161 79.0956 185.478 78.6204 185.546 78.1992C185.191 78.3434 184.865 78.5494 184.582 78.8076C184.396 78.98 184.27 79.2069 184.222 79.4556Z" fill="#F34954"/>
<path d="M183.206 72.3385C183.206 72.3385 182.425 71.8849 182.9 70.7401C183.376 69.5953 187.901 70.4305 189.881 72.1801C191.861 73.9297 189.24 77.2741 189.24 77.2741L188.027 77.9581C188.027 77.9581 186.86 75.2581 187.667 73.2781C187.175 72.9145 186.663 72.5792 186.133 72.2737C185.798 72.1261 184.254 73.1053 183.206 72.3385Z" fill="black"/>
<path d="M190.209 77.9902C189.849 78.5493 189.284 78.944 188.635 79.0882C187.775 79.2682 187.393 78.4834 187.674 77.6986C187.926 76.9786 188.682 76.0462 189.528 76.2154C189.712 76.2558 189.883 76.3413 190.026 76.4641C190.169 76.587 190.279 76.7435 190.347 76.9194C190.414 77.0954 190.437 77.2854 190.413 77.4723C190.389 77.6592 190.318 77.8372 190.209 77.9902Z" fill="#FEBBBA"/>
<path d="M199.903 97.0743C199.903 96.9627 199.903 96.8115 199.882 96.7611L199.835 96.3363C199.795 96.0591 199.756 95.7783 199.702 95.5119C199.256 93.4638 198.542 91.4836 197.578 89.6223C197.121 88.7151 196.638 87.8223 196.113 86.9727C195.853 86.5407 195.587 86.1159 195.31 85.6947C195.033 85.2735 194.759 84.8703 194.435 84.4239C194.118 84.0049 193.65 83.7257 193.131 83.6454C192.612 83.565 192.082 83.6898 191.653 83.9933C191.224 84.2969 190.93 84.7553 190.833 85.2717C190.736 85.7881 190.844 86.322 191.134 86.7603L191.152 86.7927C191.386 87.1311 191.649 87.5379 191.893 87.9159C192.138 88.2939 192.39 88.6935 192.613 89.0859C193.089 89.8779 193.557 90.6663 193.985 91.4727C194.85 93.0079 195.54 94.6358 196.041 96.3255C196.102 96.5271 196.138 96.7215 196.185 96.9195L196.239 97.2111C196.239 97.2795 196.239 97.2507 196.239 97.2579C196.239 97.2651 196.239 97.2579 196.239 97.2579C196.239 97.2579 196.267 97.2111 196.278 97.2255C196.289 97.2399 196.278 97.2939 196.21 97.3695C196.01 97.5908 195.772 97.7749 195.508 97.9131C195.163 98.1166 194.802 98.2912 194.428 98.4351C193.592 98.755 192.737 99.0219 191.868 99.2343C191.422 99.3423 190.972 99.4575 190.515 99.5583C190.057 99.6591 189.589 99.7455 189.154 99.8355H189.096C188.854 99.8805 188.637 100.013 188.486 100.208C188.335 100.403 188.261 100.646 188.278 100.892C188.295 101.138 188.401 101.369 188.577 101.541C188.754 101.713 188.987 101.815 189.233 101.826C191.283 101.985 193.344 101.845 195.353 101.409C195.901 101.28 196.438 101.109 196.959 100.898C197.579 100.645 198.152 100.29 198.654 99.8463C198.975 99.5601 199.245 99.2217 199.453 98.8455C199.693 98.4097 199.836 97.927 199.871 97.4307C199.9 97.3191 199.911 97.2003 199.903 97.0743Z" fill="#BE202F"/>
<path d="M188.668 82.5698C188.733 83.1782 188.006 85.3346 185.457 86.2598C186.44 86.2598 186.868 87.5126 186.868 87.5126C186.868 87.5126 190.249 85.7126 189.845 83.5526C189.795 83.2771 189.65 83.0279 189.435 82.8484C189.219 82.6688 188.948 82.5703 188.668 82.5698Z" fill="black"/>
<path d="M184.665 82.7354C184.73 83.3294 184.038 84.5822 185.457 86.2598C184.47 86.2598 183.884 87.2462 183.884 87.2462C183.504 86.653 183.279 85.974 183.23 85.2714C183.181 84.5688 183.309 83.8651 183.603 83.2249C183.899 82.9574 184.269 82.7866 184.665 82.7354Z" fill="black"/>
<path d="M178.89 104.645L178.8 106.708L194.748 106.276L194.485 104.216L178.89 104.645Z" fill="black"/>
<path opacity="0.3" d="M178.89 104.645L178.8 106.708L194.748 106.276L194.485 104.216L178.89 104.645Z" fill="black"/>
<path d="M193.186 105.703L194.748 105.674L194.539 104.638L193.186 104.666V105.703Z" fill="#BE202F"/>
<path d="M192.761 104.674L187.116 104.796V105.819L192.761 105.711V104.674Z" fill="#BE202F"/>
<path d="M180.031 104.944L178.8 104.973V105.97L180.031 105.948V104.944Z" fill="#BE202F"/>
<path d="M180.396 104.937V105.941L186.562 105.826V104.807L180.396 104.937Z" fill="#BE202F"/>
<path d="M183.746 106.135H182.422C182.339 106.135 182.26 106.103 182.201 106.045C182.143 105.987 182.109 105.908 182.108 105.826V105.041C182.108 104.959 182.14 104.88 182.198 104.822C182.255 104.763 182.333 104.729 182.414 104.728L183.739 104.699C183.823 104.701 183.903 104.733 183.966 104.789C183.996 104.818 184.019 104.853 184.035 104.891C184.051 104.929 184.06 104.97 184.06 105.012V105.84C184.055 105.92 184.02 105.995 183.962 106.05C183.903 106.105 183.826 106.135 183.746 106.135ZM182.44 105.055V105.84L183.746 105.818L183.728 105.026L182.44 105.055Z" fill="white"/>
<path d="M183.606 105.585H183.221C183.178 105.584 183.136 105.566 183.105 105.535C183.074 105.504 183.057 105.463 183.056 105.419C183.056 105.375 183.073 105.333 183.104 105.302C183.135 105.271 183.177 105.253 183.221 105.253H183.606C183.628 105.253 183.65 105.257 183.67 105.265C183.691 105.273 183.709 105.285 183.725 105.301C183.74 105.316 183.752 105.335 183.76 105.355C183.769 105.375 183.773 105.397 183.772 105.419C183.772 105.463 183.755 105.505 183.724 105.536C183.692 105.567 183.65 105.585 183.606 105.585Z" fill="white"/>
<path d="M184.755 101.754H187.444L187.934 96.9663H184.262L184.755 101.754Z" fill="black"/>
<path d="M184.064 97.1641H188.132V96.6816H184.064V97.1641Z" fill="white"/>
<path d="M184.884 99.2198C184.915 99.4076 184.999 99.5826 185.126 99.7242C185.253 99.8658 185.419 99.968 185.602 100.019C185.785 100.07 185.98 100.067 186.162 100.011C186.343 99.9547 186.506 99.8478 186.629 99.7026C186.752 99.5574 186.831 99.38 186.856 99.1914C186.882 99.0028 186.853 98.8108 186.773 98.6381C186.693 98.4654 186.565 98.3193 186.404 98.2169C186.244 98.1146 186.057 98.0603 185.867 98.0605C185.583 98.0853 185.321 98.221 185.137 98.438C184.953 98.6551 184.862 98.936 184.884 99.2198Z" fill="white"/>
<path d="M190.395 99.6951L187.829 98.8599L187.731 102.1C187.731 102.1 190.147 102.575 190.611 101.329L190.395 99.6951Z" fill="#FEBBBA"/>
<path d="M185.32 100.112L185.475 101.254C185.505 101.473 185.613 101.675 185.779 101.823C185.944 101.97 186.157 102.054 186.378 102.06L187.732 102.096L187.829 98.856L186.137 99.054C186.013 99.0681 185.894 99.1069 185.785 99.1682C185.676 99.2294 185.581 99.3118 185.505 99.4105C185.429 99.5092 185.373 99.6221 185.341 99.7427C185.31 99.8632 185.302 99.9889 185.32 100.112Z" fill="#FEBBBA"/>
<path opacity="0.7" d="M188.668 82.5698C188.733 83.1782 188.006 85.3346 185.457 86.2598C186.44 86.2598 186.868 87.5126 186.868 87.5126C186.868 87.5126 190.249 85.7126 189.845 83.5526C189.795 83.2771 189.65 83.0279 189.435 82.8484C189.219 82.6688 188.948 82.5703 188.668 82.5698Z" fill="#F34954"/>
<path opacity="0.7" d="M184.665 82.7354C184.73 83.3294 184.038 84.5822 185.457 86.2598C184.47 86.2598 183.884 87.2462 183.884 87.2462C183.504 86.653 183.279 85.974 183.23 85.2714C183.181 84.5688 183.309 83.8651 183.603 83.2249C183.899 82.9574 184.269 82.7866 184.665 82.7354Z" fill="#F34954"/>
<path d="M164.66 99.7417L167.399 99.3817L166.233 96.9985C166.233 96.9985 163.713 97.7365 163.785 98.5537L164.66 99.7417Z" fill="#FEBBBA"/>
<path d="M168.792 97.3549L167.55 95.9077L166.232 97.0129L167.399 99.3961L168.792 97.3549Z" fill="#FEBBBA"/>
<path d="M151.135 95.4396C151.135 95.4396 153.025 100.091 156.092 101.786C159.159 103.482 164.933 99.7416 164.933 99.7416L164.041 98.0892C164.041 98.0892 157.683 99.648 157.42 99.4104C157.157 99.1728 154.313 91.4904 150.674 90.4536L151.135 95.4396Z" fill="#BE202F"/>
<path opacity="0.7" d="M164.936 99.745C164.936 99.745 159.176 103.485 156.091 101.786C155.07 101.177 154.179 100.372 153.47 99.4174C152.529 98.2005 151.744 96.8701 151.134 95.4574L150.688 90.4678C154.323 91.4938 157.167 99.1906 157.434 99.4282C157.7 99.6658 164.04 98.089 164.04 98.089L164.936 99.745Z" fill="white"/>
<path opacity="0.1" d="M153.471 99.4177C152.869 98.6494 152.336 97.8304 151.876 96.9697C151.916 96.3239 152.112 95.6975 152.448 95.1445C152.448 95.1445 153.719 96.6601 153.471 99.4177Z" fill="black"/>
<path d="M141.757 77.6844C141.757 77.6844 143.845 74.844 147.607 76.9644C152.427 79.6572 149.623 92.2464 149.623 92.2464L141.343 93.5892C141.343 93.5892 136.299 78.768 141.757 77.6844Z" fill="#263238"/>
<path d="M152.304 106.841C152.304 106.841 154.129 121.032 153.967 130.046C154.601 138.499 155.133 156.24 156.091 158.155C156.059 158.587 154.493 158.674 154.086 158.414C154.086 158.414 147.829 143.77 148.686 130.046C142.879 115.733 143.225 106.841 143.225 106.841H152.304Z" fill="#FEBBBA"/>
<path d="M149.831 106.841C149.831 106.841 145.68 122.861 144.035 130.727C142.31 138.985 140.539 148.964 140.514 158.36C140.053 158.634 139.538 159.037 138.602 158.749C138.602 158.749 134.56 139.936 138.286 131.09C136.651 111.521 141.828 106.841 141.828 106.841H149.831Z" fill="#FEBBBA"/>
<path d="M141.756 106.474L152.163 107.914C152.289 105.707 153.308 94.8097 153.276 93.8485C153.215 92.0485 151.706 90.4861 149.795 90.2485C149.265 90.1801 148.715 90.1153 148.178 90.0721C146.54 89.9603 144.896 89.9603 143.257 90.0721C142.789 90.0937 142.335 90.1297 141.907 90.1693C140.301 90.3241 139.193 91.7965 139.747 93.2581C140.445 95.0905 141.533 105.005 141.756 106.474Z" fill="#BE202F"/>
<path opacity="0.7" d="M153.276 93.841C153.305 94.8058 152.29 105.699 152.164 107.91L141.756 106.47C141.731 106.308 141.699 106.052 141.655 105.721C141.526 104.702 141.317 102.963 141.076 101.084C140.971 100.307 140.867 99.5002 140.752 98.7154C140.55 97.2754 140.341 95.911 140.143 94.867C140.051 94.313 139.917 93.7667 139.744 93.2326C139.193 91.7638 140.298 90.2914 141.904 90.1402C142.332 90.1006 142.786 90.0682 143.254 90.043C144.891 89.9349 146.534 89.9349 148.171 90.043C148.708 90.0898 149.251 90.1546 149.791 90.223C151.707 90.4786 153.219 92.0446 153.276 93.841Z" fill="white"/>
<path d="M143.603 84.5171C144.032 86.1011 144.557 89.0027 143.528 90.0575C143.528 90.0575 142.79 91.4471 146.969 91.3175C147.329 92.1887 148.049 93.7835 148.049 93.7835C148.049 93.7835 148.1 91.9079 147.812 91.2635C150.497 91.0331 148.46 90.0467 148.46 90.0467C146.66 89.6255 146.609 88.3151 146.825 87.0839L143.603 84.5171Z" fill="#FEBBBA"/>
<path opacity="0.2" d="M144.913 85.5684L146.814 87.0948C146.757 87.3829 146.728 87.6758 146.728 87.9696C146.044 87.8724 145.065 87.1308 144.928 86.4252C144.87 86.1429 144.866 85.8524 144.913 85.5684Z" fill="black"/>
<path d="M142.127 81.763C142.58 84.175 142.724 85.201 144.107 86.3566C146.191 88.0918 149.05 87.1738 149.323 84.7186C149.568 82.5082 148.783 78.9407 146.285 78.1451C145.756 77.9539 145.186 77.9074 144.634 78.0106C144.081 78.1137 143.566 78.3626 143.142 78.7316C142.718 79.1005 142.4 79.5761 142.222 80.1091C142.043 80.6421 142.011 81.2131 142.127 81.763Z" fill="#FEBBBA"/>
<path d="M144.211 80.0243C142.872 81.7415 145.622 83.7143 142.872 83.5991C140.122 83.4839 141.241 79.6391 142.872 78.7535C144.503 77.8679 144.211 80.0243 144.211 80.0243Z" fill="#263238"/>
<path d="M142.883 78.7825C143.243 80.4241 143.491 80.8525 144.964 80.4061C144.744 80.0765 144.647 79.6803 144.69 79.2865C144.837 79.6823 145.131 80.006 145.511 80.1901C145.906 80.0272 146.318 79.9065 146.738 79.8301C146.658 79.5992 146.633 79.3525 146.666 79.1101C146.782 79.3825 146.975 79.6152 147.221 79.7797C147.673 79.7872 148.122 79.8662 148.549 80.0137C148.56 78.2785 145.59 76.4138 142.883 78.7825Z" fill="#263238"/>
<path d="M145.968 82.1666C145.997 82.3718 146.13 82.5266 146.259 82.5266C146.389 82.5266 146.475 82.343 146.443 82.1378C146.411 81.9326 146.285 81.7778 146.151 81.7778C146.018 81.7778 145.939 81.9614 145.968 82.1666Z" fill="#263238"/>
<path d="M148.445 82.0224C148.477 82.224 148.607 82.3824 148.737 82.3824C148.866 82.3824 148.953 82.2024 148.924 81.9972C148.895 81.792 148.762 81.6372 148.632 81.6372C148.503 81.6372 148.416 81.8172 148.445 82.0224Z" fill="#263238"/>
<path d="M148.561 81.6515L149.021 81.4751C149.021 81.4751 148.845 81.8747 148.561 81.6515Z" fill="#263238"/>
<path d="M147.804 82.4077C148.051 82.8602 148.356 83.2788 148.711 83.6533C148.616 83.7353 148.504 83.795 148.383 83.828C148.263 83.861 148.136 83.8665 148.013 83.8441L147.804 82.4077Z" fill="#ED893E"/>
<path d="M141.889 84.0886C141.99 84.3012 142.134 84.4906 142.312 84.6449C142.49 84.7991 142.697 84.9149 142.922 84.985C143.487 85.1326 143.732 84.4918 143.545 83.8474C143.372 83.2714 142.875 82.4974 142.325 82.6378C141.774 82.7782 141.605 83.5198 141.889 84.0886Z" fill="#FEBBBA"/>
<path d="M145.277 81.072C145.308 81.0714 145.338 81.0584 145.36 81.036C145.456 80.9249 145.579 80.8394 145.716 80.7872C145.854 80.7351 146.002 80.7179 146.148 80.7372C146.163 80.7398 146.179 80.7393 146.194 80.7357C146.209 80.7322 146.223 80.7257 146.235 80.7167C146.248 80.7076 146.258 80.6962 146.266 80.683C146.274 80.6698 146.279 80.6552 146.282 80.64C146.284 80.6079 146.275 80.5761 146.256 80.5503C146.236 80.5245 146.209 80.5065 146.177 80.4996C145.994 80.4716 145.807 80.4898 145.633 80.5527C145.459 80.6156 145.303 80.7211 145.18 80.8596C145.169 80.8707 145.16 80.8838 145.154 80.8984C145.148 80.9129 145.145 80.9285 145.145 80.9442C145.145 80.96 145.148 80.9755 145.154 80.9901C145.16 81.0046 145.169 81.0178 145.18 81.0288C145.192 81.0429 145.207 81.054 145.224 81.0615C145.24 81.069 145.259 81.0726 145.277 81.072Z" fill="#263238"/>
<path d="M149.003 80.8523C149.033 80.854 149.063 80.8436 149.085 80.8235C149.097 80.8124 149.106 80.7993 149.112 80.7848C149.118 80.7702 149.121 80.7546 149.121 80.7389C149.121 80.7232 149.118 80.7076 149.112 80.693C149.106 80.6785 149.097 80.6654 149.085 80.6543C148.96 80.5054 148.803 80.3872 148.625 80.3085C148.447 80.2299 148.254 80.193 148.059 80.2007C148.044 80.2024 148.029 80.2073 148.016 80.2151C148.002 80.2228 147.991 80.2333 147.981 80.2459C147.972 80.2584 147.966 80.2727 147.963 80.2878C147.959 80.303 147.959 80.3187 147.962 80.3339C147.969 80.3653 147.987 80.3932 148.013 80.4124C148.039 80.4316 148.071 80.4408 148.103 80.4383C148.256 80.4345 148.408 80.4648 148.548 80.527C148.688 80.5893 148.813 80.682 148.913 80.7983C148.923 80.8131 148.936 80.8255 148.952 80.8348C148.967 80.8441 148.985 80.8501 149.003 80.8523Z" fill="#263238"/>
<path d="M146.098 81.7955L146.558 81.6191C146.558 81.6191 146.368 82.0187 146.098 81.7955Z" fill="#263238"/>
<path d="M147.859 84.8198C147.654 85.0835 147.469 85.3614 147.304 85.6514L147.139 85.5902C146.39 85.3022 146.141 84.9242 146.087 84.593C146.064 84.4293 146.081 84.2623 146.138 84.107C146.166 84.0175 146.207 83.9326 146.26 83.855C146.641 84.2372 147.1 84.5321 147.607 84.719C147.758 84.7838 147.859 84.8198 147.859 84.8198Z" fill="#263238"/>
<path d="M147.606 84.719L147.437 84.9602C146.735 84.6902 146.274 84.4022 146.138 84.107C146.166 84.0175 146.207 83.9326 146.26 83.855C146.641 84.2372 147.1 84.5321 147.606 84.719Z" fill="white"/>
<path d="M147.138 85.59C146.389 85.302 146.141 84.924 146.087 84.5928C146.369 84.7053 146.629 84.8674 146.854 85.0716C147 85.2108 147.099 85.3919 147.138 85.59Z" fill="#DE5753"/>
<path d="M147.171 89.417C147.171 89.417 147.963 90.2666 147.801 91.2746L149.622 91.6598C149.529 91.0632 149.235 90.5162 148.79 90.1086C148.344 89.701 147.773 89.4571 147.171 89.417Z" fill="#BE202F"/>
<path d="M146.969 91.3177C146.969 91.3177 144.528 89.9137 143.984 89.1577L142.904 89.9749C142.904 89.9749 142.562 91.2493 144.038 92.3941L146.969 91.3177Z" fill="#BE202F"/>
<path opacity="0.6" d="M147.171 89.417C147.171 89.417 147.963 90.2666 147.801 91.2746L149.622 91.6598C149.529 91.0632 149.235 90.5162 148.79 90.1086C148.344 89.701 147.773 89.4571 147.171 89.417Z" fill="white"/>
<path opacity="0.6" d="M146.969 91.3177C146.969 91.3177 144.528 89.9137 143.984 89.1577L142.904 89.9749C142.904 89.9749 142.562 91.2493 144.038 92.3941L146.969 91.3177Z" fill="white"/>
<path d="M153.77 162.256H154.321L154.468 161.593L156.25 162.389H160.761C160.761 162.389 161.481 161.669 159.321 161.096C159.215 161.069 159.113 161.03 159.015 160.981C157.87 160.448 156.232 158.641 156.232 158.641H153.759C153.684 158.757 153.617 158.877 153.557 159.001C153.28 159.534 152.816 160.679 153.77 162.256Z" fill="#263238"/>
<path d="M153.55 158.991C153.874 158.631 155.368 160.218 156.459 160.758C157.431 161.241 158.525 161.449 159.007 160.956C157.863 160.423 156.052 158.076 156.052 158.076H154.061C154.061 158.076 153.665 158.76 153.55 158.991Z" fill="#FEBBBA"/>
<path d="M138.171 162.256H138.711L138.858 161.593L140.64 162.389H145.151C145.151 162.389 145.871 161.669 143.711 161.096C143.605 161.069 143.503 161.03 143.405 160.981C142.26 160.448 140.622 158.641 140.622 158.641H138.149C138.074 158.757 138.007 158.877 137.948 159.001C137.681 159.534 137.22 160.679 138.171 162.256Z" fill="#263238"/>
<path d="M137.951 158.991C138.275 158.631 139.769 160.218 140.86 160.758C141.836 161.241 142.926 161.449 143.409 160.956C142.264 160.423 140.453 158.076 140.453 158.076H138.462C138.462 158.076 138.066 158.76 137.951 158.991Z" fill="#FEBBBA"/>
<path d="M137.576 127.944C137.851 128.247 138.176 128.501 138.537 128.693C138.588 126.893 139.11 126.036 139.11 126.036C139.021 127.071 139.116 128.113 139.391 129.114C142.159 130.284 147.498 131.055 154.172 129.42C154.172 121.59 152.624 108.414 152.516 107.129C152.516 107.129 144.596 107.338 141.385 107.338C137.868 111.532 136.921 124.996 137.576 127.944Z" fill="#263238"/>
<path opacity="0.2" d="M137.576 127.944C137.851 128.247 138.176 128.501 138.537 128.693C138.588 126.893 139.11 126.036 139.11 126.036C139.021 127.071 139.116 128.113 139.391 129.114C142.159 130.284 147.498 131.055 154.172 129.42C154.172 121.59 152.624 108.414 152.516 107.129C152.516 107.129 144.596 107.338 141.385 107.338C137.868 111.532 136.921 124.996 137.576 127.944Z" fill="white"/>
<path d="M152.455 107.615C148.746 108.015 145.003 108.008 141.295 107.593C141.255 107.589 141.217 107.575 141.183 107.553C141.15 107.53 141.123 107.5 141.104 107.464C141.085 107.428 141.075 107.389 141.075 107.348C141.075 107.308 141.085 107.268 141.105 107.233L141.375 106.607C141.393 106.56 141.426 106.521 141.469 106.495C141.512 106.469 141.562 106.458 141.612 106.463C145.174 106.844 148.767 106.844 152.329 106.463C152.361 106.46 152.392 106.463 152.422 106.472C152.452 106.481 152.48 106.497 152.504 106.517C152.528 106.537 152.548 106.561 152.563 106.589C152.577 106.617 152.586 106.647 152.589 106.679L152.653 107.33C152.659 107.362 152.659 107.394 152.652 107.426C152.645 107.457 152.632 107.487 152.613 107.513C152.595 107.54 152.572 107.562 152.545 107.58C152.517 107.597 152.487 107.609 152.455 107.615Z" fill="#263238"/>
<path opacity="0.1" d="M141.85 94.8274C141.85 94.8274 141.717 97.3654 140.752 98.7226C140.55 97.2826 140.342 95.9182 140.144 94.8742C140.689 94.6563 141.294 94.6397 141.85 94.8274Z" fill="black"/>
<path opacity="0.1" d="M143.481 102.24V104.501C142.918 104.977 142.306 105.392 141.656 105.739C141.526 104.721 141.317 102.982 141.076 101.103C141.852 101.533 142.656 101.913 143.481 102.24Z" fill="black"/>
<path d="M147.415 104.767H144.726L144.236 99.979H147.908L147.415 104.767Z" fill="#BE202F"/>
<path d="M148.107 99.6948H144.039V100.177H148.107V99.6948Z" fill="white"/>
<path d="M147.286 102.24C147.255 102.428 147.171 102.603 147.044 102.744C146.916 102.886 146.751 102.988 146.568 103.039C146.384 103.09 146.19 103.087 146.008 103.031C145.826 102.975 145.664 102.868 145.541 102.723C145.418 102.577 145.339 102.4 145.314 102.211C145.288 102.023 145.317 101.831 145.397 101.658C145.477 101.485 145.605 101.339 145.766 101.237C145.926 101.135 146.113 101.08 146.303 101.081C146.587 101.105 146.849 101.241 147.033 101.458C147.217 101.675 147.308 101.956 147.286 102.24Z" fill="white"/>
<path d="M145.982 102.182L145.284 101.772C145.154 101.697 145.009 101.654 144.859 101.646C144.71 101.638 144.561 101.665 144.423 101.725L143.127 102.308C142.872 102.423 142.648 102.596 142.473 102.815C142.298 103.033 142.178 103.291 142.123 103.565L142.055 103.925C143.167 104.681 144.935 104.681 144.935 104.681L145.435 104.735C145.538 104.75 145.642 104.744 145.742 104.718C145.842 104.692 145.936 104.646 146.019 104.583C146.101 104.521 146.17 104.442 146.222 104.353C146.274 104.263 146.307 104.164 146.321 104.062L146.443 103.068C146.463 102.891 146.429 102.713 146.347 102.555C146.265 102.397 146.138 102.268 145.982 102.182Z" fill="#FEBBBA"/>
<path d="M141.097 90.3599C138.037 90.8423 134.931 100.501 135.391 102.24C135.852 103.979 142.681 104.306 142.681 104.306L142.883 102.24C142.883 102.24 139.452 101.225 138.963 100.566C138.473 99.9071 141.097 95.9903 141.097 95.9903C141.673 95.1135 142.008 94.1001 142.066 93.0527C142.08 91.0439 141.097 90.3599 141.097 90.3599Z" fill="#BE202F"/>
<path opacity="0.7" d="M141.097 90.3599C138.037 90.8423 134.931 100.501 135.391 102.24C135.852 103.979 142.681 104.306 142.681 104.306L142.883 102.24C142.883 102.24 139.452 101.225 138.963 100.566C138.473 99.9071 141.097 95.9903 141.097 95.9903C141.673 95.1135 142.008 94.1001 142.066 93.0527C142.08 91.0439 141.097 90.3599 141.097 90.3599Z" fill="white"/>
<path d="M124.556 75.8629C124.196 75.8629 123.904 75.4021 123.879 74.8009C123.86 74.5388 123.909 74.2762 124.019 74.0377C124.055 73.9417 124.117 73.8574 124.198 73.7939C124.278 73.7304 124.375 73.6903 124.476 73.6777H124.494C124.854 73.6777 125.146 74.1385 125.175 74.7577C125.192 75.0202 125.142 75.2828 125.031 75.5209C124.995 75.617 124.933 75.7013 124.852 75.7648C124.772 75.8282 124.675 75.8684 124.574 75.8809L124.556 75.8629ZM124.494 73.8433C124.376 73.8433 124.264 73.9441 124.178 74.1133C124.08 74.3262 124.038 74.5602 124.055 74.7937C124.077 75.2941 124.307 75.7117 124.577 75.6973C124.649 75.6847 124.717 75.653 124.772 75.6055C124.828 75.558 124.87 75.4965 124.894 75.4273C124.993 75.2161 125.036 74.9832 125.02 74.7505C124.988 74.2537 124.754 73.8433 124.494 73.8433Z" fill="#263238"/>
<path d="M124.045 74.7936C124.045 74.988 124.164 75.1536 124.293 75.1536C124.423 75.1536 124.516 74.9844 124.509 74.7936C124.502 74.6028 124.39 74.4336 124.261 74.4336C124.131 74.4336 124.034 74.5956 124.045 74.7936Z" fill="#263238"/>
<path d="M124.146 75.1426C124.407 75.7328 124.748 76.284 125.161 76.7806C125.03 76.8821 124.879 76.9543 124.718 76.9922C124.558 77.0301 124.39 77.0328 124.228 77.0002L124.146 75.1426Z" fill="#ED847E"/>
<path d="M123.277 73.7353C123.247 73.731 123.22 73.7155 123.202 73.6921C123.192 73.68 123.186 73.6663 123.182 73.6516C123.178 73.6369 123.177 73.6216 123.179 73.6066C123.181 73.5915 123.186 73.577 123.193 73.5639C123.201 73.5508 123.211 73.5393 123.223 73.5301C123.364 73.4128 123.531 73.331 123.71 73.2915C123.89 73.2521 124.076 73.2561 124.253 73.3033C124.281 73.3146 124.304 73.3359 124.317 73.3632C124.331 73.3905 124.333 73.4217 124.325 73.4509C124.32 73.4654 124.312 73.4787 124.302 73.4902C124.292 73.5017 124.28 73.5111 124.266 73.5178C124.252 73.5245 124.237 73.5284 124.222 73.5293C124.207 73.5301 124.192 73.528 124.177 73.5229C124.036 73.4878 123.889 73.4865 123.748 73.5191C123.607 73.5516 123.475 73.617 123.364 73.7101C123.352 73.72 123.338 73.7274 123.323 73.7318C123.308 73.7361 123.293 73.7373 123.277 73.7353Z" fill="#263238"/>
<path d="M124.372 77.6158C124.372 77.6734 124.354 77.7274 124.347 77.785C124.203 78.5616 123.788 79.2621 123.177 79.7617C122.565 80.2614 121.796 80.5279 121.006 80.5138C120.27 80.4863 119.569 80.189 119.037 79.6786C117.763 78.4942 117.734 77.0758 117.478 74.671C117.412 74.1127 117.489 73.5467 117.703 73.0268C117.917 72.5068 118.26 72.0502 118.7 71.7003C119.141 71.3504 119.663 71.1188 120.218 71.0276C120.772 70.9364 121.341 70.9885 121.87 71.179C124.217 71.9998 124.736 75.4162 124.372 77.6158Z" fill="#FFC3BD"/>
<path d="M117.96 78.5988C118.853 79.3188 122.727 77.9976 122.435 75.0384C122.435 75.0384 124.055 73.6164 124.185 71.7984C124.314 69.9804 123.184 69.0804 121.802 69.2604C120.585 69.4224 120.516 70.0632 120.516 70.0632C120.516 70.0632 114.915 69.8472 115.739 72.27C113.1 74.3436 116.834 77.706 117.96 78.5988Z" fill="#263238"/>
<path d="M125.085 74.658L122.416 74.9541L122.434 75.1187L125.104 74.8226L125.085 74.658Z" fill="#263238"/>
<path d="M121.388 75.3839C121.454 75.9808 121.716 76.5389 122.133 76.9715C122.687 77.5367 123.213 77.1515 123.296 76.4351C123.353 75.7907 123.137 74.7215 122.479 74.4227C121.82 74.1239 121.316 74.6603 121.388 75.3839Z" fill="#FFC3BD"/>
<path opacity="0.2" d="M124.372 77.616C124.372 77.6736 124.354 77.7276 124.347 77.7852C124.203 78.5618 123.788 79.2622 123.176 79.7619C122.565 80.2616 121.796 80.528 121.006 80.514C121.672 80.0892 122.575 79.3512 122.853 78.318C123.31 76.6116 122.615 74.502 122.615 74.502L122.975 74.0088C122.975 74.0088 123.616 76.7448 123.54 77.4648C123.501 77.958 124.026 77.778 124.372 77.616Z" fill="black"/>
<path d="M136.008 90.7812H133.315L132.825 85.9932H136.497L136.008 90.7812Z" fill="#BE202F"/>
<path d="M136.695 85.709H132.627V86.1914H136.695V85.709Z" fill="#BE202F"/>
<path d="M135.874 88.2432C135.843 88.4305 135.759 88.6052 135.632 88.7466C135.506 88.888 135.341 88.9903 135.158 89.0415C134.975 89.0926 134.782 89.0905 134.6 89.0353C134.418 88.9802 134.256 88.8743 134.133 88.7301C134.009 88.5859 133.929 88.4095 133.903 88.2215C133.876 88.0335 133.903 87.8417 133.982 87.6688C134.06 87.4959 134.187 87.3491 134.346 87.2454C134.505 87.1418 134.69 87.0858 134.88 87.084C135.166 87.1061 135.431 87.2406 135.617 87.4579C135.803 87.6753 135.896 87.9577 135.874 88.2432Z" fill="white"/>
<path opacity="0.8" d="M136.695 85.709H132.627V86.1914H136.695V85.709Z" fill="white"/>
<path d="M118.321 78.8003C118.681 80.6003 118.749 81.9611 117.5 83.1527C117.5 83.1527 117.99 84.9527 121.302 84.9527C124.945 84.9527 123.04 83.1527 123.04 83.1527C121.053 82.6775 121.104 81.2015 121.453 79.8191L118.321 78.8003Z" fill="#FFC3BD"/>
<path d="M116.794 83.484C116.528 82.9872 116.233 82.404 116.841 82.242C117.507 82.0476 121.795 81.684 123.055 82.0512C122.666 82.7424 123.321 83.5848 123.321 83.5848L116.794 83.484Z" fill="#BE202F"/>
<path opacity="0.2" d="M116.794 83.484C116.528 82.9872 116.233 82.404 116.841 82.242C117.507 82.0476 121.795 81.684 123.055 82.0512C122.666 82.7424 123.321 83.5848 123.321 83.5848L116.794 83.484Z" fill="black"/>
<path d="M107.434 159.35C107.542 159.389 107.655 159.406 107.769 159.4C107.883 159.394 107.994 159.365 108.097 159.314C108.136 159.278 108.163 159.231 108.174 159.178C108.185 159.126 108.18 159.072 108.158 159.023C108.147 158.982 108.126 158.943 108.098 158.911C108.07 158.879 108.035 158.853 107.996 158.836C107.636 158.663 106.808 159.001 106.772 159.016C106.761 159.021 106.751 159.029 106.744 159.039C106.737 159.049 106.733 159.061 106.732 159.073C106.733 159.085 106.736 159.097 106.742 159.107C106.749 159.117 106.758 159.126 106.768 159.131C106.982 159.227 107.205 159.301 107.434 159.35ZM107.866 158.926C107.893 158.93 107.918 158.938 107.942 158.951C107.965 158.96 107.986 158.975 108.002 158.993C108.018 159.012 108.03 159.035 108.036 159.059C108.072 159.17 108.036 159.206 108.014 159.217C107.87 159.34 107.337 159.217 106.963 159.077C107.254 158.958 107.567 158.906 107.881 158.926H107.866Z" fill="#BE202F"/>
<path d="M106.801 159.12C107.1 159.034 107.748 158.573 107.755 158.27C107.755 158.223 107.739 158.177 107.71 158.139C107.68 158.102 107.639 158.076 107.593 158.065C107.547 158.049 107.498 158.043 107.45 158.047C107.401 158.052 107.354 158.066 107.312 158.09C106.952 158.27 106.732 159.009 106.722 159.041C106.717 159.051 106.714 159.062 106.714 159.073C106.714 159.085 106.717 159.096 106.722 159.106C106.731 159.117 106.744 159.124 106.759 159.127C106.773 159.129 106.788 159.127 106.801 159.12ZM107.557 158.177H107.582C107.661 158.202 107.661 158.242 107.661 158.256C107.661 158.436 107.229 158.796 106.916 158.94C107 158.648 107.169 158.387 107.402 158.191C107.446 158.177 107.494 158.177 107.539 158.191L107.557 158.177Z" fill="#BE202F"/>
<path d="M106.667 158.731L103.737 158.094C103.685 158.084 103.631 158.091 103.584 158.115C103.537 158.139 103.499 158.179 103.478 158.227L102.48 160.43C102.456 160.484 102.444 160.543 102.445 160.602C102.447 160.661 102.462 160.719 102.489 160.772C102.516 160.824 102.554 160.87 102.601 160.906C102.649 160.941 102.703 160.966 102.761 160.978C103.787 161.183 104.295 161.23 105.584 161.507C106.376 161.68 108.165 162.115 109.259 162.353C110.354 162.59 110.732 161.539 110.303 161.341C108.392 160.47 107.592 159.7 107.063 158.983C106.968 158.852 106.826 158.762 106.667 158.731Z" fill="#263238"/>
<path d="M122.32 104.89C122.32 104.89 119.555 122.137 118.04 128.603C116.376 135.677 107.463 159.091 107.463 159.091L103.1 158.216C103.1 158.216 109.335 139.136 110.728 129.244C111.808 121.644 113.91 104.89 113.91 104.89H122.32Z" fill="#BE202F"/>
<path opacity="0.7" d="M122.32 104.89C122.32 104.89 119.555 122.137 118.04 128.603C116.376 135.677 107.463 159.091 107.463 159.091L103.1 158.216C103.1 158.216 109.335 139.136 110.728 129.244C111.808 121.644 113.91 104.89 113.91 104.89H122.32Z" fill="white"/>
<path d="M115.106 87.7789C114.634 88.3009 114.105 88.8985 113.622 89.4817C113.14 90.0649 112.661 90.6661 112.208 91.2817C111.301 92.4501 110.504 93.6998 109.828 95.0149C109.742 95.1733 109.673 95.3317 109.605 95.4901L109.5 95.7277L109.45 95.8465L109.428 95.8933C109.428 95.8609 109.371 95.9869 109.407 96.2101C109.551 96.8112 109.795 97.3842 110.127 97.9057C110.941 99.177 111.849 100.385 112.845 101.52L111.66 102.913C110.225 101.981 108.93 100.85 107.812 99.5545C107.159 98.8172 106.653 97.9619 106.322 97.0345C106.095 96.3723 106.062 95.6595 106.224 94.9789L106.264 94.8313L106.296 94.7377L106.35 94.5757L106.462 94.2517C106.534 94.0357 106.61 93.8197 106.7 93.6181C107.369 92.0265 108.214 90.5148 109.22 89.1109C109.713 88.4233 110.21 87.7465 110.75 87.1057C111.29 86.4649 111.83 85.8421 112.445 85.2085L115.106 87.7789Z" fill="#FFC3BD"/>
<path d="M112.128 100.8L113.928 100.933L113.118 103.629C113.118 103.629 111.761 103.385 111.239 102.326L112.128 100.8Z" fill="#FFC3BD"/>
<path d="M116.416 101.293L115.25 103.504L113.115 103.644L113.925 100.948L116.416 101.293Z" fill="#FFC3BD"/>
<path d="M124.138 159.8C124.498 159.8 124.811 159.75 124.922 159.599C124.951 159.558 124.967 159.51 124.967 159.46C124.967 159.41 124.951 159.362 124.922 159.322C124.901 159.285 124.873 159.253 124.839 159.227C124.805 159.202 124.766 159.184 124.724 159.174C124.282 159.052 123.349 159.584 123.31 159.606C123.298 159.612 123.289 159.621 123.283 159.633C123.277 159.645 123.275 159.658 123.277 159.671C123.279 159.684 123.285 159.696 123.294 159.706C123.303 159.715 123.315 159.722 123.328 159.725C123.595 159.773 123.866 159.798 124.138 159.8ZM124.562 159.282C124.603 159.276 124.644 159.276 124.685 159.282C124.71 159.287 124.734 159.297 124.755 159.312C124.776 159.327 124.794 159.346 124.807 159.368C124.85 159.448 124.836 159.487 124.807 159.509C124.685 159.682 124.012 159.685 123.515 159.617C123.839 159.437 124.195 159.323 124.562 159.282Z" fill="#BE202F"/>
<path d="M123.331 159.725H123.36C123.68 159.577 124.318 159.005 124.271 158.699C124.271 158.631 124.206 158.541 124.033 158.523C123.969 158.515 123.904 158.521 123.842 158.54C123.78 158.558 123.723 158.589 123.673 158.631C123.335 158.911 123.263 159.628 123.259 159.66C123.258 159.671 123.259 159.682 123.264 159.692C123.268 159.703 123.275 159.711 123.284 159.718C123.299 159.726 123.315 159.728 123.331 159.725ZM123.983 158.645H124.022C124.134 158.645 124.141 158.703 124.145 158.717C124.174 158.897 123.742 159.351 123.425 159.549C123.457 159.244 123.583 158.958 123.785 158.728C123.84 158.679 123.909 158.65 123.983 158.645Z" fill="#BE202F"/>
<path d="M123.051 159.354H120.138C120.085 159.353 120.033 159.371 119.992 159.404C119.95 159.436 119.92 159.482 119.908 159.534L119.4 161.906C119.387 161.964 119.387 162.024 119.401 162.081C119.414 162.138 119.44 162.192 119.477 162.238C119.514 162.283 119.562 162.32 119.615 162.345C119.668 162.37 119.727 162.383 119.786 162.382C120.837 162.364 122.352 162.302 123.674 162.302C125.218 162.302 126.554 162.385 128.354 162.385C129.434 162.385 129.75 161.28 129.293 161.179C127.205 160.722 125.502 160.672 123.699 159.559C123.506 159.432 123.282 159.361 123.051 159.354Z" fill="#263238"/>
<path d="M113.724 83.5417C111.38 83.5957 108.363 88.9417 108.363 88.9417L112.15 93.2869C113.571 92.2842 114.705 90.9278 115.441 89.3521C116.823 86.5189 116.118 83.4877 113.724 83.5417Z" fill="#BE202F"/>
<path opacity="0.2" d="M114.778 88.1353C113.312 89.0893 112.466 91.1953 111.98 93.0817L112.15 93.2725C113.567 92.2726 114.701 90.9217 115.44 89.3521C115.522 89.1841 115.597 89.0148 115.667 88.8444L114.778 88.1353Z" fill="black"/>
<path d="M127.979 92.1599C127.939 93.5603 127.842 95.1803 127.655 97.0631C127.493 98.7299 127.259 100.598 126.935 102.693H113.975C113.881 100.893 115.08 92.1239 113.15 83.6531C114.594 83.4053 116.051 83.2406 117.514 83.1599C119.358 83.0626 121.206 83.0626 123.05 83.1599C124.312 83.274 125.564 83.4761 126.798 83.7647C126.798 83.7647 128.17 85.1399 127.979 92.1599Z" fill="#BE202F"/>
<path opacity="0.2" d="M127.98 92.1602C127.94 93.5606 127.843 95.1806 127.656 97.0634C126.576 95.9546 125.186 94.223 125.323 92.7434L127.98 92.1602Z" fill="black"/>
<path opacity="0.2" d="M120.574 111.035C117.377 111.614 117.715 122.663 118.1 128.343C119.022 124.326 120.372 116.6 121.294 111.114C121.068 111.012 120.816 110.984 120.574 111.035Z" fill="black"/>
<path d="M126.96 104.89C126.96 104.89 127.299 121.914 127.032 128.855C126.759 136.076 124.059 159.725 124.059 159.725H119.912C119.912 159.725 119.76 136.501 119.577 129.406C119.375 121.673 118.378 104.89 118.378 104.89H126.96Z" fill="#BE202F"/>
<path d="M127.94 86.2812C128.148 86.9437 128.393 87.6853 128.66 88.3801C128.926 89.0749 129.185 89.7841 129.473 90.4681C130.013 91.8163 130.669 93.1149 131.435 94.3489C131.622 94.6441 131.82 94.9249 132.022 95.1913L132.177 95.3857C132.107 95.3266 132.031 95.2758 131.95 95.2345C131.766 95.1404 131.559 95.0993 131.352 95.1157C131.21 95.123 131.072 95.165 130.949 95.2381C130.834 95.3245 130.902 95.3065 130.949 95.2381C131.039 95.1533 131.121 95.0605 131.194 94.9609C131.393 94.6969 131.577 94.4216 131.745 94.1365C132.465 92.9017 133.127 91.4725 133.779 90.0901L135.543 90.5833C135.334 92.2283 134.939 93.8443 134.366 95.4001C134.206 95.8277 134.015 96.2429 133.793 96.6421C133.659 96.8767 133.509 97.1017 133.343 97.3153C133.106 97.6284 132.81 97.8924 132.472 98.0929C132.178 98.2614 131.849 98.3611 131.511 98.3845C131.107 98.4094 130.705 98.3222 130.348 98.1325C130.095 97.9955 129.866 97.818 129.671 97.6069L129.441 97.3549C129.138 97.0189 128.858 96.6769 128.598 96.3289C127.606 94.9592 126.761 93.4882 126.078 91.9405C125.744 91.1845 125.423 90.4249 125.15 89.6545C124.876 88.8841 124.61 88.1281 124.383 87.2785L127.94 86.2812Z" fill="#FFC3BD"/>
<path d="M122.936 86.454C121.337 89.4096 126.219 94.014 126.219 94.014L131.09 90.666C130.327 88.8036 129.431 86.9989 128.408 85.266C126.482 82.08 124.156 84.2076 122.936 86.454Z" fill="#BE202F"/>
<path d="M134.946 91.4111L137.354 89.5427L135.406 87.7427C135.406 87.7427 133.538 88.8227 133.801 90.5651L134.946 91.4111Z" fill="#FFC3BD"/>
<path d="M137.775 88.3658L136.468 86.5586L135.406 87.725L137.354 89.543L137.775 88.3658Z" fill="#FFC3BD"/>
<path opacity="0.7" d="M126.96 104.89C126.96 104.89 127.299 121.914 127.032 128.855C126.759 136.076 124.059 159.725 124.059 159.725H119.912C119.912 159.725 119.76 136.501 119.577 129.406C119.375 121.673 118.378 104.89 118.378 104.89H126.96Z" fill="white"/>
<path d="M114.019 102.24C113.168 105.085 112.873 108.068 113.151 111.024H127.051L127.116 102.384L114.019 102.24Z" fill="#BE202F"/>
<path opacity="0.7" d="M114.019 102.24C113.168 105.085 112.873 108.068 113.151 111.024H127.051L127.116 102.384L114.019 102.24Z" fill="white"/>
<path d="M117.186 102.564L113.78 102.524L113.69 103.41L117.186 103.442V102.564Z" fill="#263238"/>
<path d="M122.961 102.632L117.712 102.571V103.446L122.961 103.496V102.632Z" fill="#263238"/>
<path d="M123.332 102.636V103.5L127.116 103.533V102.679L123.332 102.636Z" fill="#263238"/>
<path opacity="0.2" d="M120.235 80.9316C120.33 80.8741 120.43 80.8258 120.534 80.7876C120.372 80.874 120.261 80.9208 120.235 80.9316Z" fill="black"/>
</svg>
