<svg width="240" height="180" viewBox="0 0 240 180" fill="none" xmlns="http://www.w3.org/2000/svg">
<path d="M180 91.0104C180 138.34 145.2 135.573 90 176.708C45.6 194.229 0 138.34 0 91.0104C0 43.6807 34.8 33.1166 90 5.31234C143.6 -18.6831 180 43.6807 180 91.0104Z" fill="white"/>
<path d="M236.005 150.633H223.412V150.728H236.005V150.633Z" fill="#EBEBEB"/>
<path d="M190.881 151.667H187.577V151.762H190.881V151.667Z" fill="#EBEBEB"/>
<path d="M223.032 147.104H215.735V147.199H223.032V147.104Z" fill="#EBEBEB"/>
<path d="M101.315 147.743H84.8936V147.838H101.315V147.743Z" fill="#EBEBEB"/>
<path d="M107.109 147.743H104.702V147.838H107.109V147.743Z" fill="#EBEBEB"/>
<path d="M150.552 149.347H114.934V149.442H150.552V149.347Z" fill="#EBEBEB"/>
<path d="M155.59 127.552H82.171C81.5952 127.552 81.043 127.323 80.6359 126.916C80.2287 126.508 80 125.956 80 125.38V22.1526C80.005 21.5799 80.236 21.0324 80.6426 20.6293C81.0492 20.2262 81.5985 20 82.171 20H155.59C155.875 20 156.157 20.0562 156.42 20.1653C156.684 20.2744 156.923 20.4344 157.125 20.636C157.326 20.8377 157.486 21.0771 157.595 21.3405C157.705 21.604 157.761 21.8864 157.761 22.1716V125.38C157.761 125.665 157.705 125.948 157.595 126.211C157.486 126.475 157.326 126.714 157.125 126.916C156.923 127.117 156.684 127.277 156.42 127.386C156.157 127.496 155.875 127.552 155.59 127.552ZM82.171 20.0761C81.6207 20.0771 81.0933 20.2962 80.7042 20.6854C80.3151 21.0746 80.0961 21.6021 80.0951 22.1526V125.38C80.0961 125.931 80.3151 126.458 80.7042 126.847C81.0933 127.237 81.6207 127.456 82.171 127.457H155.59C156.14 127.456 156.667 127.237 157.056 126.847C157.446 126.458 157.665 125.931 157.666 125.38V22.1526C157.665 21.6021 157.446 21.0746 157.056 20.6854C156.667 20.2962 156.14 20.0771 155.59 20.0761H82.171Z" fill="#EBEBEB"/>
<path d="M237.829 127.552H164.41C163.834 127.552 163.282 127.323 162.875 126.916C162.468 126.508 162.239 125.956 162.239 125.38V22.1526C162.244 21.5799 162.475 21.0324 162.882 20.6293C163.288 20.2262 163.838 20 164.41 20H237.829C238.405 20 238.957 20.2288 239.364 20.636C239.771 21.0433 240 21.5956 240 22.1716V125.38C240 125.956 239.771 126.508 239.364 126.916C238.957 127.323 238.405 127.552 237.829 127.552ZM164.41 20.0761C163.86 20.0771 163.333 20.2962 162.943 20.6854C162.554 21.0746 162.335 21.6021 162.334 22.1526V125.38C162.335 125.931 162.554 126.458 162.943 126.847C163.333 127.237 163.86 127.456 164.41 127.457H237.829C238.379 127.456 238.907 127.237 239.296 126.847C239.685 126.458 239.904 125.931 239.905 125.38V22.1526C239.904 21.6021 239.685 21.0746 239.296 20.6854C238.907 20.2962 238.379 20.0771 237.829 20.0761H164.41Z" fill="#EBEBEB"/>
<path d="M104.794 120.292C107.468 117.618 107.468 113.281 104.794 110.606C102.119 107.931 97.7837 107.931 95.1096 110.606C92.4354 113.281 92.4354 117.618 95.1096 120.292C97.7837 122.967 102.119 122.967 104.794 120.292Z" fill="#EBEBEB"/>
<path d="M139.51 123.361L127.511 124.909C125.047 125.228 122.948 123.338 122.948 120.672V107.742C122.948 105.079 125.058 103.178 127.511 103.505L139.51 105.053C141.221 105.273 142.552 107.122 142.552 109.19V119.231C142.548 121.292 141.221 123.14 139.51 123.361Z" fill="#EBEBEB"/>
<path d="M130.549 105.311L135.203 100.07L133.838 105.311H130.549Z" fill="#EBEBEB"/>
<path d="M195.006 111.864H168.681C167.087 111.864 165.795 113.156 165.795 114.75V120.809C165.795 122.403 167.087 123.695 168.681 123.695H195.006C196.6 123.695 197.892 122.403 197.892 120.809V114.75C197.892 113.156 196.6 111.864 195.006 111.864Z" fill="#EBEBEB"/>
<path d="M184.729 112.674L179.524 106.81L181.053 112.674H184.729Z" fill="#EBEBEB"/>
<path d="M213.447 116.884C221.534 116.884 228.089 113.302 228.089 108.879C228.089 104.456 221.534 100.892 213.447 100.892C209.15 100.892 205.283 101.908 202.607 103.52C201.295 102.619 197.664 101.196 197.664 101.196L200.683 104.961C199.489 106.102 198.808 107.449 198.808 108.875C198.808 113.302 205.363 116.884 213.447 116.884Z" fill="#EBEBEB"/>
<path d="M120.409 33.2614C121.038 32.8997 121.75 32.7077 122.475 32.7042C123.2 32.7007 123.914 32.8859 124.546 33.2416C125.178 33.5973 125.706 34.1112 126.08 34.7329C126.453 35.3547 126.659 36.0629 126.676 36.788C126.693 37.5131 126.522 38.2303 126.178 38.8691C125.835 39.5079 125.331 40.0464 124.717 40.4318C124.102 40.8171 123.398 41.0361 122.674 41.0671C121.95 41.0982 121.229 40.9403 120.584 40.609C118.949 45.0624 113.588 45.0624 112.338 43.1342C110.227 44.5718 107.269 45.3857 104.756 44.9369C102.243 44.4881 100.848 43.8264 98.9922 42.0579C98.3306 41.3896 97.7696 40.6286 97.3268 39.7989C95.9315 40.3884 93.0153 40.4492 91.7377 39.6392C91.374 39.3752 91.0658 39.0422 90.8307 38.6591C90.5956 38.276 90.4383 37.8504 90.3677 37.4064C90.2971 36.9625 90.3146 36.5091 90.4192 36.0719C90.5238 35.6348 90.7134 35.2225 90.9773 34.8587C92.2624 33.1359 94.654 33.4249 95.8706 34.0258C95.6197 32.5616 95.9885 31.0518 97.2584 30.2911C97.8494 29.9053 98.5457 29.713 99.2509 29.741C99.956 29.7689 100.635 30.0157 101.194 30.4471C102.209 27.8952 105.11 25.5943 107.843 25.8529C109.216 26.0094 110.504 26.5933 111.526 27.5222C112.548 28.451 113.252 29.6778 113.539 31.0289C114.577 29.8652 115.984 29.0932 117.455 29.6104C118.927 30.1276 120.326 31.7021 120.409 33.2614Z" fill="#EBEBEB"/>
<path d="M116.767 40.7876L124.652 44.0089L120.451 40.4834L116.767 40.7876Z" fill="#EBEBEB"/>
<path d="M224.18 39.6355V38.1675C224.18 34.0424 220.836 30.6982 216.712 30.6982H206.5C202.376 30.6982 199.033 34.0424 199.033 38.1675V39.6355C199.033 43.7607 202.376 47.1048 206.5 47.1048H216.712C220.836 47.1048 224.18 43.7607 224.18 39.6355Z" fill="#EBEBEB"/>
<path d="M215.488 47.0439L208.834 49.7594L211.929 46.2339L215.488 47.0439Z" fill="#EBEBEB"/>
<g opacity="0.2">
<path d="M160 180C200.714 180 233.719 178.073 233.719 175.695C233.719 173.318 200.714 171.39 160 171.39C119.286 171.39 86.2812 173.318 86.2812 175.695C86.2812 178.073 119.286 180 160 180Z" fill="#D1A53D"/>
</g>
<path d="M142.236 167.005L140.255 172.911L143.251 173.911L147.087 168.283L142.236 167.005Z" fill="#FEBBBA"/>
<path d="M143.495 173.322L140.202 172.345C140.146 172.327 140.085 172.331 140.031 172.356C139.977 172.38 139.934 172.424 139.909 172.478L138.769 174.969C138.741 175.032 138.728 175.101 138.729 175.17C138.73 175.239 138.745 175.307 138.775 175.37C138.804 175.433 138.847 175.488 138.9 175.533C138.952 175.578 139.014 175.611 139.081 175.63C140.221 175.95 140.807 176.045 142.255 176.475C143.145 176.741 145.677 177.589 146.905 177.954C148.133 178.319 148.559 177.121 148.08 176.859C145.932 175.687 144.514 174.524 143.932 173.645C143.83 173.489 143.674 173.374 143.495 173.322Z" fill="#263238"/>
<path d="M143.552 173.782C143.538 173.775 143.527 173.764 143.52 173.75C143.513 173.736 143.511 173.721 143.514 173.706C143.516 173.691 143.522 173.677 143.533 173.666C143.543 173.655 143.556 173.648 143.571 173.645C143.723 173.615 145.069 173.367 145.369 173.668C145.397 173.696 145.417 173.732 145.428 173.77C145.439 173.809 145.439 173.849 145.43 173.888C145.422 173.954 145.397 174.016 145.357 174.068C145.318 174.121 145.266 174.162 145.206 174.189C144.956 174.266 144.688 174.255 144.445 174.158C144.136 174.061 143.837 173.935 143.552 173.782ZM143.81 173.751C144.426 174.052 144.917 174.166 145.145 174.06C145.183 174.04 145.217 174.012 145.242 173.977C145.267 173.941 145.283 173.901 145.289 173.858C145.293 173.843 145.293 173.827 145.289 173.811C145.285 173.796 145.278 173.782 145.266 173.77C145.231 173.738 145.188 173.716 145.141 173.706C144.698 173.645 144.248 173.661 143.81 173.751Z" fill="#BE202F"/>
<path d="M143.529 173.763C143.521 173.752 143.518 173.74 143.518 173.727C143.518 173.714 143.521 173.702 143.529 173.691C143.529 173.657 143.84 172.888 144.289 172.691C144.355 172.662 144.426 172.646 144.498 172.646C144.57 172.646 144.641 172.662 144.707 172.691C144.894 172.767 144.92 172.881 144.913 172.964C144.867 173.311 143.989 173.725 143.593 173.794H143.563C143.555 173.791 143.548 173.787 143.543 173.782C143.537 173.777 143.532 173.77 143.529 173.763ZM144.346 172.824C144.055 173.015 143.831 173.293 143.707 173.619C144.126 173.508 144.741 173.151 144.768 172.942C144.768 172.942 144.768 172.869 144.654 172.82H144.612C144.526 172.789 144.431 172.79 144.346 172.824Z" fill="#BE202F"/>
<path d="M175.083 169.256L177.224 176.045L179.828 174.854L179.524 168.081L175.083 169.256Z" fill="#FEBBBA"/>
<path d="M180.049 174.22L176.688 174.919C176.63 174.931 176.579 174.964 176.543 175.01C176.507 175.057 176.49 175.115 176.494 175.174L176.665 177.912C176.671 177.981 176.691 178.048 176.725 178.109C176.759 178.169 176.806 178.222 176.861 178.263C176.917 178.304 176.981 178.332 177.049 178.347C177.116 178.361 177.187 178.361 177.254 178.346C178.421 178.08 178.973 177.893 180.448 177.585C181.357 177.399 183.988 176.946 185.242 176.684C186.497 176.422 186.307 175.163 185.759 175.163C183.311 175.163 181.513 174.782 180.585 174.299C180.421 174.211 180.231 174.183 180.049 174.22Z" fill="#263238"/>
<path d="M180.315 174.6C180.3 174.6 180.285 174.595 180.273 174.586C180.261 174.577 180.251 174.565 180.247 174.55C180.242 174.536 180.242 174.521 180.246 174.507C180.25 174.493 180.258 174.48 180.269 174.47C180.391 174.371 181.456 173.512 181.862 173.637C181.901 173.649 181.936 173.67 181.964 173.698C181.992 173.727 182.012 173.762 182.022 173.801C182.045 173.864 182.051 173.931 182.042 173.998C182.033 174.064 182.008 174.127 181.969 174.181C181.785 174.369 181.542 174.487 181.281 174.516C180.962 174.573 180.639 174.601 180.315 174.6ZM180.532 174.448C181.216 174.421 181.703 174.288 181.851 174.086C181.876 174.051 181.892 174.011 181.897 173.969C181.903 173.926 181.899 173.883 181.885 173.843C181.882 173.827 181.873 173.813 181.862 173.801C181.851 173.79 181.836 173.782 181.821 173.778C181.776 173.767 181.729 173.767 181.684 173.778C181.265 173.936 180.876 174.162 180.532 174.448Z" fill="#BE202F"/>
<path d="M180.287 174.592C180.275 174.588 180.264 174.58 180.256 174.57C180.248 174.56 180.243 174.548 180.242 174.535C180.242 174.501 180.139 173.679 180.451 173.288C180.496 173.229 180.554 173.181 180.619 173.146C180.685 173.111 180.757 173.091 180.831 173.086C181.033 173.063 181.112 173.151 181.139 173.231C181.265 173.558 180.694 174.349 180.379 174.585C180.374 174.586 180.37 174.587 180.365 174.587C180.361 174.587 180.356 174.586 180.352 174.585C180.344 174.593 180.333 174.598 180.321 174.599C180.309 174.601 180.297 174.598 180.287 174.592ZM180.565 173.379C180.397 173.685 180.331 174.037 180.375 174.383C180.694 174.086 181.067 173.478 180.991 173.28C180.991 173.28 180.964 173.216 180.831 173.227H180.789C180.698 173.248 180.619 173.302 180.565 173.379Z" fill="#BE202F"/>
<path d="M180.337 170.352C178.911 170.755 176.006 171.234 174.851 170.957C174.851 170.957 171.239 158.627 169.425 146.571C167.77 143.273 166.315 139.878 165.068 136.405C163.836 132.992 162.852 129.494 162.121 125.939C161.031 120.392 161.074 114.682 162.247 109.152L171.254 108.129C171.254 108.129 175.691 133.58 177.771 143.879C179.953 154.657 180.318 169.561 180.337 170.352Z" fill="#263238"/>
<g opacity="0.2">
<path opacity="0.2" d="M165.068 136.405C163.836 132.991 162.852 129.494 162.121 125.939L164.049 123.239L165.068 136.405Z" fill="black"/>
</g>
<path d="M166.935 108.947C166.935 108.947 161.635 135.679 158.597 145.715C155.407 156.258 147.46 168.994 147.107 169.702C145.658 169.382 141.913 168.317 141.023 167.526C141.023 167.526 144.742 155.098 148.856 143.62C150.548 132.45 151.426 125.365 152 118.9C152.814 109.723 155.605 108.631 155.605 108.631L166.935 108.947Z" fill="#263238"/>
<path d="M170.783 93.5027C170.729 94.7653 172.722 97.6861 170.262 99.3785C170.722 100.405 172.186 106.882 171.254 108.126C169.897 109.122 161.471 109.419 155.38 108.616C155.122 106.095 156.521 100.877 154.81 92.7383C154.715 92.2924 154.714 91.8313 154.809 91.3854C154.904 90.9394 155.092 90.5185 155.361 90.1502C155.63 89.7819 155.974 89.4745 156.369 89.2481C156.765 89.0216 157.204 88.8813 157.658 88.8363C158.171 88.783 158.715 88.7412 159.27 88.7146C161.21 88.5756 163.158 88.5756 165.098 88.7146C165.726 88.7716 166.38 88.8515 166.999 88.939C168.085 89.0921 169.074 89.6448 169.774 90.4888C170.473 91.3328 170.833 92.4075 170.783 93.5027Z" fill="white"/>
<path opacity="0.7" d="M170.783 93.5027C170.729 94.7653 172.722 97.6861 170.262 99.3785C170.722 100.405 172.186 106.882 171.254 108.126C169.897 109.122 161.471 109.419 155.38 108.616C155.122 106.095 156.521 100.877 154.81 92.7383C154.715 92.2924 154.714 91.8313 154.809 91.3854C154.904 90.9394 155.092 90.5185 155.361 90.1502C155.63 89.7819 155.974 89.4745 156.369 89.2481C156.765 89.0216 157.204 88.8813 157.658 88.8363C158.171 88.783 158.715 88.7412 159.27 88.7146C161.21 88.5756 163.158 88.5756 165.098 88.7146C165.726 88.7716 166.38 88.8515 166.999 88.939C168.085 89.0921 169.074 89.6448 169.774 90.4888C170.473 91.3328 170.833 92.4075 170.783 93.5027Z" fill="white"/>
<path d="M164.471 91.905C163.89 92.3119 163.479 92.0609 162.886 91.673C159.297 89.5432 160.791 87.9041 160.791 87.9041C161.688 87.1891 161.931 86.1699 161.931 84.5498C161.931 84.5041 161.931 84.4585 161.951 84.4128C161.99 84.2066 162.091 84.017 162.239 83.869C162.438 83.6721 162.705 83.5615 162.985 83.5615C163.264 83.5615 163.532 83.6721 163.73 83.869L165.372 84.6829C165.374 84.7082 165.374 84.7336 165.372 84.7589C165.213 85.6146 165.061 86.2802 164.969 86.7974L164.935 86.9875C164.935 87.0522 164.912 87.1169 164.905 87.1815C164.806 87.9041 164.905 88.3224 165.331 88.6609C165.62 88.9005 166.441 90.5206 164.471 91.905Z" fill="#FEBBBA"/>
<path opacity="0.2" d="M165.395 84.6867C165.391 84.7132 165.391 84.7401 165.395 84.7666C165.235 85.6223 165.083 86.2878 164.992 86.8051C164.977 86.8678 164.966 86.9313 164.957 86.9952C164.952 87.0623 164.952 87.1297 164.957 87.1968C163.715 86.5887 162.688 85.6145 162.015 84.4053C162.055 84.1984 162.157 84.0087 162.307 83.8615C162.405 83.7636 162.521 83.686 162.648 83.633C162.776 83.58 162.913 83.5527 163.051 83.5527C163.189 83.5527 163.326 83.58 163.453 83.633C163.581 83.686 163.697 83.7636 163.794 83.8615L165.395 84.6867Z" fill="black"/>
<path d="M165.916 89.8859C167.634 87.4253 168.76 90.8937 169.52 87.8398C170.254 84.881 170.14 74.9093 165.094 73.62C163.615 73.2397 161.562 73.1941 160.764 73.8444C162.463 74.6278 164.03 75.59 165.109 77.1227C166.189 78.6553 166.596 80.6976 166.478 82.6219C166.406 83.8313 165.676 84.6984 165.182 85.8089C163.919 88.6232 165.916 89.8859 165.916 89.8859Z" fill="#263238"/>
<path d="M160 79.8682C160.829 82.7548 161.118 83.9946 162.912 85.1925C165.612 87.0142 168.923 85.4626 168.973 82.4011C169.011 79.6514 167.653 75.3958 164.562 74.7949C161.471 74.194 159.167 76.9778 160 79.8682Z" fill="#FEBBBA"/>
<path d="M159.642 82.5308C159.94 83.1399 160.462 83.6101 161.099 83.8429C161.943 84.1395 162.403 83.4093 162.197 82.5802C162.007 81.8196 161.353 80.789 160.494 80.846C159.635 80.9031 159.281 81.7816 159.642 82.5308Z" fill="#FEBBBA"/>
<path d="M166.593 79.564C166.966 80.115 167.412 80.6127 167.92 81.0434C167.809 81.1676 167.672 81.266 167.519 81.3317C167.366 81.3974 167.2 81.4288 167.034 81.4237L166.593 79.564Z" fill="#A02724"/>
<path d="M164.456 79.8986C164.509 80.1343 164.672 80.3055 164.836 80.2789C164.999 80.2522 165.068 80.0317 165.018 79.7959C164.969 79.5601 164.802 79.3851 164.638 79.4156C164.475 79.446 164.403 79.659 164.456 79.8986Z" fill="#263238"/>
<path d="M167.399 79.2333C167.448 79.4576 167.604 79.6136 167.752 79.5869C167.901 79.5603 167.977 79.355 167.924 79.1306C167.87 78.9062 167.722 78.7503 167.574 78.7769C167.425 78.8035 167.349 79.0089 167.399 79.2333Z" fill="#263238"/>
<path d="M167.41 78.9482L167.863 78.5679C167.863 78.5679 167.79 79.0851 167.41 78.9482Z" fill="#263238"/>
<path d="M164.364 78.895C164.384 78.8819 164.4 78.8635 164.41 78.8418C164.474 78.6925 164.573 78.5605 164.698 78.4567C164.822 78.3529 164.97 78.2802 165.129 78.2447C165.146 78.2428 165.162 78.2375 165.177 78.2292C165.192 78.2209 165.205 78.2097 165.216 78.1963C165.227 78.1828 165.234 78.1674 165.239 78.1509C165.244 78.1344 165.245 78.1171 165.243 78.1001C165.24 78.0822 165.235 78.0649 165.225 78.0494C165.216 78.0338 165.204 78.0202 165.189 78.0096C165.175 77.9989 165.158 77.9913 165.141 77.9873C165.123 77.9832 165.105 77.9828 165.087 77.986C164.88 78.0251 164.686 78.1151 164.523 78.2479C164.36 78.3807 164.232 78.5521 164.152 78.7467C164.137 78.779 164.136 78.8158 164.148 78.8491C164.16 78.8824 164.184 78.9098 164.216 78.9254C164.241 78.935 164.269 78.9372 164.295 78.9319C164.321 78.9265 164.345 78.9137 164.364 78.895Z" fill="#263238"/>
<path d="M168.475 77.7845V77.7617C168.48 77.745 168.482 77.7274 168.48 77.7099C168.479 77.6924 168.474 77.6754 168.466 77.6599C168.457 77.6443 168.446 77.6305 168.433 77.6193C168.419 77.608 168.404 77.5996 168.387 77.5944C168.187 77.5269 167.973 77.5101 167.765 77.5452C167.557 77.5804 167.36 77.6665 167.193 77.7959C167.169 77.8219 167.156 77.8558 167.156 77.891C167.156 77.9262 167.169 77.9601 167.193 77.9861C167.219 78.0096 167.252 78.0227 167.286 78.0227C167.321 78.0227 167.354 78.0096 167.38 77.9861C167.514 77.8843 167.671 77.8169 167.837 77.7897C168.004 77.7625 168.174 77.7764 168.334 77.8302C168.359 77.8368 168.386 77.8361 168.411 77.828C168.436 77.8199 168.458 77.8048 168.475 77.7845Z" fill="#263238"/>
<path d="M164.562 79.4348L165.091 79.1572C165.091 79.1572 164.912 79.663 164.562 79.4348Z" fill="#263238"/>
<path d="M167.604 82.3328C167.604 82.3328 166.741 82.2416 164.41 82.5953C164.573 83.0156 164.883 83.3626 165.282 83.5723C165.681 83.782 166.143 83.8402 166.581 83.7362C166.741 83.7131 166.895 83.6582 167.034 83.5747C167.172 83.4912 167.293 83.3808 167.388 83.2501C167.483 83.1193 167.552 82.9708 167.589 82.8133C167.626 82.6557 167.631 82.4924 167.604 82.3328Z" fill="#263238"/>
<path d="M165.927 83.1887C166.386 83.0869 166.866 83.153 167.28 83.3751C167.089 83.57 166.837 83.6935 166.566 83.7249C166.108 83.8268 165.629 83.7607 165.216 83.5386C165.405 83.3429 165.656 83.2191 165.927 83.1887Z" fill="#A02724"/>
<path d="M167.475 82.3252C167.47 82.4217 167.439 82.515 167.385 82.5948C167.33 82.6747 167.255 82.738 167.167 82.7778C166.475 82.881 165.775 82.9179 165.076 82.888C164.961 82.8924 164.846 82.8658 164.744 82.811C164.643 82.7561 164.558 82.6751 164.498 82.5762C165.482 82.4091 166.477 82.3252 167.475 82.3252Z" fill="white"/>
<path d="M162.817 108.787C162.817 108.89 162.817 109 162.817 109.103C162.817 109.981 162.817 112.046 162.779 112.955C161.912 113.012 161.045 113.035 160.178 113.035C157.832 113.035 152.251 112.484 152.251 112.484C152.407 111.765 153.893 103.931 154.281 99.2907C154.38 98.3902 154.397 97.4826 154.331 96.5791C154.255 96.001 154.182 95.4382 154.11 94.8791C153.903 93.4286 153.787 91.9667 153.76 90.5017C153.775 90.1362 153.888 89.7813 154.087 89.4749C154.32 89.1301 154.635 88.849 155.004 88.6572C155.274 88.5102 155.565 88.4051 155.867 88.3454L156.27 88.2693C156.928 88.1514 157.813 88.1628 158.737 88.0487L158.988 88.0183L159.281 87.9879L159.737 87.9422C160.338 87.8928 160.916 87.8662 161.433 87.87H161.475C161.475 87.87 161.475 87.87 161.475 87.8928C161.449 88.0521 161.473 88.2154 161.543 88.3606C163.315 91.3726 162.832 105.128 162.817 108.787Z" fill="#BE202F"/>
<path opacity="0.1" d="M162.817 108.787C162.817 108.89 162.817 109 162.817 109.103C162.817 109.981 162.817 112.046 162.779 112.955C161.912 113.012 161.045 113.035 160.178 113.035C157.832 113.035 152.251 112.484 152.251 112.484C152.407 111.765 153.893 103.931 154.281 99.2907C154.38 98.3902 154.397 97.4826 154.331 96.5791C154.255 96.001 154.182 95.4382 154.11 94.8791C153.903 93.4286 153.787 91.9667 153.76 90.5017C153.775 90.1362 153.888 89.7813 154.087 89.4749C154.32 89.1301 154.635 88.849 155.004 88.6572C155.274 88.5102 155.565 88.4051 155.867 88.3454L156.27 88.2693C156.928 88.1514 157.813 88.1628 158.737 88.0487L158.988 88.0183L159.281 87.9879L159.737 87.9422C160.338 87.8928 160.916 87.8662 161.433 87.87H161.475C161.475 87.87 161.475 87.87 161.475 87.8928C161.449 88.0521 161.473 88.2154 161.543 88.3606C163.315 91.3726 162.832 105.128 162.817 108.787Z" fill="white"/>
<path opacity="0.2" d="M154.296 99.2755C154.395 98.375 154.411 97.4674 154.346 96.5639C154.269 95.9858 154.197 95.4229 154.125 94.8639L156.026 91.9507L154.296 99.2755Z" fill="black"/>
<path d="M143.822 78.1571L142.891 84.6528L145.932 84.4208L146.313 78.2256C146.313 78.2256 144.613 76.5484 143.822 78.1571Z" fill="#FEBBBA"/>
<path d="M146.172 78.3093C146.305 78.5679 147.476 76.2556 147.229 74.4111L143.427 74.8219L143.875 78.3473L146.172 78.3093Z" fill="#FEBBBA"/>
<path d="M143.464 74.9698L147.266 74.7758L146.555 73.4333C146.419 73.2185 146.224 73.0468 145.994 72.9384C145.764 72.83 145.507 72.7893 145.255 72.821L144.84 72.8476C144.015 72.9047 143.361 73.517 143.411 74.1787L143.464 74.9698Z" fill="#FEBBBA"/>
<g opacity="0.1">
<path opacity="0.1" d="M147.328 88.0983C146.856 88.0983 145.632 87.9462 145.674 87.9804L146.161 88.3608C145.875 88.0907 146.541 80.1004 146.586 79.374H143.214C142.834 80.1537 142.431 84.1964 141.552 89.6918C140.556 94.324 153.077 94.5294 154.172 94.3963C156.78 94.0844 157.921 88.0337 156.761 88.2048C156.761 88.22 148.278 88.0755 147.328 88.0983Z" fill="white"/>
</g>
<path d="M147.111 71.2277C147.176 71.2509 147.233 71.291 147.276 71.3439C147.32 71.3968 147.348 71.4605 147.358 71.5282C147.408 72.5698 147.361 73.6138 147.218 74.6467L146.541 74.5174C146.461 74.4986 146.389 74.4543 146.336 74.3912C146.283 74.3282 146.252 74.2497 146.248 74.1675L146.628 71.57C146.632 71.5133 146.648 71.4582 146.676 71.4086C146.703 71.359 146.742 71.3162 146.788 71.2834C146.834 71.2506 146.887 71.2285 146.943 71.2189C146.999 71.2093 147.057 71.2123 147.111 71.2277Z" fill="#FEBBBA"/>
<path d="M164.334 74.4302C163.224 73.5478 162.087 73.2892 160.764 73.7912C156.544 75.3885 156.403 81.0818 157.342 83.5538C158.844 87.5547 158.213 89.403 158.103 89.9088C157.76 91.681 156.874 92.8144 156.604 92.8828C157.073 93.1397 157.592 93.2928 158.125 93.3316C158.359 93.3686 158.598 93.3426 158.817 93.2564C159.037 93.1701 159.23 93.0267 159.376 92.841C159.337 93.146 159.216 93.4347 159.026 93.6764C158.836 93.9181 158.584 94.1039 158.296 94.2139C158.793 94.4092 159.331 94.4721 159.859 94.3965C160.175 94.3204 160.46 94.1493 160.772 94.0656C161.083 93.9819 161.357 93.9895 161.642 93.9059C161.861 93.8383 162.064 93.7283 162.24 93.5821C162.416 93.4359 162.562 93.2565 162.669 93.054C162.877 92.6434 162.952 92.1779 162.882 91.7229C163.346 91.0993 163.665 90.38 163.815 89.6174C163.966 88.8549 163.944 88.0683 163.752 87.3151C163.523 86.6545 163.258 86.0069 162.958 85.3755C161.984 83.0165 161.889 80.3861 162.692 77.9633C163.041 76.9478 164.334 75.5255 164.334 74.4302Z" fill="#263238"/>
<path d="M161.821 80.6064C161.966 80.6515 162.12 80.6597 162.269 80.6305C162.419 80.6013 162.559 80.5356 162.676 80.4391C163.193 80.0831 163.559 79.5477 163.703 78.9369C164.181 78.7306 164.581 78.376 164.843 77.9253C165.029 77.5579 165.158 77.1641 165.224 76.7577C165.34 76.0148 165.182 75.2549 164.779 74.6204C164.62 74.4661 164.43 74.3477 164.221 74.2729C164.013 74.1981 163.79 74.1688 163.57 74.1868C163.161 74.206 162.76 74.3014 162.387 74.4682C162.52 74.4911 161.714 78.6212 161.627 80.576C161.612 80.6483 161.817 80.6749 161.821 80.6064Z" fill="#263238"/>
<path d="M181.874 87.4897L180.22 92.3615L182.938 93.7915L184.185 88.1971C184.185 88.1971 182.813 86.4781 181.874 87.4897Z" fill="#FEBBBA"/>
<path d="M188.934 87.0559L187.667 88.1969C187.514 88.3028 187.341 88.3766 187.158 88.4137L183.976 88.9233L181.934 87.828C181.732 87.6873 181.774 87.4477 181.915 87.2423C182.341 86.6338 184.261 86.3904 185.048 86.3372C185.295 86.3181 187.378 85.7857 187.378 85.7857C187.475 85.7682 187.574 85.7801 187.664 85.8199L188.987 86.2459C189.363 86.398 189.299 86.7707 188.934 87.0559Z" fill="#FEBBBA"/>
<path d="M168.573 95.8414C168.573 95.8414 173.193 101.253 177.413 102.6C179.519 103.269 182.31 99.6902 183.914 89.92L181.055 88.9692L176.675 96.7009L170.234 89.7184C169.691 89.11 167.406 88.9578 167.953 89.1974L168.573 95.8414Z" fill="#BE202F"/>
<path d="M171.668 99.3744C172.223 100.405 173.334 111.544 172.984 112.389C172.984 112.389 168.904 112.978 166.63 113.039C166.63 112.978 166.63 112.925 166.63 112.868C166.63 112.811 166.63 112.666 166.63 112.567V111.955C166.71 108.023 166.558 101.443 166.376 98.5985C166.159 95.1948 165.821 92.5934 165.547 90.8592C165.459 90.304 165.011 88.7295 165.011 88.7295C165.771 88.7865 166.638 88.8664 167.391 88.9539C168.22 89.0248 169.021 89.2891 169.729 89.7257C170.438 90.1622 171.034 90.7589 171.471 91.4677C171.713 92.1242 171.876 92.8072 171.957 93.5024C172.01 94.028 172.148 94.5417 172.364 95.0236C172.873 96.4422 173.733 98.1992 171.668 99.3744Z" fill="#BE202F"/>
<g opacity="0.1">
<path opacity="0.1" d="M171.668 99.3744C172.223 100.405 173.334 110.936 172.984 112.389C172.984 112.389 168.904 112.978 166.63 113.039C166.63 112.978 166.63 112.925 166.63 112.868C166.63 112.811 166.63 112.666 166.63 112.567V111.955C166.71 108.023 166.558 101.443 166.376 98.5985C166.159 95.1948 165.821 92.5934 165.547 90.8592C165.459 90.304 165.011 88.7295 165.011 88.7295C165.771 88.7865 166.638 88.8664 167.391 88.9539C167.788 88.9993 168.181 89.0834 168.562 89.2049C169.461 89.499 170.257 90.0435 170.857 90.7744C171.457 91.5054 171.836 92.3923 171.95 93.3312C171.955 93.3882 171.955 93.4455 171.95 93.5024C172.003 94.028 172.14 94.5417 172.356 95.0236C172.874 96.4422 173.733 98.1992 171.668 99.3744Z" fill="white"/>
</g>
<path d="M147.327 88.0983C146.855 88.0983 145.631 87.9462 145.673 87.9804L146.16 88.3607C145.874 88.0907 146.54 80.1004 146.585 79.374H143.213C142.833 80.1537 142.43 84.1964 141.551 89.6918C140.555 94.324 153.076 94.5294 154.171 94.3963C156.779 94.0844 157.92 88.0337 156.76 88.2048C156.76 88.22 148.277 88.0755 147.327 88.0983Z" fill="#BE202F"/>
<path d="M123.443 175.74L122.648 175.855L120.295 152.005L121.093 151.895L123.443 175.74Z" fill="#263238"/>
<path d="M124.169 157.661H123.446V175.334H124.169V157.661Z" fill="#263238"/>
<path d="M125.34 175.132L124.313 175.037L126.443 151.169L127.473 151.264L125.34 175.132Z" fill="#263238"/>
<path d="M125.534 176.76H121.378C120.546 176.764 119.744 176.452 119.134 175.887C118.523 175.322 118.15 174.547 118.089 173.717L117.564 165.145H129.351L128.822 173.702C128.767 174.535 128.396 175.315 127.785 175.884C127.173 176.452 126.368 176.765 125.534 176.76Z" fill="#515959"/>
<path d="M126.313 154.603L117.914 150.385C117.877 150.37 117.847 150.341 117.831 150.304C117.814 150.267 117.813 150.226 117.827 150.188C117.841 150.15 117.868 150.119 117.905 150.101C117.941 150.083 117.982 150.08 118.021 150.093L124.336 151.496C124.366 151.503 124.398 151.501 124.427 151.491C124.457 151.48 124.482 151.461 124.501 151.436C124.52 151.411 124.53 151.381 124.532 151.349C124.534 151.318 124.526 151.287 124.511 151.26L120.199 143.909C120.175 143.874 120.166 143.831 120.173 143.789C120.181 143.747 120.204 143.71 120.239 143.686C120.274 143.662 120.317 143.653 120.359 143.66C120.4 143.668 120.437 143.691 120.462 143.726L125.876 149.891C125.897 149.916 125.925 149.933 125.956 149.942C125.987 149.95 126.02 149.949 126.05 149.938C126.081 149.928 126.107 149.908 126.126 149.882C126.145 149.856 126.156 149.824 126.157 149.792L126.355 141.399C126.354 141.359 126.368 141.32 126.394 141.29C126.42 141.26 126.456 141.241 126.495 141.236C126.535 141.232 126.574 141.242 126.607 141.265C126.639 141.288 126.662 141.322 126.67 141.361L128.86 149.305C128.869 149.333 128.885 149.358 128.906 149.377C128.927 149.397 128.953 149.41 128.981 149.416C129.01 149.423 129.039 149.421 129.066 149.412C129.094 149.404 129.119 149.388 129.138 149.366L134.313 143.547C134.339 143.519 134.375 143.501 134.413 143.497C134.451 143.493 134.49 143.503 134.522 143.526C134.553 143.548 134.576 143.581 134.585 143.619C134.594 143.656 134.589 143.696 134.571 143.73L130.412 150.956C130.398 150.98 130.392 151.008 130.392 151.036C130.393 151.064 130.401 151.092 130.416 151.115C130.431 151.139 130.451 151.159 130.476 151.172C130.5 151.186 130.528 151.192 130.556 151.192L137.217 150.971C137.258 150.964 137.3 150.974 137.334 150.999C137.367 151.023 137.39 151.059 137.396 151.1C137.403 151.141 137.393 151.183 137.368 151.217C137.344 151.25 137.308 151.273 137.267 151.279L130.115 153.462C130.082 153.471 130.053 153.491 130.033 153.518C130.012 153.545 130.001 153.578 130.001 153.612C130.001 153.646 130.012 153.679 130.033 153.707C130.053 153.734 130.082 153.753 130.115 153.763L134.526 155.154C134.56 155.168 134.589 155.194 134.607 155.227C134.625 155.26 134.63 155.299 134.623 155.336C134.615 155.373 134.595 155.405 134.565 155.429C134.535 155.452 134.498 155.464 134.461 155.463L126.37 154.63C126.349 154.625 126.33 154.616 126.313 154.603Z" fill="#D1A53D"/>
<path opacity="0.2" d="M126.313 154.603L117.914 150.385C117.877 150.37 117.847 150.341 117.831 150.304C117.814 150.267 117.813 150.226 117.827 150.188C117.841 150.15 117.868 150.119 117.905 150.101C117.941 150.083 117.982 150.08 118.021 150.093L124.336 151.496C124.366 151.503 124.398 151.501 124.427 151.491C124.457 151.48 124.482 151.461 124.501 151.436C124.52 151.411 124.53 151.381 124.532 151.349C124.534 151.318 124.526 151.287 124.511 151.26L120.199 143.909C120.175 143.874 120.166 143.831 120.173 143.789C120.181 143.747 120.204 143.71 120.239 143.686C120.274 143.662 120.317 143.653 120.359 143.66C120.4 143.668 120.437 143.691 120.462 143.726L125.876 149.891C125.897 149.916 125.925 149.933 125.956 149.942C125.987 149.95 126.02 149.949 126.05 149.938C126.081 149.928 126.107 149.908 126.126 149.882C126.145 149.856 126.156 149.824 126.157 149.792L126.355 141.399C126.354 141.359 126.368 141.32 126.394 141.29C126.42 141.26 126.456 141.241 126.495 141.236C126.535 141.232 126.574 141.242 126.607 141.265C126.639 141.288 126.662 141.322 126.67 141.361L128.86 149.305C128.869 149.333 128.885 149.358 128.906 149.377C128.927 149.397 128.953 149.41 128.981 149.416C129.01 149.423 129.039 149.421 129.066 149.412C129.094 149.404 129.119 149.388 129.138 149.366L134.313 143.547C134.339 143.519 134.375 143.501 134.413 143.497C134.451 143.493 134.49 143.503 134.522 143.526C134.553 143.548 134.576 143.581 134.585 143.619C134.594 143.656 134.589 143.696 134.571 143.73L130.412 150.956C130.398 150.98 130.392 151.008 130.392 151.036C130.393 151.064 130.401 151.092 130.416 151.115C130.431 151.139 130.451 151.159 130.476 151.172C130.5 151.186 130.528 151.192 130.556 151.192L137.217 150.971C137.258 150.964 137.3 150.974 137.334 150.999C137.367 151.023 137.39 151.059 137.396 151.1C137.403 151.141 137.393 151.183 137.368 151.217C137.344 151.25 137.308 151.273 137.267 151.279L130.115 153.462C130.082 153.471 130.053 153.491 130.033 153.518C130.012 153.545 130.001 153.578 130.001 153.612C130.001 153.646 130.012 153.679 130.033 153.707C130.053 153.734 130.082 153.753 130.115 153.763L134.526 155.154C134.56 155.168 134.589 155.194 134.607 155.227C134.625 155.26 134.63 155.299 134.623 155.336C134.615 155.373 134.595 155.405 134.565 155.429C134.535 155.452 134.498 155.464 134.461 155.463L126.37 154.63C126.349 154.625 126.33 154.616 126.313 154.603Z" fill="black"/>
<path d="M120.12 154.573H112.717C112.688 154.571 112.661 154.559 112.64 154.539C112.619 154.52 112.605 154.494 112.601 154.465C112.597 154.436 112.603 154.407 112.618 154.383C112.633 154.358 112.656 154.339 112.683 154.329L117.626 153.089C117.649 153.083 117.669 153.07 117.685 153.053C117.701 153.035 117.712 153.013 117.716 152.989C117.72 152.966 117.717 152.942 117.708 152.92C117.699 152.898 117.683 152.879 117.664 152.865L111.991 149.233C111.964 149.216 111.945 149.19 111.938 149.159C111.93 149.129 111.934 149.096 111.948 149.069C111.963 149.041 111.988 149.02 112.018 149.009C112.047 148.999 112.08 149 112.109 149.013L118.127 151.428C118.151 151.437 118.177 151.439 118.201 151.434C118.226 151.428 118.249 151.415 118.266 151.397C118.283 151.378 118.294 151.355 118.298 151.33C118.302 151.305 118.298 151.279 118.287 151.256L115.394 145.308C115.379 145.281 115.375 145.248 115.383 145.218C115.391 145.188 115.409 145.161 115.436 145.144C115.462 145.127 115.494 145.12 115.525 145.125C115.555 145.13 115.583 145.147 115.603 145.171L119.998 149.956C120.014 149.972 120.033 149.984 120.055 149.99C120.077 149.996 120.1 149.997 120.122 149.991C120.144 149.986 120.164 149.975 120.18 149.959C120.196 149.944 120.208 149.924 120.215 149.902L121.736 144.008C121.743 143.978 121.761 143.951 121.787 143.934C121.813 143.917 121.844 143.91 121.875 143.914C121.905 143.918 121.933 143.933 121.953 143.957C121.973 143.981 121.984 144.011 121.983 144.042L121.682 150.576C121.682 150.598 121.687 150.62 121.697 150.639C121.708 150.659 121.723 150.675 121.742 150.687C121.761 150.699 121.783 150.705 121.805 150.705C121.827 150.706 121.849 150.701 121.869 150.69L126.454 148.195C126.48 148.182 126.51 148.178 126.539 148.185C126.568 148.191 126.593 148.208 126.611 148.232C126.629 148.255 126.638 148.284 126.636 148.314C126.634 148.343 126.622 148.371 126.602 148.393L122.359 152.435C122.341 152.454 122.328 152.478 122.324 152.504C122.32 152.53 122.324 152.557 122.336 152.58C122.347 152.604 122.366 152.623 122.39 152.635C122.413 152.647 122.44 152.652 122.466 152.648L126.051 152.078C126.082 152.069 126.116 152.073 126.144 152.09C126.172 152.106 126.193 152.132 126.201 152.163C126.21 152.195 126.206 152.228 126.19 152.256C126.173 152.284 126.147 152.305 126.116 152.314L120.154 154.565L120.12 154.573Z" fill="#D1A53D"/>
<path d="M123.61 159.928L116.58 158.635C116.552 158.629 116.526 158.615 116.508 158.593C116.49 158.571 116.479 158.543 116.479 158.515C116.479 158.486 116.49 158.459 116.508 158.437C116.526 158.415 116.552 158.4 116.58 158.395L121.481 158.083C121.504 158.082 121.526 158.074 121.545 158.06C121.563 158.046 121.578 158.026 121.585 158.004C121.593 157.983 121.594 157.959 121.588 157.936C121.583 157.914 121.57 157.893 121.553 157.878L116.823 153.436C116.804 153.414 116.793 153.386 116.792 153.357C116.791 153.328 116.801 153.3 116.819 153.277C116.838 153.255 116.863 153.24 116.892 153.234C116.921 153.229 116.95 153.235 116.975 153.249L122.252 156.592C122.273 156.605 122.297 156.612 122.321 156.611C122.346 156.61 122.369 156.602 122.389 156.587C122.408 156.573 122.423 156.553 122.432 156.53C122.44 156.507 122.441 156.483 122.435 156.459L120.758 150.31C120.751 150.281 120.754 150.252 120.767 150.226C120.78 150.2 120.802 150.18 120.828 150.168C120.855 150.157 120.884 150.155 120.912 150.164C120.94 150.172 120.963 150.19 120.979 150.214L124.294 155.52C124.305 155.539 124.32 155.555 124.339 155.566C124.358 155.577 124.379 155.583 124.401 155.583C124.422 155.583 124.444 155.577 124.462 155.566C124.481 155.555 124.497 155.539 124.507 155.52L127.013 150.195C127.026 150.169 127.048 150.147 127.076 150.136C127.103 150.125 127.134 150.124 127.162 150.134C127.19 150.144 127.214 150.163 127.228 150.19C127.243 150.216 127.247 150.246 127.241 150.275L125.785 156.421C125.779 156.442 125.779 156.464 125.785 156.485C125.792 156.506 125.803 156.525 125.819 156.539C125.836 156.554 125.855 156.564 125.877 156.568C125.898 156.572 125.92 156.57 125.941 156.562L130.739 154.995C130.766 154.988 130.794 154.99 130.82 155.002C130.845 155.013 130.866 155.033 130.878 155.058C130.891 155.083 130.894 155.112 130.888 155.139C130.882 155.166 130.867 155.191 130.845 155.208L126.112 158.307C126.089 158.32 126.071 158.341 126.061 158.365C126.051 158.389 126.049 158.416 126.056 158.442C126.063 158.467 126.078 158.489 126.099 158.505C126.12 158.521 126.146 158.529 126.172 158.528L129.678 158.612C129.693 158.61 129.709 158.612 129.724 158.617C129.739 158.622 129.752 158.629 129.764 158.639C129.776 158.65 129.786 158.662 129.793 158.676C129.8 158.69 129.804 158.705 129.805 158.72C129.807 158.736 129.805 158.751 129.8 158.766C129.795 158.781 129.788 158.794 129.778 158.806C129.768 158.818 129.755 158.828 129.741 158.835C129.728 158.842 129.712 158.846 129.697 158.847L123.636 159.943L123.61 159.928Z" fill="#D1A53D"/>
<path opacity="0.2" d="M123.61 159.928L116.58 158.635C116.552 158.629 116.526 158.615 116.508 158.593C116.49 158.571 116.479 158.543 116.479 158.515C116.479 158.486 116.49 158.459 116.508 158.437C116.526 158.415 116.552 158.4 116.58 158.395L121.481 158.083C121.504 158.082 121.526 158.074 121.545 158.06C121.563 158.046 121.578 158.026 121.585 158.004C121.593 157.983 121.594 157.959 121.588 157.936C121.583 157.914 121.57 157.893 121.553 157.878L116.823 153.436C116.804 153.414 116.793 153.386 116.792 153.357C116.791 153.328 116.801 153.3 116.819 153.277C116.838 153.255 116.863 153.24 116.892 153.234C116.921 153.229 116.95 153.235 116.975 153.249L122.252 156.592C122.273 156.605 122.297 156.612 122.321 156.611C122.346 156.61 122.369 156.602 122.389 156.587C122.408 156.573 122.423 156.553 122.432 156.53C122.44 156.507 122.441 156.483 122.435 156.459L120.758 150.31C120.751 150.281 120.754 150.252 120.767 150.226C120.78 150.2 120.802 150.18 120.828 150.168C120.855 150.157 120.884 150.155 120.912 150.164C120.94 150.172 120.963 150.19 120.979 150.214L124.294 155.52C124.305 155.539 124.32 155.555 124.339 155.566C124.358 155.577 124.379 155.583 124.401 155.583C124.422 155.583 124.444 155.577 124.462 155.566C124.481 155.555 124.497 155.539 124.507 155.52L127.013 150.195C127.026 150.169 127.048 150.147 127.076 150.136C127.103 150.125 127.134 150.124 127.162 150.134C127.19 150.144 127.214 150.163 127.228 150.19C127.243 150.216 127.247 150.246 127.241 150.275L125.785 156.421C125.779 156.442 125.779 156.464 125.785 156.485C125.792 156.506 125.803 156.525 125.819 156.539C125.836 156.554 125.855 156.564 125.877 156.568C125.898 156.572 125.92 156.57 125.941 156.562L130.739 154.995C130.766 154.988 130.794 154.99 130.82 155.002C130.845 155.013 130.866 155.033 130.878 155.058C130.891 155.083 130.894 155.112 130.888 155.139C130.882 155.166 130.867 155.191 130.845 155.208L126.112 158.307C126.089 158.32 126.071 158.341 126.061 158.365C126.051 158.389 126.049 158.416 126.056 158.442C126.063 158.467 126.078 158.489 126.099 158.505C126.12 158.521 126.146 158.529 126.172 158.528L129.678 158.612C129.693 158.61 129.709 158.612 129.724 158.617C129.739 158.622 129.752 158.629 129.764 158.639C129.776 158.65 129.786 158.662 129.793 158.676C129.8 158.69 129.804 158.705 129.805 158.72C129.807 158.736 129.805 158.751 129.8 158.766C129.795 158.781 129.788 158.794 129.778 158.806C129.768 158.818 129.755 158.828 129.741 158.835C129.728 158.842 129.712 158.846 129.697 158.847L123.636 159.943L123.61 159.928Z" fill="white"/>
<path d="M200.237 91.5513C199.18 96.7045 200.424 100.953 200.754 101.69C198.256 105.467 201.161 107.54 202.473 107.775C202.634 109.633 203.031 111.463 203.652 113.221C204.278 114.993 205.447 116.521 206.994 117.587C208.56 118.591 210.636 118.896 212.317 118.105C213.507 117.542 214.925 115.499 214.769 114.191C219.925 112.586 227.939 100.785 221.232 89.4216C222.327 88.5088 221.757 82.9183 217.32 83.4279C216.94 81.1803 215.183 77.4038 210.222 77.7537C205.906 78.0579 202.56 84.0972 201.051 88.4784C199.416 87.3877 197.525 86.7416 195.564 86.6035C197.533 87.8095 199.145 89.517 200.237 91.5513Z" fill="white"/>
<path d="M210.234 118.751C209.048 118.744 207.889 118.399 206.891 117.759C205.028 116.564 204.006 114.678 203.47 113.301C202.856 111.571 202.463 109.771 202.299 107.943C201.758 107.787 201.259 107.515 200.834 107.146C200.41 106.776 200.072 106.319 199.842 105.806C199.485 104.957 199.321 103.558 200.534 101.672C200.135 100.668 199.044 96.4993 200.036 91.5781C198.961 89.6059 197.388 87.9499 195.474 86.7748L194.801 86.3717L195.584 86.4249C197.496 86.5594 199.344 87.1699 200.96 88.201C202.648 83.4281 206.051 77.8717 210.218 77.5751C215.857 77.1948 217.214 81.884 217.484 83.2341C218.326 83.1337 219.176 83.3195 219.899 83.7618C220.622 84.204 221.175 84.8769 221.469 85.6719C222.062 87.06 222.05 88.7866 221.469 89.475C222.871 91.8604 223.709 94.5353 223.919 97.2946C224.128 100.054 223.704 102.825 222.678 105.395C221.012 109.707 217.853 113.381 214.952 114.351C215.005 115.754 213.598 117.724 212.386 118.299C211.709 118.603 210.975 118.757 210.234 118.751ZM196.348 86.8851C198.037 88.0708 199.427 89.6332 200.409 91.4488L200.439 91.5096V91.5781C199.405 96.6096 200.595 100.827 200.941 101.599L200.987 101.694L200.93 101.782C199.991 103.2 199.744 104.535 200.211 105.646C200.426 106.122 200.746 106.544 201.146 106.88C201.546 107.217 202.017 107.459 202.523 107.589L202.664 107.612V107.753C202.824 109.594 203.215 111.409 203.827 113.153C204.34 114.477 205.321 116.287 207.097 117.428C208.697 118.451 210.716 118.649 212.241 117.93C213.344 117.409 214.731 115.439 214.583 114.214L214.564 114.058L214.716 114.009C217.108 113.267 220.499 110.012 222.343 105.235C223.357 102.695 223.771 99.955 223.552 97.2287C223.334 94.5024 222.49 91.8633 221.085 89.5168L221.005 89.3799L221.13 89.2734C221.625 88.8627 221.735 87.2274 221.13 85.8088C220.855 85.0626 220.328 84.4357 219.64 84.0359C218.953 83.6362 218.147 83.4885 217.362 83.6182L217.184 83.6372L217.153 83.4585C216.982 82.4697 215.853 77.5523 210.256 77.944C206.207 78.2292 202.873 83.8312 201.249 88.5432L201.169 88.7752L200.964 88.6383C199.575 87.7168 197.998 87.1178 196.348 86.8851Z" fill="#D1A53D"/>
<path d="M212.413 95.3015C212.413 94.7614 211.971 94.4001 211.105 94.4001C210.66 94.4031 210.224 94.5131 209.831 94.721C209.439 94.9289 209.102 95.2285 208.85 95.5943L206.759 94.2062C207.74 92.799 209.553 91.8521 211.808 91.8521C214.207 91.8521 215.743 92.9474 215.743 94.6626C215.743 97.4084 212.527 97.7355 212.2 99.3518H209.291C209.732 97.0775 212.413 96.7505 212.413 95.3015ZM208.359 102.082C208.363 101.832 208.417 101.586 208.518 101.357C208.62 101.128 208.767 100.923 208.95 100.753C209.134 100.584 209.35 100.453 209.586 100.37C209.822 100.286 210.072 100.252 210.321 100.268C211.348 100.268 212.07 100.938 212.07 101.82C212.067 102.07 212.014 102.318 211.914 102.547C211.814 102.776 211.669 102.983 211.488 103.156C211.306 103.328 211.092 103.462 210.858 103.55C210.623 103.638 210.374 103.678 210.124 103.668C209.901 103.685 209.678 103.656 209.467 103.583C209.256 103.51 209.062 103.396 208.897 103.245C208.731 103.095 208.599 102.913 208.506 102.71C208.414 102.506 208.364 102.287 208.359 102.063V102.082Z" fill="#BE202F"/>
<path d="M196.971 115.91C196.972 117.511 196.564 119.086 195.785 120.485C195.007 121.884 193.884 123.061 192.524 123.904C191.163 124.748 189.61 125.23 188.011 125.304C186.412 125.379 184.82 125.044 183.387 124.331C181.954 123.618 180.727 122.551 179.821 121.23C178.916 119.91 178.363 118.38 178.214 116.786C178.066 115.192 178.327 113.586 178.972 112.121C179.618 110.656 180.627 109.38 181.904 108.414L180.763 104.992L184.546 107.015C185.96 106.535 187.469 106.399 188.946 106.619C190.423 106.838 191.827 107.407 193.041 108.277C194.254 109.147 195.243 110.294 195.926 111.623C196.608 112.952 196.964 114.424 196.964 115.918L196.971 115.91Z" fill="#D1A53D"/>
<path opacity="0.7" d="M196.971 115.91C196.972 117.511 196.564 119.086 195.785 120.485C195.007 121.884 193.884 123.061 192.524 123.904C191.163 124.748 189.61 125.23 188.011 125.304C186.412 125.379 184.82 125.044 183.387 124.331C181.954 123.618 180.727 122.551 179.821 121.23C178.916 119.91 178.363 118.38 178.214 116.786C178.066 115.192 178.327 113.586 178.972 112.121C179.618 110.656 180.627 109.38 181.904 108.414L180.763 104.992L184.546 107.015C185.96 106.535 187.469 106.399 188.946 106.619C190.423 106.838 191.827 107.407 193.041 108.277C194.254 109.147 195.243 110.294 195.926 111.623C196.608 112.952 196.964 114.424 196.964 115.918L196.971 115.91Z" fill="white"/>
<path d="M188.086 113.625L187.253 118.478H186.28L184.903 115.816L184.443 118.478H183.303L184.135 113.625H185.094L186.477 116.287L186.93 113.625H188.086Z" fill="#D1A53D"/>
<path d="M188.135 116.827C188.135 115.587 188.964 114.659 190.12 114.659C190.347 114.643 190.575 114.676 190.789 114.757C191.002 114.837 191.196 114.962 191.357 115.123C191.518 115.285 191.642 115.479 191.721 115.693C191.8 115.907 191.833 116.136 191.816 116.363C191.816 117.61 190.987 118.538 189.827 118.538C189.6 118.553 189.372 118.518 189.159 118.437C188.946 118.355 188.753 118.229 188.592 118.067C188.432 117.905 188.308 117.711 188.229 117.497C188.151 117.283 188.118 117.054 188.135 116.827ZM190.664 116.447C190.664 116.009 190.443 115.728 190.055 115.728C189.603 115.728 189.295 116.15 189.295 116.781C189.295 117.215 189.515 117.492 189.903 117.492C190.352 117.477 190.667 117.055 190.667 116.431L190.664 116.447Z" fill="#D1A53D"/>
<path d="M189.06 65.2149L184.394 62.4272L184.018 67.3218L179.935 67.976L181.744 71.8627L178.505 74.9737L182.577 76.8714L178.292 81.6139L185.854 80.0774L188.607 84.0327L191.493 80.8875L195.093 82.4354L196.215 79.0886L201.013 78.4725L198.447 74.6999L200.226 71.414L197.39 69.6151L198.614 64.865L193.869 65.8957L191.405 62.9369L189.06 65.2149Z" fill="#D1A53D"/>
<path d="M190.455 78.2139C190.284 78.2034 190.119 78.143 189.982 78.04C189.845 77.9371 189.74 77.7961 189.682 77.6345C189.624 77.4729 189.615 77.2978 189.655 77.1308C189.695 76.9639 189.783 76.8124 189.909 76.6951C190.034 76.5779 190.191 76.4999 190.361 76.471C190.53 76.4421 190.704 76.4634 190.861 76.5323C191.018 76.6012 191.152 76.7147 191.245 76.8588C191.339 77.0029 191.388 77.1712 191.387 77.3429C191.384 77.4618 191.358 77.579 191.31 77.6876C191.261 77.7961 191.192 77.8939 191.105 77.9751C191.018 78.0562 190.916 78.1192 190.804 78.1602C190.693 78.2012 190.574 78.2195 190.455 78.2139ZM191.642 68.9381L191.311 74.1331C191.298 74.3345 191.209 74.5234 191.061 74.6607C190.913 74.798 190.718 74.8733 190.516 74.8709C190.317 74.8643 190.127 74.782 189.986 74.6408C189.845 74.4996 189.762 74.3099 189.756 74.1103L189.543 68.9077C189.537 68.7639 189.561 68.6204 189.612 68.4861C189.664 68.3517 189.742 68.2292 189.842 68.126C189.943 68.0229 190.063 67.9412 190.196 67.886C190.328 67.8307 190.471 67.8031 190.615 67.8048C190.758 67.809 190.898 67.8421 191.028 67.9019C191.157 67.9617 191.274 68.0471 191.369 68.1529C191.465 68.2587 191.539 68.3828 191.586 68.5177C191.632 68.6527 191.651 68.7956 191.642 68.9381Z" fill="white"/>
<path d="M180.406 54.3912H166.718C166.411 54.3945 166.117 54.514 165.895 54.7258C165.673 54.9375 165.539 55.2256 165.521 55.5321L165.186 61.8338C165.176 61.9808 165.197 62.1282 165.246 62.2668C165.296 62.4055 165.374 62.5323 165.475 62.6395C165.576 62.7466 165.698 62.8317 165.833 62.8894C165.969 62.9471 166.115 62.9761 166.262 62.9748H170.889L172.19 65.3175C172.265 65.4546 172.375 65.5699 172.508 65.6522C172.641 65.7345 172.793 65.7809 172.95 65.7871C173.106 65.7932 173.262 65.7588 173.401 65.6872C173.54 65.6155 173.659 65.5092 173.745 65.3783L175.334 62.9748H179.957C180.264 62.9715 180.558 62.8519 180.781 62.6402C181.003 62.4284 181.137 62.1403 181.155 61.8338L181.486 55.5245C181.494 55.378 181.472 55.2313 181.422 55.0936C181.371 54.9558 181.293 54.8299 181.191 54.7237C181.09 54.6175 180.968 54.5331 180.833 54.4759C180.698 54.4187 180.553 54.3899 180.406 54.3912Z" fill="#D1A53D"/>
<g opacity="0.6">
<path opacity="0.6" d="M180.406 54.3912H166.718C166.411 54.3945 166.117 54.514 165.895 54.7258C165.673 54.9375 165.539 55.2256 165.521 55.5321L165.186 61.8338C165.176 61.9808 165.197 62.1282 165.246 62.2668C165.296 62.4055 165.374 62.5323 165.475 62.6395C165.576 62.7466 165.698 62.8317 165.833 62.8894C165.969 62.9471 166.115 62.9761 166.262 62.9748H170.889L172.19 65.3175C172.265 65.4546 172.375 65.5699 172.508 65.6522C172.641 65.7345 172.793 65.7809 172.95 65.7871C173.106 65.7932 173.262 65.7588 173.401 65.6871C173.54 65.6155 173.659 65.5092 173.745 65.3783L175.334 62.9748H179.957C180.264 62.9714 180.558 62.8519 180.781 62.6402C181.003 62.4284 181.137 62.1403 181.155 61.8338L181.486 55.5245C181.494 55.378 181.472 55.2313 181.422 55.0936C181.371 54.9558 181.293 54.8299 181.191 54.7237C181.09 54.6175 180.968 54.5331 180.833 54.4759C180.698 54.4187 180.553 54.3899 180.406 54.3912Z" fill="white"/>
</g>
<path d="M170.392 58.5024C170.392 58.4024 170.421 58.3046 170.477 58.2214C170.532 58.1382 170.611 58.0734 170.704 58.0351C170.796 57.9968 170.898 57.9868 170.996 58.0063C171.094 58.0258 171.184 58.074 171.255 58.1447C171.326 58.2155 171.374 58.3056 171.393 58.4037C171.413 58.5018 171.403 58.6035 171.364 58.696C171.326 58.7884 171.261 58.8674 171.178 58.923C171.095 58.9785 170.997 59.0082 170.897 59.0082C170.763 59.0072 170.635 58.9536 170.541 58.859C170.446 58.7643 170.393 58.6362 170.392 58.5024Z" fill="#D1A53D"/>
<path d="M172.627 58.5024C172.627 58.4024 172.657 58.3046 172.712 58.2214C172.768 58.1382 172.847 58.0734 172.939 58.0351C173.032 57.9968 173.133 57.9868 173.231 58.0063C173.329 58.0258 173.419 58.074 173.49 58.1447C173.561 58.2155 173.609 58.3056 173.629 58.4037C173.648 58.5018 173.638 58.6035 173.6 58.696C173.562 58.7884 173.497 58.8674 173.414 58.923C173.33 58.9785 173.233 59.0082 173.133 59.0082C172.999 59.0072 172.871 58.9536 172.776 58.859C172.682 58.7643 172.628 58.6362 172.627 58.5024Z" fill="#D1A53D"/>
<path d="M174.862 58.5024C174.862 58.4024 174.892 58.3046 174.948 58.2214C175.003 58.1382 175.082 58.0734 175.174 58.0351C175.267 57.9968 175.369 57.9868 175.467 58.0063C175.565 58.0258 175.655 58.074 175.726 58.1447C175.796 58.2155 175.844 58.3056 175.864 58.4037C175.883 58.5018 175.873 58.6035 175.835 58.696C175.797 58.7884 175.732 58.8674 175.649 58.923C175.566 58.9785 175.468 59.0082 175.368 59.0082C175.234 59.0072 175.106 58.9536 175.012 58.859C174.917 58.7643 174.863 58.6362 174.862 58.5024Z" fill="#D1A53D"/>
<path d="M151.035 70.1249C151.011 70.3491 151.053 70.5756 151.158 70.7755C151.262 70.9755 151.424 71.14 151.621 71.2482C151.819 71.3565 152.045 71.4037 152.269 71.3839C152.494 71.364 152.708 71.278 152.883 71.1367C153.059 70.9954 153.189 70.8052 153.257 70.59C153.325 70.3749 153.327 70.1444 153.264 69.9279C153.201 69.7114 153.075 69.5184 152.902 69.3734C152.729 69.2284 152.518 69.1379 152.293 69.1133C152.144 69.0969 151.994 69.1101 151.85 69.1521C151.706 69.1941 151.571 69.2641 151.454 69.358C151.338 69.452 151.24 69.5681 151.168 69.6997C151.096 69.8313 151.051 69.9758 151.035 70.1249Z" fill="white"/>
<path d="M152.172 71.5819H152.023C151.762 71.5533 151.514 71.4478 151.312 71.2785C151.111 71.1093 150.964 70.884 150.89 70.6311C150.816 70.3783 150.819 70.1092 150.899 69.8581C150.978 69.6069 151.13 69.3849 151.335 69.2202C151.471 69.1092 151.628 69.0268 151.797 68.9778C151.965 68.9288 152.142 68.9142 152.316 68.9349C152.669 68.9541 153 69.1127 153.236 69.3759C153.472 69.6391 153.594 69.9852 153.575 70.3383C153.555 70.6913 153.397 71.0223 153.134 71.2583C152.871 71.4944 152.525 71.6163 152.172 71.5971V71.5819ZM152.172 69.3C151.938 69.3004 151.713 69.3867 151.539 69.5424C151.365 69.6981 151.255 69.9123 151.229 70.1443C151.208 70.3312 151.243 70.52 151.33 70.6869C151.417 70.8538 151.551 70.9913 151.715 71.0819C151.88 71.1725 152.068 71.2123 152.255 71.1961C152.443 71.1799 152.621 71.1085 152.768 70.991C152.914 70.8735 153.023 70.715 153.08 70.5358C153.136 70.3565 153.139 70.1644 153.086 69.9838C153.034 69.8032 152.929 69.6423 152.785 69.5212C152.641 69.4002 152.465 69.3245 152.278 69.3038L152.172 69.3Z" fill="#D1A53D"/>
<path d="M154.146 72.9733C154.131 73.102 154.155 73.2321 154.215 73.3471C154.275 73.4621 154.367 73.5567 154.481 73.6191C154.594 73.6815 154.724 73.7087 154.853 73.6974C154.982 73.686 155.104 73.6367 155.205 73.5555C155.306 73.4743 155.381 73.365 155.42 73.2414C155.458 73.1178 155.459 72.9854 155.423 72.8612C155.386 72.7369 155.314 72.6263 155.214 72.5433C155.115 72.4604 154.993 72.4088 154.864 72.3952C154.692 72.3771 154.52 72.4277 154.386 72.536C154.251 72.6443 154.165 72.8015 154.146 72.9733Z" fill="white"/>
<path d="M154.795 73.8864H154.7C154.479 73.86 154.277 73.7481 154.138 73.5746C154.068 73.4884 154.016 73.3892 153.986 73.2827C153.955 73.1762 153.946 73.0647 153.959 72.9547C153.971 72.8449 154.004 72.7385 154.057 72.6417C154.11 72.5449 154.182 72.4595 154.268 72.3906C154.355 72.3217 154.454 72.2705 154.56 72.24C154.666 72.2095 154.777 72.2004 154.887 72.2131C155.052 72.2314 155.208 72.2982 155.335 72.4051C155.462 72.512 155.555 72.6542 155.601 72.8137C155.647 72.9732 155.645 73.1429 155.595 73.3014C155.545 73.4598 155.45 73.5999 155.32 73.7039C155.171 73.8227 154.986 73.8871 154.795 73.8864ZM154.335 72.9927C154.328 73.0529 154.333 73.1139 154.35 73.172C154.367 73.2302 154.396 73.2843 154.434 73.3312C154.471 73.3795 154.517 73.4197 154.57 73.4491C154.623 73.4786 154.682 73.4967 154.742 73.5023C154.864 73.5143 154.985 73.4789 155.081 73.4034C155.129 73.3668 155.169 73.3204 155.199 73.2674C155.228 73.2144 155.246 73.1558 155.252 73.0954C155.258 73.0352 155.253 72.9743 155.236 72.9161C155.22 72.8579 155.192 72.8036 155.154 72.7563C155.116 72.709 155.069 72.6696 155.016 72.6403C154.963 72.611 154.905 72.5925 154.845 72.5858C154.785 72.579 154.724 72.5842 154.666 72.601C154.607 72.6178 154.553 72.6459 154.506 72.6837C154.459 72.7215 154.419 72.7682 154.39 72.8212C154.361 72.8742 154.342 72.9325 154.335 72.9927Z" fill="#D1A53D"/>
<path d="M134.393 50.1247C134.959 48.1767 136.082 46.4365 137.623 45.1177C139.165 43.7988 141.057 42.9586 143.069 42.7001C145.08 42.4417 147.124 42.7763 148.948 43.6628C150.772 44.5493 152.298 45.9492 153.339 47.6907C154.446 47.5638 155.567 47.6644 156.634 47.9865C157.701 48.3085 158.691 48.8452 159.543 49.5635C160.395 50.2819 161.092 51.1668 161.59 52.164C162.088 53.1613 162.377 54.2497 162.44 55.3627C162.502 56.4757 162.337 57.5897 161.953 58.6364C161.57 59.6831 160.977 60.6405 160.211 61.4498C159.444 62.2591 158.521 62.9033 157.497 63.3429C156.473 63.7824 155.369 64.0081 154.255 64.006C154.123 64.006 153.996 64.006 153.875 64.006C152.527 65.8752 150.532 67.176 148.278 67.6554C146.025 68.1348 143.673 67.7585 141.681 66.5997C139.647 66.941 137.557 66.5947 135.741 65.6156C133.925 64.6364 132.486 63.0802 131.653 61.1926C130.819 59.305 130.638 57.1934 131.138 55.1913C131.637 53.1892 132.789 51.4105 134.412 50.1361L134.393 50.1247Z" fill="white"/>
<path d="M146.313 68.0371C144.669 68.0298 143.055 67.596 141.629 66.7783C141.133 66.855 140.632 66.8944 140.131 66.8962C138.165 66.8965 136.248 66.2853 134.645 65.1473C133.042 64.0093 131.833 62.4009 131.185 60.5449C130.536 58.6888 130.481 56.677 131.027 54.7882C131.572 52.8993 132.692 51.227 134.23 50.0028C134.814 48.0383 135.954 46.2851 137.513 44.955C139.073 43.625 140.983 42.7751 143.015 42.508C145.046 42.2409 147.112 42.5681 148.962 43.45C150.811 44.3319 152.366 45.7307 153.438 47.4775C153.715 47.4509 153.989 47.4357 154.255 47.4357C156.474 47.4357 158.601 48.3172 160.17 49.8863C161.739 51.4554 162.62 53.5835 162.62 55.8025C162.62 58.0216 161.739 60.1497 160.17 61.7188C158.601 63.2879 156.474 64.1694 154.255 64.1694H153.947C153.066 65.3662 151.916 66.3396 150.59 67.0113C149.264 67.683 147.799 68.0344 146.313 68.0371ZM141.701 66.398L141.758 66.4322C143.709 67.5669 146.012 67.9353 148.219 67.4658C150.426 66.9962 152.38 65.7223 153.7 63.8917L153.761 63.8081H153.864C153.993 63.8081 154.126 63.8081 154.244 63.8081C156.362 63.8081 158.392 62.9666 159.89 61.4689C161.387 59.9711 162.228 57.9397 162.228 55.8216C162.228 53.7034 161.387 51.672 159.89 50.1742C158.392 48.6765 156.362 47.835 154.244 47.835C153.944 47.8362 153.645 47.8539 153.347 47.8883H153.225L153.164 47.7856C152.143 46.0759 150.645 44.7016 148.854 43.8312C147.063 42.9609 145.057 42.6323 143.082 42.8859C141.107 43.1395 139.249 43.9642 137.736 45.2588C136.223 46.5534 135.121 48.2617 134.564 50.1739V50.231L134.515 50.269C133.026 51.4374 131.938 53.0413 131.404 54.8572C130.869 56.6731 130.915 58.6106 131.533 60.3996C132.152 62.1886 133.313 63.7401 134.854 64.8378C136.396 65.9355 138.242 66.5248 140.134 66.5235C140.638 66.523 141.14 66.481 141.636 66.398H141.701Z" fill="#D1A53D"/>
<path d="M146.979 59.9743L146.142 60.5904H146.119L145.306 59.9325C142.773 57.7343 139.899 55.3117 142.161 53.3379C143.732 51.9612 145.549 53.2428 146.469 54.0719C147.439 53.3113 149.48 51.1169 151.203 53.7753C152.636 55.9735 149.644 57.9473 146.979 59.9743Z" fill="#BE202F"/>
<path opacity="0.5" d="M142.286 54.1709C142.328 54.1575 142.373 54.1551 142.416 54.1639C142.46 54.1726 142.5 54.1923 142.533 54.2211C142.567 54.2498 142.593 54.2867 142.608 54.3281C142.623 54.3695 142.627 54.4142 142.62 54.4577C142.614 54.5013 142.596 54.5424 142.568 54.5771C142.541 54.6118 142.505 54.639 142.465 54.656C142.424 54.673 142.38 54.6793 142.336 54.6742C142.292 54.6692 142.25 54.6531 142.214 54.6273C142.182 54.5981 142.157 54.5617 142.141 54.521C142.126 54.4804 142.12 54.4366 142.124 54.3933C142.129 54.35 142.144 54.3083 142.167 54.2717C142.191 54.235 142.222 54.2044 142.26 54.1824L142.286 54.1709Z" fill="white"/>
<path opacity="0.5" d="M143.271 57.1602C142.575 56.7077 143.271 55.118 142.4 54.9849C141.75 55.2473 142.415 56.5936 143.271 57.1602Z" fill="white"/>
<path d="M133.906 117.74C141.442 117.706 147.556 113.842 147.533 109.126C147.533 106.14 144.959 103.341 140.837 101.816C140.634 101.736 140.428 101.666 140.218 101.607C139.1 101.261 137.02 100.611 136.499 99.3975C136.195 98.6864 136.697 97.8763 137.347 97.4503C137.525 97.3399 137.709 97.2396 137.898 97.1499C137.492 97.255 137.095 97.3898 136.708 97.553L136.594 97.6025C135.781 97.9524 134.864 98.3631 134.598 99.8843C134.581 100.079 134.495 100.26 134.356 100.396C134.216 100.532 134.032 100.614 133.838 100.626C126.302 100.66 120.184 104.524 120.207 109.24C120.226 113.731 125.811 117.401 132.857 117.709C133.195 117.74 133.549 117.74 133.906 117.74Z" fill="#D1A53D"/>
<path d="M139.248 106.673H128.678C128.577 106.673 128.481 106.633 128.409 106.561C128.338 106.49 128.298 106.393 128.298 106.292C128.298 106.192 128.338 106.095 128.409 106.024C128.481 105.952 128.577 105.912 128.678 105.912H139.248C139.349 105.912 139.445 105.952 139.517 106.024C139.588 106.095 139.628 106.192 139.628 106.292C139.628 106.393 139.588 106.49 139.517 106.561C139.445 106.633 139.349 106.673 139.248 106.673Z" fill="white"/>
<path d="M140.754 108.993H126.975C126.874 108.993 126.777 108.953 126.706 108.882C126.635 108.81 126.595 108.714 126.595 108.613C126.595 108.512 126.635 108.415 126.706 108.344C126.777 108.272 126.874 108.232 126.975 108.232H140.754C140.855 108.232 140.951 108.272 141.023 108.344C141.094 108.415 141.134 108.512 141.134 108.613C141.134 108.714 141.094 108.81 141.023 108.882C140.951 108.953 140.855 108.993 140.754 108.993Z" fill="white"/>
<path d="M138.586 111.316H128.678C128.577 111.316 128.481 111.276 128.409 111.205C128.338 111.134 128.298 111.037 128.298 110.936C128.298 110.835 128.338 110.738 128.409 110.667C128.481 110.596 128.577 110.556 128.678 110.556H138.586C138.687 110.556 138.784 110.596 138.855 110.667C138.926 110.738 138.967 110.835 138.967 110.936C138.967 111.037 138.926 111.134 138.855 111.205C138.784 111.276 138.687 111.316 138.586 111.316Z" fill="white"/>
<path d="M133.83 68.0103L112.569 67.8848C112.422 67.8786 112.275 67.9017 112.137 67.9525C111.999 68.0034 111.872 68.081 111.764 68.181C111.656 68.281 111.568 68.4014 111.507 68.5353C111.445 68.6691 111.411 68.8138 111.406 68.961C111.4 69.0217 111.4 69.0829 111.406 69.1436L112.474 78.9213C112.52 79.2691 112.69 79.5887 112.951 79.8224C113.213 80.0562 113.549 80.1885 113.9 80.1954L129.842 80.2943C131.275 82.0015 133.256 83.1587 135.446 83.5687C135.446 83.5687 133.412 81.7014 132.933 80.3133H135.157C135.453 80.3197 135.739 80.211 135.956 80.0102C136.174 79.8095 136.304 79.5322 136.321 79.237C136.325 79.1762 136.325 79.1152 136.321 79.0545L135.279 69.2767C135.23 68.9268 135.056 68.6064 134.79 68.3738C134.524 68.1413 134.184 68.0123 133.83 68.0103Z" fill="#D1A53D"/>
<g opacity="0.5">
<g opacity="0.5">
<path opacity="0.5" d="M133.83 68.0103L112.569 67.8848C112.422 67.8786 112.275 67.9017 112.137 67.9525C111.999 68.0034 111.872 68.081 111.764 68.181C111.656 68.281 111.568 68.4014 111.507 68.5353C111.445 68.6691 111.411 68.8138 111.406 68.961C111.4 69.0217 111.4 69.0829 111.406 69.1436L112.474 78.9213C112.52 79.2691 112.69 79.5887 112.951 79.8225C113.213 80.0562 113.549 80.1885 113.9 80.1954L129.842 80.2943C131.275 82.0015 133.256 83.1587 135.446 83.5687C135.446 83.5687 133.412 81.7014 132.933 80.3133H135.157C135.453 80.3197 135.739 80.211 135.956 80.0102C136.174 79.8095 136.304 79.5322 136.321 79.237C136.325 79.1762 136.325 79.1153 136.321 79.0545L135.279 69.2767C135.23 68.9268 135.056 68.6064 134.79 68.3738C134.524 68.1413 134.184 68.0123 133.83 68.0103Z" fill="white"/>
</g>
</g>
<path d="M120.162 74.7646L119.87 76.4836H118.687L118.988 74.7304L117.927 71.6309H119.113L119.767 73.5628L121.105 71.6309H122.303L120.162 74.7646Z" fill="white"/>
<path d="M124.941 74.9318H122.569C122.611 75.3502 122.854 75.5441 123.303 75.5441C123.592 75.5451 123.87 75.4364 124.082 75.2399L124.554 76.0613C124.17 76.3874 123.68 76.5607 123.177 76.5481C122.948 76.5644 122.718 76.5314 122.503 76.4512C122.287 76.3711 122.092 76.2457 121.929 76.0835C121.766 75.9213 121.64 75.7262 121.559 75.5111C121.477 75.296 121.443 75.0661 121.459 74.8367C121.459 73.5893 122.253 72.669 123.417 72.669C123.633 72.6579 123.85 72.6933 124.052 72.7729C124.254 72.8525 124.436 72.9744 124.587 73.1304C124.738 73.2864 124.854 73.4728 124.927 73.6773C125 73.8817 125.028 74.0994 125.01 74.3157C125.008 74.5229 124.985 74.7293 124.941 74.9318ZM122.633 74.2397H123.964C123.974 74.1569 123.965 74.073 123.939 73.9939C123.913 73.9148 123.869 73.8425 123.812 73.7819C123.755 73.7214 123.685 73.6741 123.607 73.6435C123.53 73.6128 123.447 73.5995 123.363 73.6045C123.187 73.6092 123.018 73.6751 122.884 73.791C122.751 73.9069 122.663 74.0655 122.633 74.2397Z" fill="white"/>
<path d="M125.021 76.1791L125.435 75.2587C125.764 75.4838 126.154 75.6044 126.553 75.6048C126.933 75.6048 127.074 75.5021 127.074 75.3348C127.074 74.905 125.397 75.3006 125.397 74.0341C125.397 73.1328 126.157 72.6688 127.119 72.6688C127.548 72.6617 127.972 72.7637 128.351 72.9654L127.952 73.8858C127.667 73.6968 127.332 73.5986 126.99 73.6044C126.61 73.6044 126.469 73.7337 126.469 73.8858C126.469 74.3384 128.142 73.9352 128.142 75.1903C128.142 76.0916 127.382 76.548 126.423 76.548C125.93 76.5634 125.443 76.4352 125.021 76.1791Z" fill="white"/>
<path d="M128.386 75.8752C128.381 75.7781 128.396 75.681 128.429 75.5897C128.462 75.4983 128.513 75.4146 128.58 75.3436C128.646 75.2726 128.726 75.2157 128.815 75.1764C128.904 75.137 129 75.116 129.097 75.1146C129.183 75.113 129.269 75.129 129.349 75.1617C129.428 75.1944 129.5 75.243 129.561 75.3046C129.621 75.3663 129.668 75.4396 129.699 75.5201C129.729 75.6005 129.743 75.6864 129.74 75.7725C129.746 75.9693 129.676 76.1608 129.544 76.3069C129.412 76.453 129.229 76.5423 129.032 76.556C128.944 76.5572 128.857 76.5402 128.776 76.506C128.694 76.4717 128.621 76.4211 128.56 76.3571C128.5 76.2932 128.453 76.2173 128.423 76.1344C128.393 76.0515 128.38 75.9632 128.386 75.8752ZM129.109 71.6348H130.462L129.702 74.7191H128.823L129.109 71.6348Z" fill="white"/>
<path d="M96.0373 115.728C95.8966 115.88 96.3681 115.884 96.5506 115.96C98.0367 116.659 99.1871 117.916 99.752 119.459C100.368 121.007 99.406 124.498 99.406 124.498C100.866 122.931 102.01 122.049 103.071 121.691C107.706 120.128 112.105 123.368 114.42 126.437C114.258 125.97 114.155 125.485 114.113 124.992C114.139 118.854 118.116 117.492 118.116 117.492C118.116 117.492 113.607 113.454 115.949 102.862L121.105 98.2982L116.135 100.2C116.135 100.2 116.261 97.0888 117.911 94.8754C109.584 90.8289 114.687 82.6675 114.687 82.6675C106.322 89.1328 99.098 84.7097 97.8319 83.1733C99.0106 84.9227 99.7748 88.9464 99.7596 91.1256C99.7596 92.9853 99.4706 96.4499 96.2464 97.8495C95.7369 98.07 95.2503 98.3553 94.7256 98.534C96.4175 100.698 98.3756 104.718 98.5505 107.559C98.8205 111.735 97.6456 114.032 96.0373 115.728Z" fill="#D1A53D"/>
<path d="M111.998 106.543L110.405 111.217L108.603 110.867L107.797 108.049L106.949 110.548L105.147 110.198L103.554 104.9L105.284 105.239L106.151 108.24L107.071 105.577L108.614 105.878L109.485 108.92L110.405 106.228L111.998 106.543Z" fill="#B0872F"/>
<path d="M111.714 105.916L110.12 110.594L108.318 110.244L107.531 107.422L106.683 109.921L104.881 109.571L103.288 104.277L105.018 104.612L105.885 107.616L106.805 104.954L108.352 105.254L109.219 108.297L110.139 105.604L111.714 105.916Z" fill="white"/>
<path d="M107.185 113.454L109.108 113.834L108.789 116.85L107.504 116.599L107.185 113.454ZM107.47 118.314C107.303 118.137 107.21 117.903 107.207 117.66C107.201 117.553 107.222 117.447 107.268 117.351C107.314 117.254 107.383 117.171 107.47 117.108C107.569 117.045 107.68 117.002 107.797 116.984C107.913 116.965 108.032 116.972 108.147 117.002C108.408 117.049 108.647 117.183 108.823 117.382C108.991 117.559 109.085 117.793 109.086 118.036C109.09 118.143 109.068 118.25 109.023 118.346C108.977 118.443 108.909 118.527 108.823 118.592C108.725 118.658 108.614 118.703 108.498 118.724C108.381 118.744 108.261 118.739 108.147 118.709C107.883 118.658 107.644 118.518 107.47 118.314Z" fill="#B0872F"/>
<path d="M106.899 112.826L108.823 113.206L108.504 116.222L107.223 115.975L106.899 112.826ZM107.185 117.69C107.018 117.511 106.925 117.277 106.922 117.032C106.916 116.926 106.937 116.82 106.983 116.725C107.029 116.629 107.098 116.546 107.185 116.485C107.283 116.42 107.395 116.377 107.511 116.358C107.628 116.339 107.747 116.345 107.861 116.374C108.123 116.421 108.362 116.555 108.538 116.755C108.706 116.93 108.799 117.163 108.8 117.405C108.806 117.512 108.784 117.619 108.738 117.715C108.693 117.812 108.624 117.896 108.538 117.96C108.441 118.028 108.33 118.073 108.213 118.094C108.096 118.114 107.976 118.109 107.861 118.078C107.598 118.031 107.359 117.894 107.185 117.69Z" fill="white"/>
<path d="M107.618 90.9583C108.031 91.2145 108.375 91.5668 108.622 91.9851C108.857 92.3904 108.979 92.8514 108.975 93.32C108.992 93.7473 108.868 94.1683 108.622 94.518C108.373 94.8424 108.017 95.0687 107.618 95.1569C107.117 95.2663 106.598 95.2663 106.097 95.1569L105.185 94.9781V96.5336L103.048 96.1191V89.7793L106.09 90.3726C106.632 90.4692 107.15 90.668 107.618 90.9583ZM106.603 93.3998C106.678 93.3404 106.738 93.263 106.776 93.1746C106.814 93.0862 106.829 92.9898 106.82 92.894C106.826 92.6769 106.749 92.4656 106.603 92.3046C106.427 92.1302 106.198 92.0181 105.953 91.9851L105.192 91.833V93.3162L105.953 93.4683C106.06 93.5011 106.173 93.512 106.285 93.5002C106.396 93.4885 106.505 93.4543 106.603 93.3998Z" fill="#B0872F"/>
<path d="M107.257 90.1633C107.67 90.4195 108.014 90.7719 108.261 91.1902C108.495 91.596 108.616 92.0569 108.611 92.5251C108.629 92.952 108.506 93.3729 108.261 93.7231C108.012 94.0476 107.657 94.2738 107.257 94.362C106.756 94.4714 106.238 94.4714 105.737 94.362L104.82 94.1832V95.7387L102.68 95.3014V88.9844L105.721 89.5777C106.266 89.6747 106.787 89.8734 107.257 90.1633ZM106.242 92.6125C106.318 92.5531 106.377 92.4757 106.415 92.3873C106.453 92.2989 106.468 92.2025 106.459 92.1067C106.465 91.8897 106.387 91.6788 106.242 91.5173C106.065 91.3445 105.837 91.2326 105.592 91.1978L104.813 91.0457V92.5289L105.592 92.681C105.7 92.7138 105.812 92.7247 105.924 92.7129C106.036 92.7012 106.144 92.667 106.242 92.6125Z" fill="white"/>
<path d="M105.071 102.82C104.654 102.521 104.311 102.131 104.067 101.679C103.822 101.248 103.691 100.761 103.687 100.264C103.678 99.8116 103.811 99.3674 104.067 98.9942C104.31 98.6439 104.664 98.3854 105.071 98.2601C105.54 98.1168 106.038 98.0985 106.516 98.2069C107.036 98.3034 107.529 98.5123 107.961 98.8192C108.379 99.1171 108.722 99.5076 108.964 99.9601C109.21 100.391 109.341 100.879 109.344 101.375C109.354 101.828 109.221 102.272 108.964 102.645C108.723 102.997 108.369 103.256 107.961 103.379C107.492 103.522 106.994 103.541 106.516 103.436C105.996 103.337 105.503 103.127 105.071 102.82ZM107.082 102.029C107.252 101.959 107.394 101.835 107.485 101.675C107.59 101.482 107.641 101.264 107.634 101.044C107.636 100.806 107.586 100.571 107.485 100.356C107.39 100.157 107.253 99.9816 107.082 99.8422C106.917 99.7104 106.723 99.6204 106.516 99.5798C106.327 99.5383 106.129 99.5542 105.949 99.6255C105.78 99.6962 105.638 99.8204 105.546 99.9792C105.442 100.173 105.39 100.391 105.398 100.61C105.395 100.848 105.446 101.083 105.546 101.299C105.642 101.497 105.78 101.672 105.949 101.812C106.115 101.943 106.309 102.033 106.516 102.075C106.705 102.118 106.903 102.102 107.082 102.029Z" fill="#B0872F"/>
<path d="M108.672 99.3365C108.429 98.8846 108.086 98.4944 107.668 98.1956C107.237 97.8865 106.742 97.6762 106.22 97.5795C105.742 97.471 105.244 97.4894 104.775 97.6327C104.368 97.7579 104.014 98.0164 103.771 98.3667C103.515 98.74 103.382 99.1842 103.391 99.6369C103.395 100.133 103.526 100.62 103.771 101.052C104.015 101.503 104.358 101.894 104.775 102.193C105.207 102.499 105.7 102.709 106.22 102.809C106.699 102.913 107.198 102.895 107.668 102.755C108.076 102.628 108.429 102.368 108.672 102.018C108.928 101.644 109.06 101.2 109.052 100.747C109.046 100.253 108.915 99.7674 108.672 99.3365ZM107.189 101.052C107.098 101.212 106.956 101.338 106.786 101.409C106.606 101.479 106.409 101.494 106.22 101.451C106.013 101.41 105.819 101.32 105.653 101.189C105.491 101.047 105.361 100.872 105.273 100.675C105.169 100.461 105.117 100.225 105.121 99.9868C105.113 99.7664 105.166 99.5481 105.273 99.3555C105.358 99.1994 105.492 99.0753 105.653 99.0018C105.833 98.9306 106.031 98.9147 106.22 98.9562C106.428 98.9966 106.622 99.088 106.786 99.2224C106.959 99.3585 107.097 99.533 107.189 99.732C107.29 99.9475 107.34 100.183 107.338 100.42C107.35 100.639 107.302 100.857 107.201 101.052H107.189Z" fill="white"/>
</svg>
