<svg width="32" height="32" viewBox="0 0 32 32" fill="none" xmlns="http://www.w3.org/2000/svg">
<path d="M24.2955 18.7337V27.737C24.2955 28.1034 24.3478 28.4698 24.2955 28.8362C24.1908 29.3596 23.9814 29.4643 23.6673 29.4643C22.6204 29.5167 21.5212 29.4643 20.4742 29.4643H9.06305H4.823C4.03783 29.4643 3.51438 29.6214 3.46204 28.6268C3.40969 26.376 3.46204 24.1252 3.46204 21.822V10.0443C3.46204 7.89822 3.305 5.69988 3.46204 3.55362C3.51438 2.45438 4.09017 2.66376 4.92769 2.66376H9.21994H20.6311C21.6256 2.66376 22.6725 2.61141 23.7193 2.66376C24.0857 2.66376 24.295 2.82079 24.3474 3.29189C24.4521 3.92003 24.3474 4.7052 24.3474 5.33333V7.32243C24.3474 8.94511 26.8599 8.94511 26.8599 7.32243V5.12395C26.8599 4.33879 26.9123 3.39658 26.7552 2.61141C26.4412 1.19811 25.2896 0.0988731 23.8239 0.0465285H22.9864H12.3081C9.53387 0.0465285 6.7074 -0.0581607 3.933 0.0465285C1.94391 0.203562 0.949219 2.03562 0.949219 3.86782V7.11319V18.9431V28.1032V28.6267C1.00156 30.3541 2.1008 31.872 3.933 31.9767C4.71817 32.0291 5.55568 31.9767 6.34085 31.9767H18.066H22.6724H23.6669C24.8185 31.9244 25.813 31.3486 26.3365 30.197C26.9646 28.8361 26.7029 27.0563 26.7029 25.5907C26.8599 23.7063 26.8599 21.7694 26.8599 19.885V18.7858C26.8076 17.1107 24.295 17.1107 24.295 18.7334L24.2955 18.7337Z" fill="white"/>
<path d="M20.4745 7.89824C22.1495 7.89824 22.1495 5.28101 20.4745 5.28101H7.80709H5.97502C4.29999 5.28101 4.29999 7.89824 5.97502 7.89824H18.6424H20.4745Z" fill="white"/>
<path d="M5.92229 26.7422H18.5897H20.4218C22.0968 26.7422 22.0968 24.125 20.4218 24.125H7.75435H5.92229C4.24726 24.125 4.24726 26.7422 5.92229 26.7422Z" fill="white"/>
<path d="M13.3557 11.0388H6.86498H5.92278C5.2423 11.0388 4.56182 11.6146 4.61417 12.3474C4.66651 13.0803 5.18996 13.6561 5.92278 13.6561H12.4135H13.3557C14.0362 13.6561 14.7167 13.0803 14.6643 12.3474C14.612 11.6146 14.0885 11.0388 13.3557 11.0388Z" fill="white"/>
<path d="M5.92278 19.9375H12.4135H13.3557C14.0362 19.9375 14.7167 19.3618 14.6643 18.6289C14.612 17.8961 14.0885 17.3203 13.3557 17.3203H6.86498H5.92278C5.2423 17.3203 4.56182 17.8961 4.61417 18.6289C4.66651 19.3618 5.18996 19.9375 5.92278 19.9375Z" fill="white"/>
<path d="M30.7337 10.5154L30.2103 9.62559C29.5821 8.63104 28.2212 8.31698 27.2265 8.94511L19.427 13.9702C19.1653 14.1272 18.9559 14.3889 18.7988 14.5983C18.7465 14.6507 18.6942 14.703 18.6942 14.8077L17.5949 16.9015C17.3332 17.3726 17.3855 17.896 17.6473 18.3148C17.9613 18.7335 18.4324 18.9952 18.9035 18.9429L21.2067 18.8382C21.3114 18.8382 21.4161 18.8382 21.5208 18.7859C21.6255 18.7335 21.8348 18.6812 21.9395 18.5765C22.0442 18.5241 22.2012 18.4718 22.3059 18.3671L30.1054 13.3945C30.5765 13.0805 30.8906 12.6094 31.0476 12.0336C31.1 11.5625 30.9953 10.9867 30.7336 10.5156L30.7337 10.5154ZM29.2157 11.7717C29.1634 11.8241 29.1634 11.9287 29.0587 11.9811L22.1492 16.378L21.207 14.9124L28.1165 10.5154C28.1688 10.5154 28.2212 10.5154 28.2212 10.4631C28.3782 10.4108 28.5352 10.4631 28.6399 10.6201L29.1634 11.51C29.268 11.5623 29.268 11.667 29.2157 11.7717Z" fill="white"/>
</svg>
