<svg width="32" height="32" viewBox="0 0 32 32" fill="none" xmlns="http://www.w3.org/2000/svg">
<path d="M16 0C11.7565 0 7.6868 1.68568 4.68615 4.68615C1.68568 7.6868 0 11.7565 0 16C0 20.2435 1.68568 24.3132 4.68615 27.3139C7.6868 30.3143 11.7565 32 16 32C20.2435 32 24.3132 30.3143 27.3139 27.3139C30.3143 24.3132 32 20.2435 32 16C32 13.1915 31.2607 10.4324 29.8565 8.00009C28.4522 5.56775 26.4324 3.548 24.0001 2.14373C21.5678 0.739466 18.8087 0.000182871 16.0002 0.000182871L16 0ZM16 29.8663C12.3224 29.8663 8.79551 28.4054 6.1947 25.8049C3.59426 23.2045 2.13331 19.6775 2.13331 15.9996C2.13331 12.3218 3.59426 8.79515 6.1947 6.19434C8.79515 3.59389 12.3222 2.13294 16 2.13294C19.6778 2.13294 23.2045 3.59389 25.8053 6.19434C28.4057 8.79478 29.8667 12.3218 29.8667 15.9996C29.8667 19.6775 28.4057 23.2041 25.8053 25.8049C23.2049 28.4054 19.6778 29.8663 16 29.8663ZM16.7574 7.77561C16.5571 7.5737 16.2845 7.46013 16 7.46013C15.7155 7.46013 15.4429 7.5737 15.2426 7.77561L9.90934 13.1089C9.76149 13.2589 9.66101 13.4493 9.62125 13.6563C9.58149 13.8632 9.60363 14.0774 9.6853 14.2715C9.76529 14.4665 9.90125 14.6332 10.076 14.7508C10.2505 14.8684 10.4562 14.932 10.6667 14.9329H12.8V22.3995C12.8 22.6824 12.9124 22.9538 13.1124 23.1538C13.3124 23.3538 13.5838 23.4662 13.8667 23.4662H18.1333C18.4161 23.4662 18.6876 23.3538 18.8876 23.1538C19.0876 22.9538 19.2 22.6824 19.2 22.3995V14.9329H21.3333C21.5437 14.932 21.7494 14.8684 21.924 14.7508C22.0987 14.6332 22.2347 14.4665 22.3147 14.2715C22.3963 14.0775 22.4185 13.8632 22.3787 13.6563C22.339 13.4494 22.2385 13.2589 22.0906 13.1089L16.7574 7.77561ZM18.1333 12.7996C17.8505 12.7996 17.579 12.912 17.379 13.112C17.179 13.312 17.0667 13.5834 17.0667 13.8663V21.3328H14.9333V13.8663C14.9333 13.5834 14.821 13.312 14.621 13.112C14.421 12.912 14.1495 12.7996 13.8667 12.7996H13.2374L16 10.037L18.7626 12.7996H18.1333Z" fill="white"/>
</svg>
