<svg width="330" height="270" viewBox="0 0 330 270" fill="none" xmlns="http://www.w3.org/2000/svg">
<path d="M270 136.516C270 207.51 217.8 203.36 135 265.063C68.4 291.343 0 207.51 0 136.516C0 65.521 52.2 49.6749 135 7.96851C215.4 -28.0246 270 65.521 270 136.516Z" fill="#F8F9F9"/>
<g clip-path="url(#clip0_1623_27508)">
<path d="M80 254.701L111.251 254.559L142.497 254.506L204.999 254.405L267.501 254.506L298.747 254.559L329.998 254.701L298.747 254.85L267.501 254.897L204.999 254.998L142.497 254.897L111.251 254.844L80 254.701Z" fill="#263238"/>
<path d="M303.539 35.1067H106.902V172.501H303.539V35.1067Z" fill="#D1A53D" fill-opacity="0.3"/>
<path d="M303.539 35H106.902V40.418H303.539V35Z" fill="#8B672A"/>
<path d="M110.418 38.8885C111.069 38.8885 111.598 38.3604 111.598 37.7089C111.598 37.0574 111.069 36.5293 110.418 36.5293C109.766 36.5293 109.238 37.0574 109.238 37.7089C109.238 38.3604 109.766 38.8885 110.418 38.8885Z" fill="white"/>
<path d="M115.227 38.8886C115.878 38.8886 116.406 38.3604 116.406 37.7089C116.406 37.0574 115.878 36.5293 115.227 36.5293C114.575 36.5293 114.047 37.0574 114.047 37.7089C114.047 38.3604 114.575 38.8886 115.227 38.8886Z" fill="white"/>
<path d="M120.039 38.8886C120.69 38.8886 121.219 38.3604 121.219 37.7089C121.219 37.0574 120.69 36.5293 120.039 36.5293C119.388 36.5293 118.859 37.0574 118.859 37.7089C118.859 38.3604 119.388 38.8886 120.039 38.8886Z" fill="white"/>
<path d="M286.105 53.8384H124.336V160.218H286.105V53.8384Z" fill="white"/>
<path d="M280.551 64.9826V148.985C277.516 148.985 275.056 151.439 275.056 154.474V154.563H135.386V154.474C135.386 151.439 132.926 148.985 129.891 148.985V64.9826C132.926 64.9826 135.386 62.5226 135.386 59.4875H275.056C275.056 62.5226 277.516 64.9826 280.551 64.9826Z" stroke="#D1A53D" stroke-width="0.5" stroke-miterlimit="10"/>
<path d="M183.77 89.3396C187.344 89.2862 190.918 89.2448 194.493 89.227L205.216 89.1914L215.94 89.227C219.514 89.2448 223.089 89.2862 226.663 89.3396C223.089 89.3929 219.514 89.4344 215.94 89.4522L205.216 89.4878L194.493 89.4522C190.924 89.4344 187.35 89.3989 183.77 89.3396Z" fill="#BE202F"/>
<path d="M171.848 92.6829L180.188 92.6058L188.534 92.5821L205.221 92.5347L221.908 92.5821L230.254 92.6058L238.6 92.6829L230.254 92.754L221.908 92.7777L205.221 92.831L188.534 92.7777L180.188 92.754L171.848 92.6829Z" fill="#BE202F"/>
<path d="M220.039 133.81C223.667 133.757 227.289 133.715 230.917 133.697L241.794 133.662L252.671 133.697C256.299 133.715 259.921 133.757 263.549 133.81C259.921 133.863 256.299 133.905 252.671 133.923L241.794 133.958L230.917 133.923C227.289 133.905 223.667 133.863 220.039 133.81Z" fill="#BE202F"/>
<path d="M146.891 133.81C150.518 133.757 154.14 133.715 157.768 133.697L168.646 133.662L179.523 133.697C183.151 133.715 186.773 133.757 190.401 133.81C186.773 133.863 183.151 133.905 179.523 133.923L168.646 133.958L157.768 133.923C154.14 133.905 150.518 133.863 146.891 133.81Z" fill="#BE202F"/>
<path d="M245.122 109.168L235.145 109.239L225.169 109.263L205.222 109.316L185.275 109.263L175.299 109.239L165.328 109.168L175.299 109.091L185.275 109.067L205.222 109.02L225.169 109.067L235.145 109.091L245.122 109.168Z" fill="#BE202F"/>
<path d="M255.644 105.831L243.042 105.902L230.433 105.926L205.222 105.973L180.012 105.926L167.409 105.902L154.801 105.831L167.409 105.754L180.012 105.73L205.222 105.683L230.433 105.73L243.042 105.754L255.644 105.831Z" fill="#BE202F"/>
<path d="M252.465 112.505L240.657 112.577L228.843 112.6L205.221 112.654L181.599 112.6L169.791 112.577L157.977 112.505L169.791 112.428L181.599 112.405L205.221 112.357L228.843 112.405L240.657 112.428L252.465 112.505Z" fill="#BE202F"/>
<path d="M232.057 115.843L225.347 115.914L218.642 115.938L205.222 115.991L191.807 115.938L185.097 115.914L178.387 115.843L185.097 115.766L191.807 115.742L205.222 115.695L218.642 115.742L225.347 115.772L232.057 115.843Z" fill="#BE202F"/>
<path d="M227.848 131.593C228.577 131.089 229.33 130.615 230.1 130.176C230.877 129.744 231.659 129.311 232.537 129.08C232.643 129.044 232.762 129.038 232.874 129.014C232.969 128.979 233.171 129.014 233.248 129.139C233.396 129.364 233.39 129.601 233.402 129.827C233.402 130.283 233.337 130.722 233.266 131.166C233.112 132.044 232.892 132.909 232.655 133.763C232.163 135.47 231.606 137.159 230.889 138.795C230.705 139.204 230.515 139.607 230.254 139.993C230.183 140.088 230.118 140.182 230.017 140.271C229.97 140.313 229.905 140.366 229.786 140.372C229.727 140.378 229.656 140.342 229.626 140.313L229.549 140.23C229.389 139.993 229.377 139.75 229.359 139.518C229.347 138.594 229.579 137.722 229.828 136.869C230.088 136.015 230.42 135.185 230.829 134.385C231.244 133.597 231.713 132.814 232.394 132.204C232.744 131.913 233.159 131.682 233.621 131.617C233.852 131.587 234.09 131.593 234.315 131.676C234.564 131.771 234.682 131.996 234.801 132.18C234.919 132.37 235.026 132.559 235.168 132.713C235.311 132.867 235.506 132.945 235.708 132.891C236.111 132.784 236.473 132.494 236.822 132.239C237 132.109 237.172 131.966 237.356 131.842C237.451 131.777 237.54 131.717 237.646 131.664C237.741 131.623 237.883 131.546 238.014 131.646C238.186 131.866 238.144 132.097 238.227 132.292C238.281 132.5 238.488 132.624 238.684 132.583C239.057 132.405 239.353 132.038 239.662 131.729C239.964 131.403 240.254 131.071 240.545 130.739C241.126 130.07 241.695 129.388 242.288 128.73C242.584 128.398 242.886 128.072 243.207 127.764C243.367 127.61 243.533 127.455 243.716 127.325C243.811 127.26 243.906 127.195 244.019 127.147C244.078 127.123 244.131 127.1 244.214 127.106C244.291 127.106 244.38 127.153 244.422 127.218C244.564 127.467 244.522 127.698 244.511 127.924C244.487 128.149 244.451 128.374 244.404 128.594C244.309 129.032 244.185 129.459 244.048 129.886C243.764 130.733 243.444 131.563 242.987 132.346C242.869 132.541 242.744 132.731 242.566 132.903C242.483 132.98 242.347 133.087 242.175 133.063C242.051 133.051 241.932 133.016 241.819 132.962C241.381 132.749 241.049 132.37 240.924 131.878C240.901 131.753 240.895 131.605 240.978 131.463C241.019 131.391 241.078 131.332 241.15 131.297C241.227 131.255 241.316 131.243 241.375 131.249C241.636 131.261 241.843 131.344 242.062 131.415C242.489 131.563 242.898 131.747 243.301 131.925C243.71 132.103 244.113 132.281 244.517 132.447C244.718 132.53 244.926 132.607 245.127 132.666C245.228 132.696 245.329 132.719 245.424 132.731C245.507 132.737 245.584 132.725 245.667 132.678C245.999 132.512 246.224 132.097 246.556 131.771C246.722 131.611 246.947 131.439 247.237 131.427C247.309 131.427 247.409 131.421 247.51 131.516C247.599 131.611 247.605 131.717 247.605 131.789C247.599 131.937 247.563 132.038 247.54 132.15C247.48 132.352 247.451 132.601 247.51 132.613C247.575 132.672 247.83 132.63 248.02 132.583C248.423 132.482 248.785 132.251 249.14 131.996C249.318 131.872 249.502 131.735 249.703 131.617C249.911 131.51 250.148 131.386 250.444 131.439C250.978 131.587 251.256 131.966 251.582 132.263C251.737 132.417 251.897 132.571 252.057 132.672C252.134 132.719 252.211 132.737 252.229 132.719C252.306 132.684 252.401 132.624 252.484 132.565C252.833 132.316 253.165 132.02 253.485 131.723C254.12 131.119 254.724 130.473 255.198 129.749C255.424 129.388 255.637 128.985 255.625 128.599C255.625 128.202 255.216 128.019 254.789 127.953C253.942 127.793 253.047 127.835 252.187 127.989C251.76 128.066 251.334 128.179 250.93 128.345C250.735 128.428 250.533 128.522 250.367 128.647C250.201 128.765 250.059 128.937 250.106 129.097C250.154 129.257 250.344 129.388 250.527 129.483C250.717 129.578 250.93 129.649 251.132 129.726C251.547 129.868 251.968 129.998 252.401 130.099C254.12 130.508 255.91 130.514 257.676 130.603V130.633C255.91 130.579 254.12 130.639 252.365 130.247C251.926 130.153 251.499 130.028 251.079 129.886C250.871 129.809 250.658 129.744 250.45 129.643C250.255 129.536 250.018 129.417 249.929 129.145C249.852 128.842 250.083 128.623 250.255 128.493C250.444 128.35 250.646 128.244 250.853 128.155C251.274 127.977 251.707 127.858 252.146 127.77C253.029 127.598 253.936 127.544 254.837 127.698C255.056 127.74 255.293 127.787 255.513 127.924C255.732 128.054 255.892 128.321 255.898 128.582C255.91 129.097 255.667 129.512 255.441 129.904C254.955 130.674 254.339 131.332 253.693 131.949C253.367 132.257 253.029 132.553 252.661 132.82C252.566 132.885 252.478 132.95 252.347 133.01C252.157 133.087 251.997 133.004 251.891 132.945C251.671 132.808 251.517 132.642 251.357 132.488C251.049 132.186 250.723 131.836 250.379 131.753C250.053 131.706 249.674 132.008 249.324 132.257C248.962 132.518 248.559 132.779 248.097 132.897C247.866 132.933 247.641 133.051 247.314 132.867C247.149 132.737 247.148 132.536 247.16 132.423C247.172 132.292 247.202 132.18 247.231 132.073C247.255 131.966 247.285 131.86 247.291 131.783C247.291 131.741 247.279 131.729 247.291 131.741C247.309 131.753 247.291 131.741 247.255 131.741C247.095 131.747 246.929 131.854 246.781 131.996C246.479 132.275 246.271 132.707 245.803 132.956C245.69 133.016 245.542 133.045 245.406 133.033C245.275 133.022 245.163 132.992 245.05 132.956C244.831 132.891 244.617 132.808 244.41 132.725C243.995 132.553 243.592 132.37 243.189 132.192C242.786 132.014 242.377 131.83 241.968 131.688C241.766 131.617 241.553 131.546 241.369 131.54C241.227 131.522 241.15 131.652 241.185 131.848C241.262 132.221 241.565 132.583 241.92 132.755C242.009 132.796 242.104 132.826 242.199 132.838C242.258 132.856 242.323 132.814 242.4 132.749C242.543 132.613 242.673 132.435 242.786 132.251C243.23 131.504 243.568 130.68 243.853 129.85C243.995 129.435 244.119 129.008 244.22 128.582C244.268 128.368 244.309 128.155 244.333 127.936C244.351 127.728 244.368 127.485 244.279 127.343C244.214 127.224 243.965 127.372 243.805 127.491C243.633 127.615 243.467 127.764 243.307 127.912C242.987 128.214 242.685 128.534 242.388 128.86C241.79 129.512 241.215 130.188 240.628 130.852C240.332 131.184 240.041 131.516 239.733 131.842C239.413 132.15 239.14 132.506 238.707 132.713C238.452 132.773 238.198 132.595 238.138 132.364C238.055 132.156 238.061 131.895 237.943 131.759C237.889 131.706 237.777 131.747 237.688 131.795C237.593 131.842 237.504 131.907 237.415 131.966C237.237 132.097 237.065 132.233 236.888 132.37C236.532 132.63 236.188 132.933 235.732 133.057C235.494 133.128 235.222 133.022 235.068 132.85C234.908 132.678 234.789 132.482 234.671 132.298C234.552 132.115 234.433 131.919 234.256 131.866C234.066 131.8 233.847 131.789 233.639 131.824C233.218 131.889 232.827 132.103 232.501 132.381C231.861 132.962 231.404 133.739 231.007 134.521C230.616 135.31 230.296 136.134 230.047 136.975C229.81 137.817 229.596 138.689 229.614 139.548C229.626 139.756 229.662 139.975 229.756 140.105L229.792 140.141C229.804 140.147 229.78 140.141 229.78 140.141C229.774 140.141 229.81 140.135 229.839 140.099C229.905 140.04 229.97 139.957 230.029 139.874C230.26 139.518 230.462 139.121 230.646 138.724C231.369 137.118 231.95 135.44 232.454 133.745C232.703 132.897 232.928 132.038 233.088 131.172C233.165 130.739 233.23 130.301 233.236 129.868C233.236 129.661 233.218 129.423 233.123 129.275C233.064 129.21 233.017 129.186 232.898 129.216C232.791 129.234 232.685 129.24 232.578 129.275C231.736 129.495 230.936 129.904 230.154 130.313C229.377 130.733 228.612 131.184 227.871 131.67L227.848 131.593Z" fill="#BE202F"/>
<path d="M179.422 131.593C178.693 131.089 177.941 130.615 177.17 130.176C176.393 129.744 175.611 129.311 174.734 129.08C174.627 129.044 174.508 129.038 174.396 129.014C174.301 128.979 174.099 129.014 174.022 129.139C173.874 129.364 173.88 129.601 173.868 129.827C173.868 130.283 173.933 130.722 174.004 131.166C174.159 132.044 174.378 132.909 174.615 133.763C175.107 135.47 175.664 137.159 176.382 138.795C176.565 139.204 176.755 139.607 177.016 139.993C177.087 140.088 177.152 140.182 177.253 140.271C177.3 140.313 177.366 140.366 177.484 140.372C177.543 140.378 177.614 140.342 177.644 140.313L177.721 140.23C177.881 139.993 177.893 139.75 177.911 139.518C177.923 138.594 177.692 137.722 177.443 136.869C177.182 136.015 176.85 135.185 176.441 134.385C176.026 133.597 175.558 132.814 174.876 132.204C174.526 131.913 174.111 131.682 173.649 131.617C173.418 131.587 173.181 131.593 172.955 131.676C172.706 131.771 172.588 131.996 172.469 132.18C172.351 132.37 172.244 132.559 172.102 132.713C171.959 132.867 171.764 132.945 171.562 132.891C171.159 132.784 170.798 132.494 170.448 132.239C170.27 132.109 170.098 131.966 169.914 131.842C169.819 131.777 169.731 131.717 169.624 131.664C169.529 131.623 169.387 131.546 169.256 131.646C169.084 131.866 169.126 132.097 169.043 132.292C168.99 132.5 168.782 132.624 168.586 132.583C168.213 132.405 167.917 132.038 167.608 131.729C167.306 131.403 167.016 131.071 166.725 130.739C166.144 130.07 165.575 129.388 164.982 128.73C164.686 128.398 164.384 128.072 164.064 127.764C163.904 127.61 163.738 127.455 163.554 127.325C163.459 127.26 163.364 127.195 163.251 127.147C163.192 127.123 163.133 127.1 163.056 127.106C162.979 127.106 162.89 127.153 162.848 127.218C162.706 127.467 162.748 127.698 162.759 127.924C162.783 128.149 162.819 128.374 162.866 128.594C162.961 129.032 163.086 129.459 163.222 129.886C163.506 130.733 163.826 131.563 164.283 132.346C164.401 132.541 164.526 132.731 164.704 132.903C164.787 132.98 164.923 133.087 165.095 133.063C165.22 133.051 165.338 133.016 165.451 132.962C165.889 132.749 166.221 132.37 166.346 131.878C166.369 131.753 166.375 131.605 166.292 131.463C166.251 131.391 166.192 131.332 166.121 131.297C166.043 131.255 165.955 131.243 165.889 131.249C165.629 131.261 165.421 131.344 165.202 131.415C164.775 131.563 164.366 131.747 163.963 131.925C163.554 132.103 163.151 132.281 162.742 132.447C162.54 132.53 162.333 132.607 162.131 132.666C162.03 132.696 161.93 132.719 161.835 132.731C161.752 132.737 161.675 132.725 161.592 132.678C161.26 132.512 161.035 132.097 160.703 131.771C160.531 131.611 160.311 131.439 160.021 131.427C159.95 131.427 159.849 131.421 159.748 131.516C159.659 131.611 159.653 131.717 159.653 131.789C159.659 131.937 159.695 132.038 159.719 132.15C159.778 132.352 159.807 132.601 159.748 132.613C159.683 132.672 159.428 132.63 159.238 132.583C158.835 132.482 158.474 132.251 158.118 131.996C157.94 131.872 157.756 131.735 157.555 131.617C157.347 131.51 157.116 131.386 156.814 131.439C156.28 131.587 156.002 131.966 155.676 132.263C155.522 132.417 155.362 132.571 155.202 132.672C155.125 132.719 155.047 132.737 155.03 132.719C154.953 132.684 154.858 132.624 154.775 132.565C154.425 132.316 154.093 132.02 153.773 131.723C153.139 131.119 152.534 130.473 152.06 129.749C151.835 129.388 151.621 128.985 151.633 128.599C151.633 128.202 152.042 128.019 152.469 127.953C153.317 127.793 154.212 127.835 155.071 127.989C155.498 128.066 155.925 128.179 156.328 128.345C156.529 128.428 156.725 128.522 156.891 128.647C157.057 128.765 157.199 128.937 157.152 129.097C157.104 129.257 156.915 129.388 156.731 129.483C156.541 129.578 156.328 129.649 156.126 129.726C155.711 129.868 155.29 129.998 154.858 130.099C153.139 130.508 151.349 130.514 149.582 130.603V130.633C151.349 130.579 153.139 130.639 154.893 130.247C155.332 130.153 155.759 130.028 156.18 129.886C156.387 129.809 156.601 129.744 156.808 129.643C157.004 129.536 157.241 129.417 157.33 129.145C157.407 128.842 157.176 128.623 157.004 128.493C156.814 128.35 156.612 128.244 156.405 128.155C155.99 127.977 155.551 127.858 155.113 127.77C154.229 127.598 153.322 127.544 152.421 127.698C152.202 127.74 151.965 127.787 151.746 127.924C151.526 128.054 151.366 128.321 151.36 128.582C151.349 129.097 151.592 129.512 151.817 129.904C152.303 130.674 152.919 131.332 153.565 131.949C153.892 132.257 154.229 132.553 154.597 132.82C154.692 132.885 154.781 132.95 154.911 133.01C155.101 133.087 155.261 133.004 155.368 132.945C155.587 132.808 155.741 132.642 155.901 132.488C156.209 132.186 156.535 131.836 156.879 131.753C157.205 131.706 157.585 132.008 157.934 132.257C158.296 132.518 158.699 132.779 159.161 132.897C159.393 132.933 159.618 133.051 159.95 132.867C160.116 132.737 160.116 132.536 160.104 132.423C160.092 132.292 160.062 132.18 160.033 132.073C160.009 131.966 159.979 131.86 159.973 131.783C159.973 131.741 159.985 131.729 159.973 131.741C159.956 131.753 159.973 131.741 160.009 131.741C160.169 131.747 160.335 131.854 160.483 131.996C160.786 132.275 160.993 132.707 161.461 132.956C161.574 133.016 161.722 133.045 161.858 133.033C161.989 133.022 162.102 132.992 162.214 132.956C162.433 132.891 162.647 132.808 162.854 132.725C163.269 132.553 163.672 132.37 164.075 132.192C164.479 132.014 164.882 131.83 165.291 131.688C165.492 131.617 165.712 131.546 165.889 131.54C166.032 131.522 166.109 131.652 166.073 131.848C165.996 132.221 165.694 132.583 165.338 132.755C165.249 132.796 165.154 132.826 165.059 132.838C165 132.856 164.935 132.814 164.858 132.749C164.716 132.613 164.585 132.435 164.473 132.251C164.022 131.504 163.69 130.68 163.406 129.85C163.263 129.435 163.139 129.008 163.038 128.582C162.991 128.368 162.949 128.155 162.925 127.936C162.908 127.728 162.89 127.485 162.979 127.343C163.038 127.224 163.293 127.372 163.453 127.491C163.625 127.615 163.791 127.764 163.951 127.912C164.271 128.214 164.573 128.534 164.87 128.86C165.468 129.512 166.043 130.188 166.63 130.852C166.927 131.184 167.217 131.516 167.525 131.842C167.846 132.15 168.118 132.506 168.551 132.713C168.806 132.773 169.055 132.595 169.12 132.364C169.203 132.156 169.197 131.895 169.316 131.759C169.369 131.706 169.482 131.747 169.57 131.795C169.665 131.842 169.754 131.907 169.843 131.966C170.021 132.097 170.193 132.233 170.371 132.37C170.726 132.63 171.07 132.933 171.527 133.057C171.764 133.128 172.036 133.022 172.191 132.85C172.351 132.678 172.469 132.482 172.588 132.298C172.706 132.115 172.825 131.919 173.003 131.866C173.192 131.8 173.412 131.789 173.619 131.824C174.04 131.889 174.431 132.103 174.757 132.381C175.397 132.962 175.854 133.739 176.251 134.521C176.642 135.31 176.962 136.134 177.211 136.975C177.449 137.817 177.662 138.689 177.644 139.548C177.632 139.756 177.597 139.975 177.502 140.105L177.466 140.141C177.454 140.147 177.478 140.141 177.478 140.141C177.484 140.141 177.449 140.135 177.419 140.099C177.354 140.04 177.288 139.957 177.229 139.874C176.998 139.518 176.796 139.121 176.613 138.724C175.89 137.118 175.309 135.44 174.805 133.745C174.556 132.897 174.331 132.038 174.17 131.172C174.093 130.739 174.022 130.301 174.022 129.868C174.022 129.661 174.04 129.423 174.135 129.275C174.194 129.21 174.242 129.186 174.36 129.216C174.467 129.234 174.574 129.24 174.674 129.275C175.516 129.495 176.316 129.904 177.099 130.313C177.875 130.733 178.64 131.184 179.381 131.67L179.422 131.593Z" fill="#BE202F"/>
<path d="M205.517 122.18C205.683 122.589 206.241 122.648 206.484 122.28C206.762 121.865 207.397 122.002 207.485 122.494C207.563 122.932 208.096 123.104 208.41 122.796C208.766 122.452 209.365 122.713 209.347 123.211C209.329 123.656 209.815 123.934 210.189 123.697C210.609 123.43 211.137 123.816 211.018 124.296C210.912 124.723 211.327 125.102 211.742 124.948C212.21 124.776 212.649 125.262 212.429 125.707C212.234 126.104 212.566 126.56 213.004 126.495C213.496 126.424 213.822 126.987 213.514 127.378C213.241 127.728 213.467 128.238 213.911 128.267C214.409 128.303 214.611 128.919 214.225 129.24C213.887 129.524 214 130.069 214.427 130.194C214.907 130.33 214.972 130.976 214.534 131.213C214.142 131.421 214.142 131.984 214.534 132.186C214.972 132.417 214.907 133.069 214.427 133.205C214 133.324 213.882 133.875 214.225 134.16C214.605 134.48 214.403 135.102 213.911 135.132C213.467 135.161 213.241 135.671 213.514 136.021C213.822 136.412 213.496 136.975 213.004 136.904C212.566 136.839 212.234 137.295 212.429 137.693C212.649 138.137 212.21 138.623 211.742 138.451C211.327 138.297 210.912 138.677 211.018 139.103C211.143 139.583 210.609 139.969 210.189 139.702C209.815 139.465 209.329 139.744 209.347 140.188C209.365 140.686 208.772 140.953 208.41 140.603C208.09 140.295 207.557 140.467 207.485 140.905C207.402 141.397 206.762 141.534 206.484 141.119C206.235 140.751 205.677 140.811 205.517 141.22C205.334 141.682 204.682 141.682 204.492 141.22C204.326 140.811 203.769 140.751 203.526 141.119C203.247 141.534 202.613 141.397 202.524 140.905C202.447 140.467 201.913 140.295 201.599 140.603C201.244 140.947 200.645 140.686 200.663 140.188C200.68 139.744 200.194 139.465 199.821 139.702C199.4 139.969 198.872 139.583 198.991 139.103C199.098 138.677 198.683 138.297 198.268 138.451C197.799 138.623 197.367 138.137 197.586 137.693C197.782 137.295 197.45 136.839 197.011 136.904C196.519 136.975 196.193 136.412 196.501 136.021C196.774 135.671 196.549 135.161 196.104 135.132C195.606 135.096 195.405 134.48 195.79 134.16C196.128 133.875 196.015 133.33 195.588 133.205C195.108 133.069 195.043 132.423 195.482 132.186C195.873 131.978 195.873 131.415 195.482 131.213C195.043 130.982 195.108 130.33 195.588 130.194C196.015 130.075 196.134 129.524 195.79 129.24C195.411 128.919 195.612 128.297 196.104 128.267C196.549 128.238 196.774 127.728 196.501 127.378C196.193 126.987 196.519 126.424 197.011 126.495C197.45 126.56 197.782 126.104 197.586 125.707C197.367 125.262 197.805 124.776 198.268 124.948C198.683 125.102 199.098 124.723 198.991 124.296C198.866 123.816 199.4 123.43 199.821 123.697C200.194 123.934 200.68 123.65 200.663 123.211C200.645 122.713 201.244 122.446 201.599 122.796C201.919 123.104 202.453 122.932 202.524 122.494C202.607 122.002 203.247 121.865 203.526 122.28C203.775 122.648 204.332 122.589 204.492 122.18C204.682 121.717 205.334 121.717 205.517 122.18Z" fill="#D1A53D"/>
<path d="M205.009 140.241C209.723 140.241 213.545 136.42 213.545 131.705C213.545 126.991 209.723 123.169 205.009 123.169C200.294 123.169 196.473 126.991 196.473 131.705C196.473 136.42 200.294 140.241 205.009 140.241Z" fill="white"/>
<path d="M205.006 139.548C209.338 139.548 212.849 136.037 212.849 131.705C212.849 127.374 209.338 123.863 205.006 123.863C200.675 123.863 197.164 127.374 197.164 131.705C197.164 136.037 200.675 139.548 205.006 139.548Z" stroke="#D1A53D" stroke-width="0.5" stroke-miterlimit="10"/>
<path d="M217.963 129.251H192.047V134.159H217.963V129.251Z" fill="white"/>
<path d="M195.457 131.753C195.463 130.982 196.109 130.354 196.886 130.354C197.229 130.354 197.538 130.466 197.787 130.656C197.881 130.733 197.893 130.869 197.828 130.964C197.751 131.059 197.609 131.077 197.52 131.006C197.348 130.864 197.135 130.792 196.892 130.792C196.625 130.792 196.376 130.899 196.192 131.071C196.014 131.249 195.908 131.486 195.908 131.747C195.908 132.014 196.014 132.251 196.192 132.423C196.376 132.594 196.625 132.701 196.892 132.701C197.135 132.701 197.342 132.63 197.52 132.488C197.609 132.423 197.751 132.434 197.828 132.529C197.899 132.624 197.881 132.766 197.787 132.837C197.544 133.027 197.229 133.14 196.886 133.14C196.109 133.152 195.463 132.529 195.457 131.753Z" fill="#D1A53D"/>
<path d="M198.582 132.938V130.644C198.582 130.526 198.677 130.431 198.795 130.431H198.801C198.801 130.431 198.801 130.431 198.807 130.431H200.07C200.183 130.431 200.283 130.526 200.283 130.644C200.283 130.763 200.183 130.863 200.07 130.863H199.015V131.575H199.922C200.04 131.575 200.135 131.675 200.135 131.788C200.135 131.907 200.04 132.007 199.922 132.007H199.015V132.725H200.07C200.183 132.725 200.283 132.82 200.283 132.944C200.283 133.063 200.183 133.157 200.07 133.157H198.807C198.801 133.157 198.801 133.152 198.801 133.152L198.795 133.157C198.677 133.152 198.582 133.057 198.582 132.938Z" fill="#D1A53D"/>
<path d="M202.768 132.831C202.809 132.944 202.744 133.063 202.631 133.104C202.613 133.11 202.584 133.116 202.548 133.116C202.548 133.116 202.548 133.116 202.542 133.116C202.501 133.116 202.447 133.11 202.388 133.074C202.335 133.045 202.293 132.991 202.264 132.938C202.21 132.825 202.181 132.683 202.181 132.47C202.175 132.399 202.163 132.345 202.133 132.304C202.11 132.262 202.062 132.221 202.015 132.191C201.932 132.138 201.831 132.108 201.795 132.096H201.339V132.938C201.339 133.057 201.244 133.151 201.12 133.151C201.001 133.151 200.906 133.057 200.906 132.938V130.644C200.906 130.526 201.001 130.431 201.12 130.431C201.12 130.431 201.12 130.431 201.126 130.431H201.819C202.281 130.431 202.649 130.804 202.649 131.266C202.649 131.521 202.53 131.747 202.347 131.907C202.4 131.948 202.442 131.99 202.483 132.049C202.56 132.162 202.613 132.304 202.613 132.47C202.608 132.588 202.619 132.659 202.631 132.701C202.696 132.719 202.744 132.766 202.768 132.831ZM202.228 131.266C202.228 131.041 202.05 130.863 201.825 130.863H201.345V131.664H201.825C202.044 131.664 202.228 131.486 202.228 131.266Z" fill="#D1A53D"/>
<path d="M204.99 130.863H204.374V132.938C204.374 133.057 204.279 133.151 204.16 133.151C204.042 133.151 203.947 133.057 203.947 132.938V130.863H203.331C203.212 130.863 203.117 130.763 203.117 130.644C203.117 130.526 203.212 130.431 203.331 130.431H204.99C205.109 130.431 205.204 130.526 205.204 130.644C205.204 130.763 205.109 130.863 204.99 130.863Z" fill="#D1A53D"/>
<path d="M205.871 130.644C205.871 130.526 205.966 130.431 206.084 130.431C206.203 130.431 206.304 130.526 206.304 130.644V132.938C206.304 133.057 206.203 133.151 206.084 133.151C205.966 133.151 205.871 133.057 205.871 132.938V130.644Z" fill="#D1A53D"/>
<path d="M207.035 132.938V130.644C207.035 130.526 207.13 130.431 207.249 130.431H207.254C207.254 130.431 207.254 130.431 207.26 130.431H208.523C208.636 130.431 208.736 130.526 208.736 130.644C208.736 130.763 208.636 130.863 208.523 130.863H207.468V131.575H208.375C208.493 131.575 208.588 131.675 208.588 131.788C208.588 131.907 208.493 132.007 208.375 132.007H207.468V132.938C207.468 133.057 207.373 133.151 207.249 133.151C207.13 133.151 207.035 133.057 207.035 132.938Z" fill="#D1A53D"/>
<path d="M209.418 130.644C209.418 130.526 209.513 130.431 209.631 130.431C209.75 130.431 209.851 130.526 209.851 130.644V132.938C209.851 133.057 209.75 133.151 209.631 133.151C209.513 133.151 209.418 133.057 209.418 132.938V130.644Z" fill="#D1A53D"/>
<path d="M210.578 132.938V130.644C210.578 130.526 210.673 130.431 210.792 130.431H210.797C210.797 130.431 210.797 130.431 210.803 130.431H212.066C212.179 130.431 212.279 130.526 212.279 130.644C212.279 130.763 212.179 130.863 212.066 130.863H211.011V131.575H211.918C212.036 131.575 212.131 131.675 212.131 131.788C212.131 131.907 212.036 132.007 211.918 132.007H211.011V132.725H212.066C212.179 132.725 212.279 132.82 212.279 132.944C212.279 133.063 212.179 133.157 212.066 133.157H210.803C210.797 133.157 210.797 133.152 210.797 133.152L210.792 133.157C210.667 133.152 210.578 133.057 210.578 132.938Z" fill="#D1A53D"/>
<path d="M212.883 132.938V130.644C212.883 130.526 212.978 130.431 213.096 130.431H213.553C214.305 130.431 214.91 131.041 214.91 131.788C214.91 132.541 214.305 133.151 213.553 133.151H213.096C212.978 133.151 212.883 133.057 212.883 132.938ZM213.316 132.725H213.559C214.074 132.719 214.483 132.31 214.483 131.794C214.483 131.284 214.068 130.869 213.559 130.869H213.316V132.725Z" fill="#D1A53D"/>
<path d="M293.888 178.517L299.235 172.086L307.374 173.995L297.404 144.273L283.918 148.802L293.888 178.517Z" fill="#BE202F"/>
<path d="M288.868 163.538L283.918 148.802L297.404 144.273L288.868 163.538Z" fill="#9B0022"/>
<path d="M295.66 144.86L305.269 173.497L305.56 173.568L295.903 144.782L295.66 144.86Z" fill="white"/>
<path d="M285.418 148.298L295.08 177.083L295.276 176.852L285.667 148.215L285.418 148.298Z" fill="white"/>
<path d="M268.633 178.464L276.647 176.087L282.362 182.193L291.633 147.995L277.904 144.273L268.633 178.464Z" fill="#BE202F"/>
<path d="M289.854 147.521L280.879 180.61L281.086 180.829L290.103 147.586L289.854 147.521Z" fill="white"/>
<path d="M279.434 144.694L270.418 177.937L270.708 177.854L279.689 144.759L279.434 144.694Z" fill="white"/>
<path d="M289.165 111.154C289.539 112.091 290.807 112.221 291.364 111.385C291.993 110.449 293.445 110.757 293.635 111.865C293.807 112.855 295.016 113.253 295.739 112.547C296.551 111.759 297.903 112.363 297.861 113.49C297.82 114.497 298.928 115.132 299.776 114.598C300.73 113.994 301.934 114.871 301.655 115.962C301.406 116.94 302.354 117.787 303.297 117.443C304.358 117.052 305.348 118.155 304.85 119.168C304.405 120.069 305.152 121.101 306.148 120.959C307.269 120.799 308.01 122.085 307.31 122.968C306.688 123.757 307.209 124.924 308.211 124.99C309.337 125.067 309.794 126.477 308.928 127.201C308.158 127.847 308.419 129.092 309.391 129.364C310.475 129.672 310.63 131.148 309.634 131.676C308.745 132.144 308.745 133.419 309.634 133.887C310.63 134.415 310.475 135.891 309.391 136.199C308.424 136.472 308.158 137.716 308.928 138.363C309.794 139.086 309.337 140.497 308.211 140.574C307.209 140.639 306.688 141.807 307.31 142.595C308.01 143.484 307.269 144.765 306.148 144.605C305.152 144.462 304.405 145.494 304.85 146.395C305.348 147.408 304.358 148.511 303.297 148.12C302.354 147.77 301.406 148.624 301.655 149.602C301.934 150.698 300.73 151.57 299.776 150.965C298.922 150.432 297.82 151.066 297.861 152.074C297.903 153.2 296.551 153.804 295.739 153.016C295.016 152.317 293.807 152.708 293.635 153.698C293.445 154.812 291.993 155.12 291.364 154.184C290.807 153.348 289.539 153.478 289.165 154.415C288.744 155.464 287.262 155.464 286.841 154.415C286.468 153.478 285.199 153.348 284.642 154.184C284.014 155.12 282.562 154.812 282.372 153.698C282.2 152.708 280.991 152.311 280.268 153.016C279.455 153.804 278.104 153.2 278.145 152.074C278.187 151.066 277.078 150.432 276.231 150.965C275.276 151.564 274.073 150.692 274.352 149.602C274.601 148.624 273.652 147.776 272.71 148.12C271.649 148.511 270.659 147.408 271.157 146.395C271.601 145.494 270.854 144.462 269.858 144.605C268.738 144.765 267.997 143.478 268.697 142.595C269.319 141.807 268.797 140.639 267.796 140.574C266.669 140.497 266.213 139.086 267.078 138.363C267.849 137.716 267.588 136.472 266.616 136.199C265.531 135.891 265.377 134.415 266.373 133.887C267.262 133.419 267.262 132.144 266.373 131.676C265.377 131.148 265.531 129.672 266.616 129.364C267.582 129.092 267.849 127.847 267.078 127.201C266.213 126.477 266.669 125.067 267.796 124.99C268.797 124.924 269.319 123.757 268.697 122.968C267.997 122.079 268.738 120.799 269.858 120.959C270.854 121.101 271.601 120.069 271.157 119.168C270.659 118.155 271.649 117.052 272.71 117.443C273.652 117.793 274.601 116.94 274.352 115.962C274.073 114.865 275.276 113.994 276.231 114.598C277.084 115.132 278.187 114.497 278.145 113.49C278.104 112.363 279.455 111.759 280.268 112.547C280.991 113.247 282.2 112.855 282.372 111.865C282.562 110.751 284.014 110.443 284.642 111.385C285.199 112.221 286.468 112.091 286.841 111.154C287.262 110.105 288.744 110.105 289.165 111.154Z" fill="#D1A53D"/>
<path d="M288.003 152.163C298.705 152.163 307.381 143.487 307.381 132.785C307.381 122.083 298.705 113.407 288.003 113.407C277.301 113.407 268.625 122.083 268.625 132.785C268.625 143.487 277.301 152.163 288.003 152.163Z" fill="white"/>
<path d="M288.003 150.811C278.062 150.811 269.977 142.725 269.977 132.784C269.977 122.844 278.062 114.758 288.003 114.758C297.944 114.758 306.029 122.844 306.029 132.784C306.029 142.725 297.944 150.811 288.003 150.811ZM288.003 115.209C278.311 115.209 270.421 123.093 270.421 132.79C270.421 142.488 278.305 150.372 288.003 150.372C297.695 150.372 305.585 142.488 305.585 132.79C305.585 123.093 297.695 115.209 288.003 115.209Z" fill="#D1A53D"/>
<path d="M285.998 143.573L275.375 132.95L279.738 128.588L285.998 134.853L305.945 114.906L310.301 119.269L285.998 143.573Z" fill="#BE202F"/>
<path d="M142.221 180.865C151.652 200.415 174.023 232.727 183.395 224.304C197.408 211.708 206.347 184.481 209.892 173.473C211.878 167.303 180.484 157.96 178.736 163.562C176.246 171.517 172.464 188.103 170.063 190.504C168.801 191.767 158.226 177.753 150.312 171.185C138.913 161.719 139.209 174.623 142.221 180.865Z" fill="#FEBBBA"/>
<path d="M216.542 160.201C215.202 166.894 207.117 179.508 203.993 181.796C200.869 184.09 178.9 171.677 178.42 167.735C177.94 163.787 184.253 140.983 189.588 136.508C194.923 132.032 217.929 153.271 216.542 160.201Z" fill="#FEBBBA"/>
<path d="M178.888 163.141C178.888 163.141 177.383 154.392 173.553 147.575C170.341 141.843 164.917 133.686 167.934 131.843C174.134 128.055 187.65 148.393 187.65 148.393C187.65 148.393 192.173 158.322 186.363 162.62C182.724 165.311 178.888 163.141 178.888 163.141Z" fill="#FEBBBA"/>
<path d="M182.764 145.044C183.991 148.446 187.298 145.05 187.298 145.05C187.298 145.05 183.718 151.078 186.344 154.095C188.881 156.994 192.728 152.756 193.007 152.453C192.823 152.774 189.675 158.405 192.621 161.161C195.686 164.024 198.816 159.104 199.018 158.79C198.935 159.146 197.945 163.9 200.66 165.489C205.325 168.215 208.2 156.129 212.017 153.995C212.017 153.995 216.38 160.053 216.54 160.201C216.54 160.201 219.51 148.76 216.339 143.769C214.667 141.137 211.887 142.175 211.887 142.175C211.887 142.175 213.25 138.594 210.998 136.348C209.836 135.198 206.967 136.028 206.967 136.028C206.967 136.028 207.939 133.111 205.811 131.238C204.115 129.738 201.501 130.805 201.501 130.805C201.501 130.805 201.14 127.575 198.911 126.602C194.429 124.64 180.144 137.759 182.764 145.044Z" fill="#FEBBBA"/>
<path d="M201.067 130.912C201.12 130.87 201.073 130.793 201.014 130.823C195.264 133.988 189.917 139.235 187.101 145.21C187.006 145.405 187.285 145.642 187.427 145.447C191.506 139.845 195.572 135.198 201.067 130.912Z" fill="#E98887"/>
<path d="M207.013 135.933C207.072 135.885 206.995 135.784 206.924 135.826C201.014 139.122 195.157 145.192 192.721 152.459C192.638 152.708 192.81 153.017 192.929 152.738C194.92 148.031 202.051 139.768 207.013 135.933Z" fill="#E98887"/>
<path d="M199.023 159.353C201.625 152.471 206.172 147.124 211.631 142.293C211.702 142.228 211.608 142.139 211.531 142.175C208.217 143.805 205.057 147.249 202.823 150.13C200.683 152.892 199.307 155.814 198.774 159.258C198.762 159.401 198.964 159.501 199.023 159.353Z" fill="#E98887"/>
<path d="M187.179 145.067C187.067 145.304 187.535 145.204 187.428 145.447C186.996 146.449 184.903 152.72 186.818 154.095C188.353 155.192 190.896 153.894 191.678 153.011L193.641 150.788L192.568 153.556C192.099 154.765 191.779 156.105 191.726 157.391C191.673 158.678 191.963 159.97 192.817 160.764C193.688 161.612 194.868 161.831 195.905 161.221C196.948 160.657 197.849 159.579 198.501 158.506L200.315 155.5L199.586 158.921C199.391 159.845 199.296 160.865 199.343 161.819C199.396 162.774 199.61 163.728 200.137 164.41C200.653 165.08 201.536 165.471 202.319 165.287C203.149 165.103 203.919 164.427 204.589 163.716C205.941 162.246 206.99 160.468 208.122 158.761C208.679 157.895 209.242 157.03 209.847 156.194C210.458 155.376 211.098 154.504 212.011 153.995C211.163 154.587 210.635 155.5 210.084 156.348C209.551 157.219 209.065 158.12 208.567 159.027C207.583 160.829 206.569 162.637 205.223 164.279C204.53 165.068 203.747 165.898 202.556 166.247C201.329 166.597 200.019 166.022 199.284 165.08C198.531 164.119 198.294 162.969 198.211 161.89C198.14 160.794 198.223 159.745 198.436 158.66L199.521 159.075C198.762 160.349 197.861 161.511 196.486 162.311C195.81 162.703 194.933 162.91 194.097 162.756C193.255 162.608 192.55 162.175 191.981 161.618C190.801 160.456 190.517 158.778 190.6 157.344C190.683 155.868 191.044 154.493 191.59 153.135L192.479 153.68C191.447 154.771 188.762 156.538 186.166 155.133C183.065 152.803 186.468 146.229 187.179 145.067Z" fill="#E98887"/>
<path d="M187.298 145.05C186.64 145.482 185.959 145.838 185.301 146.016C184.649 146.2 184.032 146.057 183.635 145.666C183.226 145.281 183.013 144.587 182.87 143.882C182.752 143.165 182.657 142.406 182.598 141.612C182.272 142.341 182.088 143.129 182.082 143.947C182.082 144.753 182.23 145.666 182.93 146.395C183.303 146.727 183.748 146.947 184.234 147.006C184.72 147.053 185.182 146.947 185.573 146.757C186.362 146.377 186.919 145.743 187.298 145.05Z" fill="#E98887"/>
<path d="M176.858 164.214L209.87 185.845C209.87 185.845 191.66 226.462 179.703 226.693C167.747 226.918 149.638 197.392 143.295 184.594C136.952 171.79 140.218 160.693 152.596 172.187C165.05 183.752 169.425 188.411 169.81 188.239C170.569 187.913 176.858 164.214 176.858 164.214Z" fill="#BE202F"/>
<path d="M209.874 185.85C209.874 185.85 197.247 214.019 186.115 223.569C183.886 225.489 181.711 226.657 179.707 226.693C167.751 226.924 149.642 197.398 143.293 184.6C139.363 176.674 139.12 169.401 142.445 167.741C144.49 166.716 147.887 167.812 152.599 172.193C165.048 183.752 169.428 188.417 169.814 188.245C170.561 187.919 176.856 164.22 176.856 164.22L209.874 185.85Z" fill="#BE202F"/>
<path d="M202.32 189.822C201.442 189.14 200.559 188.476 199.67 187.813C197.874 186.467 196.066 185.133 194.258 183.799C190.666 181.15 187.002 178.607 183.303 176.105C181.205 174.683 179.148 173.183 176.99 171.855C176.884 171.79 176.783 171.932 176.878 172.009C178.603 173.444 180.44 174.754 182.225 176.111C184.015 177.475 185.787 178.85 187.595 180.178C191.193 182.815 194.833 185.394 198.508 187.931C199.54 188.642 200.547 189.395 201.608 190.065C202.154 190.409 202.669 190.788 203.215 191.12C203.766 191.452 204.341 191.749 204.88 192.098C204.94 192.134 204.999 192.051 204.946 192.009C204.062 191.298 203.221 190.528 202.32 189.822Z" fill="#9B0022"/>
<path d="M170.072 187.504C168.875 190.854 168.069 194.339 167.316 197.813C166.942 199.538 166.658 201.275 166.379 203.017C166.107 204.725 165.875 206.497 165.84 208.234C165.84 208.299 165.929 208.299 165.947 208.24C166.433 206.556 166.782 204.808 167.12 203.094C167.464 201.364 167.838 199.645 168.175 197.914C168.851 194.458 169.663 191.02 170.232 187.54C170.256 187.427 170.108 187.404 170.072 187.504Z" fill="#9B0022"/>
<path opacity="0.1" d="M186.115 223.569C183.886 225.49 181.711 226.657 179.707 226.693C167.751 226.924 149.642 197.398 143.293 184.6C139.363 176.674 139.12 169.401 142.445 167.741L186.115 223.569Z" fill="black"/>
<path d="M167.029 254.701H89.2688C88.925 253.154 101.154 185.014 127.378 165.838C133.2 161.582 143.52 164.321 146.389 168.458C160.823 189.253 167.029 254.701 167.029 254.701Z" fill="#D1A53D"/>
<path d="M125.659 166.348C125.659 166.348 132.523 196.508 133.234 199.105C133.946 201.701 136.483 254.695 136.483 254.695H88.5625C88.5625 254.701 99.3451 187.125 125.659 166.348Z" fill="#BE202F"/>
<path d="M146.395 168.458C146.395 168.458 149.394 191.553 149.756 192.916C150.117 194.28 159.934 254.707 159.934 254.707H167.403C167.397 254.701 160.888 184.837 146.395 168.458Z" fill="#BE202F"/>
<path d="M116.462 175.097C102.449 194.831 82.1461 230.172 91.5001 236.462C106.883 246.806 149.201 249.58 158.875 249.817C163.048 249.918 168.745 222.158 165.657 218.933C162.568 215.708 118.27 217.439 117.701 214.766C117.381 213.248 122.799 199.265 125.543 182.483C128.709 163.141 120.416 169.531 116.462 175.097Z" fill="#FEBBBA"/>
<path d="M158.228 217.398C158.228 217.398 170.866 216.094 179.165 215.631C183.794 215.371 191.779 215.637 195.271 217.007C200.493 219.052 221.015 230.937 218.241 235.976C215.727 240.54 199.39 228.086 199.39 228.086C199.39 228.086 216.99 239.194 212.953 244.126C208.916 249.064 192.33 232.543 192.33 232.543C192.33 232.543 210.155 244.357 205.188 248.791C201.435 252.141 185.567 238.021 185.567 238.021C185.567 238.021 200.819 248.282 197.108 251.892C193.006 255.881 177.541 243.771 177.541 243.771C166.562 251.358 158.234 250.487 152.377 249.159C150.966 248.839 158.228 217.398 158.228 217.398Z" fill="#FEBBBA"/>
<path d="M193.552 223.859C195.668 225.086 197.814 226.319 199.812 227.73C201.809 229.141 203.76 230.629 205.615 232.223C210.168 236.13 212.408 239.289 212.254 239.111C208.478 234.855 201.406 229.68 199.409 228.269C197.417 226.859 195.49 225.347 193.499 223.936C193.445 223.895 193.499 223.829 193.552 223.859Z" fill="#E98887"/>
<path d="M188.321 230.978C190.953 232.668 193.627 234.245 196.187 236.047C198.73 237.843 202.216 240.481 204.629 242.443C204.812 242.597 204.676 242.923 204.48 242.781C201.991 240.913 198.316 238.388 195.802 236.551C193.295 234.719 190.847 232.775 188.274 231.038C188.232 231.014 188.28 230.955 188.321 230.978Z" fill="#E98887"/>
<path d="M182.729 236.284C186.885 238.655 190.595 241.791 194.164 244.956C194.342 245.116 194.152 245.157 193.956 245.009C190.21 242.057 187.294 239.71 182.646 236.432C182.569 236.378 182.64 236.23 182.729 236.284Z" fill="#E98887"/>
<path d="M158.247 215.744L146.379 251.56C146.379 251.56 92.3121 244.677 88.2812 234.909C84.2503 225.14 100.403 195.548 113.771 177.356C126.924 159.466 128.039 171.558 125.591 184.665C123.148 197.771 118.542 213.041 119.319 214.078C120.096 215.116 158.247 215.744 158.247 215.744Z" fill="#BE202F"/>
<path d="M139.775 246.468C140.196 245.442 140.599 244.411 141.002 243.373C141.814 241.281 142.614 239.183 143.408 237.084C144.991 232.911 146.455 228.696 147.872 224.464C148.678 222.063 149.567 219.674 150.267 217.238C150.302 217.119 150.136 217.06 150.089 217.173C149.17 219.218 148.406 221.34 147.576 223.426C146.746 225.513 145.898 227.594 145.104 229.698C143.533 233.871 142.033 238.074 140.575 242.295C140.166 243.48 139.71 244.654 139.36 245.851C139.176 246.468 138.945 247.066 138.773 247.683C138.601 248.305 138.471 248.934 138.281 249.55C138.257 249.615 138.358 249.651 138.382 249.586C138.826 248.542 139.342 247.523 139.775 246.468Z" fill="#9B0022"/>
<path d="M147.318 249.099L146.476 251.601L146.453 251.678L146.364 251.672C141.26 251.204 136.18 250.558 131.117 249.781C126.055 248.993 121.011 248.068 116.002 246.965C110.999 245.845 106.019 244.577 101.158 242.881C98.7339 242.034 96.3332 241.073 94.0451 239.882C92.9069 239.277 91.7984 238.607 90.767 237.825C89.7534 237.036 88.7871 236.1 88.2773 234.914C88.8938 236.047 89.9075 236.865 90.9448 237.582C92 238.281 93.1322 238.862 94.2881 239.384C96.5999 240.433 99.0125 241.263 101.437 242.028C106.304 243.527 111.265 244.731 116.251 245.821C121.236 246.912 126.251 247.89 131.277 248.815C136.304 249.74 141.337 250.629 146.387 251.459L146.269 251.53L147.318 249.099Z" fill="#9B0022"/>
<path d="M157.78 217.143L158.183 215.726L158.243 215.809C152.902 215.952 147.555 216.011 142.214 215.958C136.867 215.91 131.526 215.797 126.179 215.513C124.84 215.43 123.506 215.347 122.16 215.217C121.485 215.151 120.821 215.08 120.127 214.956C119.955 214.926 119.777 214.891 119.588 214.837C119.499 214.813 119.392 214.778 119.279 214.736C119.232 214.719 119.131 214.659 119.066 214.618C119.048 214.612 118.942 214.523 118.882 214.44C118.853 214.399 118.823 214.351 118.799 214.304C118.782 214.262 118.787 214.256 118.776 214.233C118.693 213.853 118.74 213.729 118.74 213.521C118.758 213.343 118.77 213.16 118.799 212.994C119.22 210.297 119.837 207.712 120.453 205.104C121.698 199.905 123.097 194.742 124.597 189.615L121.348 205.305C120.833 207.914 120.246 210.545 119.908 213.13C119.884 213.29 119.878 213.444 119.866 213.598C119.854 213.723 119.866 213.936 119.86 213.883C119.86 213.877 119.86 213.895 119.854 213.871C119.849 213.841 119.831 213.812 119.813 213.782C119.783 213.729 119.7 213.675 119.724 213.687C119.73 213.681 119.7 213.675 119.73 213.687C119.777 213.705 119.825 213.723 119.896 213.741C120.026 213.776 120.181 213.806 120.335 213.835C120.957 213.942 121.621 214.007 122.273 214.067C123.589 214.185 124.917 214.262 126.251 214.333C128.912 214.482 131.574 214.6 134.241 214.695L142.244 215.003C147.579 215.193 152.914 215.43 158.255 215.685L158.344 215.691L158.314 215.768L157.78 217.143Z" fill="#9B0022"/>
<path d="M125.494 192.839C125.204 193.782 124.783 194.659 124.315 195.507C123.835 196.348 123.307 197.184 122.602 197.872C123.017 196.983 123.455 196.129 123.929 195.287C124.404 194.451 124.896 193.616 125.494 192.839Z" fill="#9B0022"/>
<path d="M142.621 179.063C138.11 180.349 129.971 173.734 126.622 168.227C126.397 167.848 127.304 152.293 127.162 149.193C127.132 148.559 146.824 153.04 146.824 153.04C146.824 153.04 145.206 159.626 145.484 165.032C145.514 165.482 146.978 177.824 142.621 179.063Z" fill="#FEBBBA"/>
<path d="M126.891 158.938C136.096 165.441 145.065 162.939 145.468 162.827C145.611 157.99 146.832 153.04 146.832 153.04C146.832 153.04 127.134 148.559 127.169 149.193C127.229 150.651 127.068 154.848 126.891 158.938Z" fill="#E98887"/>
<path d="M152.16 129.094C148.135 129.537 145.281 133.618 145.786 138.209C146.291 142.801 149.963 146.165 153.989 145.722C158.014 145.279 160.868 141.198 160.363 136.606C159.858 132.015 156.186 128.651 152.16 129.094Z" fill="#BE202F"/>
<path d="M150.549 128.62C146.068 129.113 142.89 133.651 143.452 138.757C144.013 143.863 148.101 147.602 152.582 147.11C157.063 146.617 160.24 142.078 159.679 136.973C159.117 131.867 155.03 128.127 150.549 128.62Z" fill="#D1A53D"/>
<path d="M124.438 125.825C122.286 132.719 125.813 152.684 130.697 157.16C137.775 163.651 149.429 164.338 154.96 155.814C160.318 147.551 155.268 121.611 149.803 117.538C141.759 111.533 127.615 115.647 124.438 125.825Z" fill="#FEBBBA"/>
<path d="M141.036 138.363C141.018 138.315 140.941 138.446 140.953 138.499C141.249 139.833 141.368 141.41 140.242 142.085C140.206 142.109 140.224 142.174 140.265 142.157C141.712 141.67 141.534 139.578 141.036 138.363Z" fill="#515959"/>
<path d="M139.568 137.189C137.38 137.438 138.038 141.795 140.066 141.564C142.063 141.339 141.405 136.982 139.568 137.189Z" fill="#515959"/>
<path d="M148.798 137.314C148.798 137.26 148.911 137.361 148.923 137.414C149.083 138.772 149.498 140.295 150.784 140.562C150.826 140.568 150.832 140.639 150.784 140.639C149.261 140.657 148.733 138.624 148.798 137.314Z" fill="#515959"/>
<path d="M149.794 135.719C151.94 135.227 152.77 139.554 150.778 140.011C148.822 140.461 147.992 136.134 149.794 135.719Z" fill="#515959"/>
<path d="M137.548 135.458C138.117 135.221 138.603 134.901 139.148 134.61C139.759 134.279 140.28 134.077 140.612 133.431C140.79 133.087 140.612 132.542 140.292 132.34C139.551 131.86 138.703 132.079 137.951 132.453C137.139 132.856 136.611 133.372 136.237 134.196C135.876 134.996 136.795 135.772 137.548 135.458Z" fill="#515959"/>
<path d="M151.144 133.271C150.528 133.265 149.953 133.152 149.342 133.081C148.654 133.004 148.097 133.01 147.54 132.542C147.244 132.293 147.208 131.718 147.421 131.41C147.925 130.686 148.797 130.574 149.632 130.633C150.539 130.698 151.221 130.983 151.879 131.605C152.519 132.21 151.962 133.283 151.144 133.271Z" fill="#515959"/>
<path d="M141.777 151.019C142.15 151.285 142.535 151.671 143.033 151.641C143.507 151.611 144.029 151.315 144.432 151.084C144.474 151.06 144.521 151.102 144.503 151.143C144.231 151.712 143.543 152.151 142.903 152.133C142.274 152.121 141.895 151.635 141.658 151.102C141.628 151.024 141.723 150.977 141.777 151.019Z" fill="#E98887"/>
<path d="M142.586 146.762C143.516 147.817 144.726 148.292 145.964 148.345C146.516 148.375 147.085 148.303 147.63 148.173C147.737 148.155 147.844 148.126 147.938 148.09C148.033 148.06 148.122 148.037 148.229 148.001C148.383 147.954 148.448 147.811 148.454 147.657V147.646C148.448 147.598 148.436 147.557 148.419 147.509C148.419 147.509 148.419 147.509 148.419 147.497L148.401 147.379C148.27 146.335 147.932 144.771 147.932 144.771C148.342 144.901 150.41 145.482 150.298 144.942C149.349 140.485 148.294 135.529 146.409 131.297C146.356 131.154 146.13 131.22 146.166 131.368C146.907 135.683 148.407 139.845 149.219 144.172C148.567 144.03 147.494 143.751 146.948 143.84C146.806 143.905 147.66 146.851 147.678 147.325C147.678 147.325 147.684 147.343 147.678 147.379C145.964 147.865 144.566 147.539 142.692 146.62C142.58 146.561 142.485 146.667 142.586 146.762Z" fill="#E98887"/>
<path d="M146.94 147.735C146.94 147.735 146.205 149.116 145.014 149.756C144.575 149.993 144.083 150.135 143.538 150.076C142.417 149.957 142.239 148.968 142.311 148.096C142.364 147.373 142.595 146.727 142.595 146.727C142.595 146.727 144.391 147.96 146.94 147.735Z" fill="#E98887"/>
<path d="M145.006 149.756C144.567 149.993 144.075 150.135 143.53 150.076C142.409 149.958 142.232 148.968 142.303 148.096C143.476 148.037 144.739 148.648 145.006 149.756Z" fill="#FF99BA"/>
<path d="M125.012 143.354C129.998 142.388 129.245 133.152 129.245 133.152C129.245 133.152 137.544 130.123 137.562 123.437C137.562 123.437 146.678 127.082 152.624 123.549C158.575 120.016 155.861 113.045 154.859 111.634C153.857 110.224 150.858 113.768 150.858 113.768C150.858 113.768 149.678 109.755 148.504 109.548C147.33 109.34 146.613 112.037 146.613 112.037C146.613 112.037 137.852 110.84 130.424 112.47C122.991 114.1 120.727 122.334 120.727 122.334C120.727 122.334 116.891 123.94 116.133 126.987C115.368 130.028 121.835 143.964 125.012 143.354Z" fill="black"/>
<path d="M127.24 133.597C134.033 133.217 137.589 127.983 137.346 121.451C137.346 121.368 137.459 121.356 137.471 121.439C138.402 127.385 134.134 135.019 127.234 133.899C127.062 133.87 127.062 133.603 127.24 133.597Z" fill="black"/>
<path d="M120.887 122.18C120.958 122.144 121.023 122.257 120.958 122.304C119.269 123.514 117.265 124.563 116.287 126.501C115.101 128.843 115.949 131.451 116.975 133.662C118.569 137.082 121.308 141.398 124.924 142.903C125.131 142.992 124.989 143.295 124.781 143.218C120.496 141.676 117.105 136.045 115.765 131.913C114.266 127.29 116.702 124.029 120.887 122.18Z" fill="black"/>
<path d="M145.167 123.905C148.416 125.108 152.767 124.361 155.245 121.818C158.262 118.724 156.762 114.847 154.616 111.788C154.51 111.64 154.717 111.415 154.859 111.557C157.479 114.112 158.499 118.546 156.128 121.623C153.68 124.8 148.552 125.683 144.966 124.361C144.669 124.249 144.871 123.792 145.167 123.905Z" fill="black"/>
<path d="M128.605 142.103C128.605 142.103 124.005 135.719 121.1 137.367C118.195 139.015 121.716 148.316 125.172 149.549C128.628 150.782 129.826 147.604 129.826 147.604L128.605 142.103Z" fill="#FEBBBA"/>
<path d="M122.172 140.011C122.119 140.005 122.107 140.082 122.155 140.106C124.579 141.048 125.877 143.265 126.796 145.565C126.067 144.682 125.083 144.208 123.903 145.079C123.844 145.126 123.903 145.221 123.969 145.209C124.953 144.984 125.664 145.144 126.346 145.927C126.826 146.478 127.158 147.183 127.507 147.824C127.626 148.037 128.011 147.918 127.922 147.67C127.917 147.652 127.911 147.634 127.905 147.616C127.922 144.534 125.474 140.272 122.172 140.011Z" fill="#E98887"/>
<path d="M123.579 137.592C123.579 137.592 121.089 127.675 123.028 121.611C125.185 114.853 134.089 108.848 146.614 112.032C146.614 112.032 132.257 112.429 127.076 121.332C124.693 125.428 126.976 137.254 126.976 137.254L123.579 137.592Z" fill="#D1A53D"/>
<path d="M127.57 151.769C132.049 150.911 134.887 146.076 133.909 140.97C132.932 135.863 128.508 132.419 124.028 133.277C119.549 134.135 116.711 138.97 117.689 144.076C118.667 149.182 123.09 152.626 127.57 151.769Z" fill="#D1A53D"/>
<path d="M125.783 150.841C129.808 150.071 132.36 145.726 131.482 141.137C130.603 136.549 126.628 133.454 122.602 134.224C118.576 134.995 116.024 139.339 116.903 143.928C117.781 148.517 121.757 151.612 125.783 150.841Z" fill="#BE202F"/>
<path d="M235.075 251.542H155.957V255.092H235.075V251.542Z" fill="#515959"/>
<path d="M235.081 251.542H195.258V255.092H235.081V251.542Z" fill="black"/>
<path d="M197.672 255.087H274.78L284.864 202.715H207.755L197.672 255.087Z" fill="black"/>
<path d="M200.809 255.087H277.917L288 202.715H210.892L200.809 255.087Z" fill="#515959"/>
<path d="M239.713 228.898C239.488 231.488 241.403 233.593 243.993 233.593C246.584 233.593 248.872 231.494 249.097 228.898C249.322 226.307 247.408 224.203 244.817 224.203C242.227 224.203 239.939 226.307 239.713 228.898Z" fill="white"/>
<path d="M303.868 207.736C311.609 215.317 312.907 227.043 311.277 237.309C311.236 237.541 310.874 237.481 310.874 237.262C310.874 234.926 310.945 232.609 310.939 230.297C310.898 230.19 310.862 230.089 310.821 229.989C308.799 228.519 306.944 226.859 305.794 224.582C304.502 222.039 303.992 219.17 303.002 216.515C302.913 216.26 303.18 216.337 303.358 216.467C308.064 219.941 309.57 223.676 310.922 228.673C310.856 226.082 310.661 223.486 310.104 220.895C309.084 216.153 307.074 211.458 303.666 207.943C303.536 207.807 303.731 207.605 303.868 207.736Z" fill="#D1A53D"/>
<path d="M302.412 208.625C301.078 208.672 300.242 210.8 299.205 211.417C298.654 211.749 298.12 211.725 297.735 211.186C296.704 209.751 298.12 207.979 299.442 206.989C298.494 207.38 297.705 208.068 296.686 208.257C296.063 208.37 295.583 208.139 295.441 207.51C294.99 205.554 297.445 204.683 299.128 204.641C298.31 204.072 295.969 202.531 297.213 201.772C298.476 201.008 301.221 203.219 302.116 203.942C303.432 205.009 305.002 206.603 305.062 208.275C305.145 210.231 303.438 209.034 302.412 208.625Z" fill="#BE202F"/>
<path opacity="0.1" d="M302.412 208.625C301.078 208.672 300.242 210.8 299.205 211.417C298.654 211.749 298.12 211.725 297.735 211.186C296.704 209.751 298.12 207.979 299.442 206.989C298.494 207.38 297.705 208.068 296.686 208.257C296.063 208.37 295.583 208.139 295.441 207.51C294.99 205.554 297.445 204.683 299.128 204.641C298.31 204.072 295.969 202.531 297.213 201.772C298.476 201.008 301.221 203.219 302.116 203.942C303.432 205.009 305.002 206.603 305.062 208.275C305.145 210.231 303.438 209.034 302.412 208.625Z" fill="black"/>
<path d="M302.796 208.951C301.094 208.174 297.822 209.289 297.544 208.649C296.981 207.339 299.595 206.438 301.005 206.266C299.707 205.916 297.218 205.353 297.295 204.102C297.39 202.573 301.112 203.889 302.997 205.335C305.374 207.155 305.356 208.915 304.965 209.265C304.426 209.739 303.08 209.081 302.796 208.951Z" fill="#BE202F"/>
<path d="M313.293 226.213C312.7 230.048 311.965 234.014 310.804 237.724C310.691 238.062 310.193 237.973 310.24 237.612C310.768 234.067 311.728 230.581 312.256 227.037C312.789 223.45 313.08 219.811 312.872 216.177C312.534 210.202 310.91 203.841 307.01 199.164C306.927 199.052 307.105 198.897 307.194 198.998C315 208.103 313.762 219.265 313.75 220.267C314.852 216.497 315.996 212.176 320.175 208.34C320.353 208.174 320.495 208.252 320.466 208.536C319.719 215.525 317.775 219.176 313.72 222.917C313.613 224.019 313.471 225.122 313.293 226.213Z" fill="#D1A53D"/>
<path d="M306.936 200.214C305.531 199.591 303.592 201.375 302.205 201.5C301.47 201.565 300.925 201.275 300.794 200.522C300.451 198.512 302.804 197.386 304.683 197.03C303.503 196.959 302.342 197.273 301.18 196.959C300.48 196.764 300.095 196.283 300.261 195.56C300.777 193.302 303.764 193.634 305.531 194.44C304.968 193.438 303.32 190.658 304.991 190.498C306.681 190.344 308.424 194.013 308.987 195.216C309.817 196.989 310.641 199.431 309.858 201.198C308.957 203.26 307.795 201.156 306.936 200.214Z" fill="#BE202F"/>
<path opacity="0.1" d="M306.936 200.214C305.531 199.591 303.592 201.375 302.205 201.5C301.47 201.565 300.925 201.275 300.794 200.522C300.451 198.512 302.804 197.386 304.683 197.03C303.503 196.959 302.342 197.273 301.18 196.959C300.48 196.764 300.095 196.283 300.261 195.56C300.777 193.302 303.764 193.634 305.531 194.44C304.968 193.438 303.32 190.658 304.991 190.498C306.681 190.344 308.424 194.013 308.987 195.216C309.817 196.989 310.641 199.431 309.858 201.198C308.957 203.26 307.795 201.156 306.936 200.214Z" fill="black"/>
<path d="M307.173 200.747C305.797 199.087 301.838 198.595 301.879 197.789C301.956 196.147 305.122 196.526 306.669 197.054C305.495 196.034 303.195 194.197 303.907 192.94C304.772 191.399 307.979 194.641 309.206 197.09C310.753 200.178 309.852 201.992 309.265 202.158C308.465 202.389 307.398 201.026 307.173 200.747Z" fill="#BE202F"/>
<path d="M321.5 206.989C313.474 214.268 311.731 225.934 312.97 236.26C313.006 236.497 313.367 236.444 313.373 236.225C313.462 233.889 313.48 231.571 313.575 229.266C313.622 229.159 313.658 229.064 313.705 228.957C315.78 227.564 317.7 225.976 318.939 223.747C320.326 221.257 320.943 218.412 322.034 215.792C322.134 215.543 321.862 215.608 321.678 215.732C316.841 219.022 315.199 222.703 313.658 227.641C313.818 225.051 314.114 222.472 314.772 219.9C315.969 215.205 318.157 210.587 321.696 207.202C321.832 207.072 321.642 206.859 321.5 206.989Z" fill="#D1A53D"/>
<path d="M322.92 207.925C324.247 208.02 325 210.178 326.014 210.842C326.547 211.192 327.087 211.192 327.49 210.67C328.575 209.277 327.229 207.451 325.943 206.408C326.873 206.835 327.638 207.552 328.652 207.783C329.268 207.92 329.754 207.706 329.926 207.084C330.454 205.145 328.029 204.179 326.352 204.078C327.188 203.545 329.588 202.087 328.373 201.286C327.14 200.48 324.313 202.579 323.394 203.272C322.036 204.292 320.406 205.827 320.288 207.493C320.128 209.431 321.876 208.299 322.92 207.925Z" fill="#BE202F"/>
<path opacity="0.1" d="M322.92 207.925C324.247 208.02 325 210.178 326.014 210.842C326.547 211.192 327.087 211.192 327.49 210.67C328.575 209.277 327.229 207.451 325.943 206.408C326.873 206.835 327.638 207.552 328.652 207.783C329.268 207.92 329.754 207.706 329.926 207.084C330.454 205.145 328.029 204.179 326.352 204.078C327.188 203.545 329.588 202.087 328.373 201.286C327.14 200.48 324.313 202.579 323.394 203.272C322.036 204.292 320.406 205.827 320.288 207.493C320.128 209.431 321.876 208.299 322.92 207.925Z" fill="black"/>
<path d="M322.524 208.24C324.254 207.528 327.479 208.767 327.781 208.133C328.398 206.847 325.819 205.845 324.415 205.62C325.725 205.317 328.238 204.849 328.208 203.598C328.173 202.063 324.403 203.237 322.458 204.612C320.016 206.343 319.963 208.097 320.342 208.465C320.864 208.969 322.233 208.358 322.524 208.24Z" fill="#BE202F"/>
<path d="M318.433 228.317L321.877 254.63H300.922C301.355 252.301 305.255 228.287 305.255 228.287L318.433 228.317Z" fill="#B0872F"/>
<path d="M162.633 76.01H161.009V77.788C161.009 78.39 160.729 78.684 160.155 78.684C159.581 78.684 159.301 78.39 159.301 77.788V72.412C159.301 71.81 159.581 71.516 160.155 71.516C160.729 71.516 161.009 71.81 161.009 72.412V73.952H162.633V72.16C162.633 70.774 161.807 70.088 160.169 70.088H160.141C158.503 70.088 157.677 70.774 157.677 72.16V78.04C157.677 79.426 158.503 80.112 160.141 80.112H160.169C161.807 80.112 162.633 79.426 162.633 78.04V76.01ZM163.927 70.2V80H165.551V75.744H167.413V80H169.037V70.2H167.413V74.288H165.551V70.2H163.927ZM175.334 71.194C176.202 71.11 176.636 70.76 176.636 70.13V69.36H175.432V69.892C175.432 70.046 175.348 70.144 175.166 70.2H173.71V77.788C173.71 78.39 173.43 78.684 172.87 78.684C172.31 78.684 172.03 78.39 172.03 77.788V70.2H170.406V78.04C170.406 79.426 171.218 80.112 172.842 80.112H172.898C174.522 80.112 175.334 79.426 175.334 78.04V71.194ZM173.388 68.128L172.744 69.43H173.71L174.872 68.128H173.388ZM178.194 80V73.63L180.336 80H181.876V70.2H180.392V76.262L178.334 70.2H176.71V80H178.194ZM188.256 74.96H185.68V76.332H186.632V77.788C186.632 78.39 186.338 78.684 185.736 78.684C185.134 78.684 184.84 78.39 184.84 77.788V72.412C184.84 71.81 185.134 71.516 185.736 71.516C186.338 71.516 186.632 71.81 186.632 72.412V73.56H188.256V72.16C188.256 70.774 187.43 70.088 185.792 70.088H185.68C184.042 70.088 183.216 70.774 183.216 72.16V78.04C183.216 79.426 184.042 80.112 185.68 80.112H185.792C187.43 80.112 188.256 79.426 188.256 78.04V74.96ZM196.717 76.01H195.093V77.788C195.093 78.39 194.813 78.684 194.239 78.684C193.665 78.684 193.385 78.39 193.385 77.788V72.412C193.385 71.81 193.665 71.516 194.239 71.516C194.813 71.516 195.093 71.81 195.093 72.412V73.952H196.717V72.16C196.717 70.774 195.891 70.088 194.253 70.088H194.225C192.587 70.088 191.761 70.774 191.761 72.16V78.04C191.761 79.426 192.587 80.112 194.225 80.112H194.253C195.891 80.112 196.717 79.426 196.717 78.04V76.01ZM198.011 70.2V80H199.635V75.744H201.497V80H203.121V70.2H201.497V74.288H199.635V70.2H198.011ZM206.198 80V70.2H204.574V80H206.198ZM205.106 69.57H205.736V69.374C205.736 69.262 205.806 69.15 205.932 69.038L205.988 68.996L206.044 68.94C206.086 68.898 206.128 68.842 206.17 68.8C206.254 68.674 206.296 68.534 206.296 68.352V68.128C206.296 67.61 206.016 67.344 205.442 67.344C204.868 67.344 204.588 67.61 204.588 68.128V68.548H205.288V68.184C205.288 68.058 205.33 68.002 205.428 68.002C205.526 68.002 205.582 68.058 205.582 68.184V68.324C205.582 68.394 205.54 68.478 205.442 68.562C205.218 68.772 205.106 68.996 205.106 69.248V69.57ZM214.655 70.2H213.087L211.953 77.466L210.819 70.2H209.167L211.015 80H212.807L214.655 70.2ZM217.15 80V70.2H215.526V80H217.15ZM215.512 69.388H214.672V69.15C214.672 68.744 214.784 68.45 214.994 68.24C215.176 68.058 215.414 67.974 215.68 67.974C215.82 67.974 215.96 68.002 216.086 68.044C216.184 68.086 216.296 68.142 216.408 68.212C216.674 68.366 216.842 68.45 216.94 68.45C217.122 68.45 217.22 68.352 217.22 68.17V68.002H218.088V68.24C218.088 68.646 217.99 68.94 217.794 69.15C217.626 69.332 217.416 69.416 217.15 69.416C216.926 69.416 216.674 69.332 216.38 69.178L216.226 69.08L216.086 69.01C215.974 68.968 215.876 68.94 215.792 68.94C215.61 68.94 215.512 69.038 215.512 69.22V69.388ZM220.084 80V73.63L222.226 80H223.766V70.2H222.282V76.262L220.224 70.2H218.6V80H220.084ZM225.163 70.2V80H226.787V75.744H228.649V80H230.273V70.2H228.649V74.288H226.787V70.2H225.163ZM238.676 70.2H237.108L235.974 77.466L234.84 70.2H233.188L235.036 80H236.828L238.676 70.2ZM241.171 80V70.2H239.547V80H241.171ZM246.962 80V78.572H244.246V75.744H246.486V74.316H244.246V71.628H246.92V70.2H242.622V80H246.962ZM246.22 69.43H245.17L244.792 69.01L244.414 69.43H243.364L244.26 68.212H245.324L246.22 69.43ZM243.924 67.82H243.084V67.582C243.084 67.176 243.196 66.882 243.406 66.672C243.588 66.49 243.826 66.406 244.092 66.406C244.232 66.406 244.372 66.434 244.498 66.476C244.596 66.518 244.708 66.574 244.82 66.644C245.086 66.798 245.254 66.882 245.352 66.882C245.534 66.882 245.632 66.784 245.632 66.602V66.434H246.5V66.672C246.5 67.078 246.402 67.372 246.206 67.582C246.038 67.764 245.828 67.848 245.562 67.848C245.338 67.848 245.086 67.764 244.792 67.61L244.638 67.512L244.498 67.442C244.386 67.4 244.288 67.372 244.204 67.372C244.022 67.372 243.924 67.47 243.924 67.652V67.82ZM249.588 80V73.63L251.73 80H253.27V70.2H251.786V76.262L249.728 70.2H248.104V80H249.588Z" fill="#BE202F"/>
</g>
<defs>
<clipPath id="clip0_1623_27508">
<rect width="250" height="250" fill="white" transform="translate(80 20)"/>
</clipPath>
</defs>
</svg>
