<svg width="330" height="270" viewBox="0 0 330 270" fill="none" xmlns="http://www.w3.org/2000/svg">
<path d="M270 136.516C270 207.51 217.8 203.36 135 265.063C68.4 291.343 0 207.51 0 136.516C0 65.521 52.2 49.6749 135 7.96851C215.4 -28.0246 270 65.521 270 136.516Z" fill="#F8F9F9"/>
<g opacity="0.3">
<path opacity="0.3" d="M152.229 81.6091C152.556 81.6477 152.808 81.9286 152.803 82.2654C152.792 83.0023 152.75 83.7498 152.676 84.4866C152.64 84.8456 152.321 85.1068 151.963 85.0715C151.958 85.0707 151.954 85.0707 151.95 85.0699C151.599 85.028 151.343 84.7117 151.378 84.3577C151.448 83.6578 151.489 82.948 151.498 82.2481C151.503 81.8884 151.8 81.6 152.16 81.6049C152.184 81.6041 152.207 81.6058 152.229 81.6091ZM151.516 87.2467C151.541 87.25 151.567 87.2541 151.592 87.2607C151.942 87.3453 152.158 87.6977 152.073 88.0477C151.9 88.7673 151.695 89.486 151.462 90.1851C151.349 90.5268 150.981 90.7116 150.638 90.5983C150.296 90.4841 150.111 90.1153 150.224 89.7735C150.445 89.109 150.641 88.4263 150.805 87.7421C150.883 87.4168 151.191 87.2081 151.516 87.2467ZM149.579 92.587C149.651 92.5953 149.722 92.6166 149.791 92.6503C150.114 92.8105 150.246 93.2023 150.086 93.5243C149.757 94.1856 149.396 94.8411 149.012 95.4728C148.825 95.7809 148.423 95.8778 148.116 95.6913C147.808 95.504 147.711 95.1023 147.897 94.7951C148.262 94.1955 148.604 93.5736 148.917 92.9452C149.043 92.6914 149.313 92.555 149.579 92.587ZM146.495 97.3614C146.614 97.3753 146.731 97.423 146.83 97.5043C147.109 97.7327 147.15 98.1434 146.921 98.4219C146.453 98.9936 145.954 99.5522 145.439 100.081C145.188 100.339 144.776 100.345 144.517 100.094C144.259 99.8422 144.253 99.4298 144.505 99.171C144.993 98.6683 145.467 98.1385 145.912 97.5947C146.06 97.4164 146.281 97.3359 146.495 97.3614ZM142.425 101.328C142.592 101.348 142.751 101.433 142.862 101.575C143.083 101.86 143.032 102.27 142.747 102.491C142.166 102.943 141.555 103.377 140.935 103.78C140.633 103.977 140.23 103.891 140.032 103.589C139.836 103.287 139.922 102.883 140.224 102.686C140.814 102.303 141.393 101.891 141.946 101.46C142.089 101.351 142.26 101.308 142.425 101.328ZM137.579 104.295C137.795 104.321 137.994 104.455 138.093 104.667C138.246 104.993 138.105 105.381 137.779 105.534C137.111 105.847 136.42 106.135 135.727 106.391C135.389 106.516 135.014 106.342 134.889 106.004C134.764 105.666 134.938 105.291 135.276 105.167C135.935 104.925 136.591 104.65 137.226 104.353C137.34 104.299 137.462 104.281 137.579 104.295ZM113.66 103.012C113.75 103.023 113.839 103.052 113.921 103.103C114.52 103.466 115.143 103.808 115.773 104.119C116.096 104.278 116.228 104.669 116.069 104.992C115.91 105.315 115.519 105.448 115.195 105.288C114.531 104.96 113.875 104.6 113.244 104.217C112.936 104.031 112.837 103.629 113.025 103.321C113.162 103.096 113.414 102.983 113.66 103.012ZM132.199 106.114C132.468 106.146 132.699 106.344 132.759 106.623C132.836 106.976 132.612 107.322 132.26 107.399C131.539 107.556 130.801 107.682 130.069 107.777C129.712 107.821 129.385 107.57 129.339 107.212C129.293 106.855 129.546 106.528 129.903 106.482C130.599 106.393 131.299 106.273 131.984 106.124C132.056 106.108 132.129 106.106 132.199 106.114ZM118.82 105.391C118.863 105.396 118.905 105.405 118.948 105.419C119.614 105.639 120.299 105.833 120.981 105.997C121.332 106.08 121.548 106.432 121.464 106.783C121.38 107.133 121.029 107.351 120.678 107.266C119.959 107.094 119.239 106.889 118.538 106.658C118.196 106.544 118.01 106.176 118.123 105.834C118.224 105.535 118.519 105.356 118.82 105.391ZM126.547 106.685C126.874 106.724 127.126 107.004 127.122 107.34C127.118 107.701 126.822 107.989 126.461 107.985C125.724 107.976 124.977 107.935 124.241 107.863C124.236 107.863 124.232 107.862 124.227 107.861C123.875 107.819 123.621 107.504 123.655 107.15C123.69 106.791 124.009 106.529 124.368 106.564C125.067 106.632 125.777 106.671 126.478 106.68C126.501 106.681 126.525 106.682 126.547 106.685Z" fill="#D1A53D"/>
<path opacity="0.3" d="M110.101 100.286C110.228 100.3 110.353 100.354 110.456 100.446C110.708 100.669 110.968 100.891 111.23 101.105C111.508 101.333 111.55 101.744 111.322 102.023C111.094 102.302 110.683 102.343 110.404 102.115C110.128 101.89 109.855 101.657 109.59 101.422C109.321 101.183 109.296 100.77 109.535 100.501C109.682 100.334 109.896 100.261 110.101 100.286Z" fill="#D1A53D"/>
</g>
<g opacity="0.3">
<path opacity="0.3" d="M101.652 82.3323C101.965 82.3692 102.213 82.6288 102.226 82.9532C102.239 83.2892 102.261 83.6309 102.288 83.9676C102.317 84.3266 102.049 84.6412 101.69 84.6707C101.33 84.7003 101.016 84.4325 100.987 84.0736C100.959 83.7188 100.936 83.359 100.922 83.0058C100.908 82.646 101.188 82.3421 101.548 82.3274C101.583 82.3265 101.618 82.3282 101.652 82.3323Z" fill="#D1A53D"/>
<path opacity="0.3" d="M129.915 56.0498C130.213 56.0852 130.511 56.1262 130.81 56.1714C131.166 56.2264 131.411 56.5591 131.357 56.9148C131.302 57.2705 130.967 57.5161 130.613 57.4611C129.923 57.3551 129.231 57.2779 128.546 57.2303C128.187 57.2048 127.916 56.8935 127.941 56.5345C127.966 56.1747 128.278 55.9036 128.637 55.9291C129.059 55.9587 129.489 55.9997 129.915 56.0498ZM134.171 56.9255C134.207 56.9296 134.243 56.937 134.279 56.9477C134.978 57.1539 135.674 57.3929 136.35 57.6566C136.685 57.7872 136.852 58.1659 136.721 58.5011C136.59 58.837 136.211 59.0038 135.876 58.8715C135.234 58.621 134.572 58.3951 133.909 58.1979C133.564 58.0961 133.367 57.733 133.469 57.3872C133.561 57.0791 133.86 56.8885 134.171 56.9255ZM125.203 55.9291C125.509 55.9652 125.754 56.2149 125.777 56.5328C125.801 56.8926 125.529 57.2032 125.169 57.2278C124.482 57.2738 123.787 57.351 123.103 57.4562C122.747 57.5104 122.414 57.2664 122.36 56.9107C122.306 56.5542 122.55 56.2215 122.906 56.1673C123.626 56.0572 124.358 55.9759 125.082 55.9274C125.123 55.9233 125.164 55.9241 125.203 55.9291ZM139.326 59.0942C139.409 59.104 139.49 59.1295 139.567 59.173C140.202 59.5279 140.83 59.9131 141.432 60.3198C141.73 60.521 141.809 60.9268 141.608 61.225C141.406 61.524 141.001 61.6029 140.702 61.4008C140.131 61.0147 139.535 60.6484 138.932 60.3116C138.618 60.1358 138.505 59.7382 138.681 59.4244C138.812 59.1862 139.072 59.0638 139.326 59.0942ZM119.703 56.9222C119.954 56.9518 120.175 57.1268 120.251 57.3839C120.354 57.7289 120.158 58.0928 119.813 58.1955C119.152 58.3918 118.492 58.6193 117.848 58.8724C117.513 59.0038 117.134 58.8387 117.003 58.5027C116.871 58.1675 117.036 57.7889 117.372 57.6574C118.05 57.3913 118.746 57.1522 119.441 56.9452C119.529 56.9189 119.618 56.9115 119.703 56.9222ZM114.555 59.0974C114.755 59.1213 114.941 59.2371 115.047 59.4268C115.223 59.7415 115.111 60.139 114.796 60.3148C114.193 60.6525 113.598 61.0188 113.025 61.4041C112.727 61.6062 112.321 61.5273 112.12 61.2283C111.919 60.9293 111.997 60.5243 112.296 60.3231C112.898 59.9173 113.524 59.5312 114.159 59.1771C114.284 59.1065 114.422 59.0818 114.555 59.0974ZM110.002 62.3438C110.154 62.3619 110.301 62.4334 110.411 62.5566C110.651 62.8252 110.628 63.2376 110.359 63.4775C109.844 63.9383 109.342 64.4254 108.868 64.9265C108.62 65.1877 108.207 65.2001 107.945 64.952C107.684 64.7039 107.672 64.2915 107.92 64.0295C108.418 63.5029 108.946 62.9895 109.489 62.5048C109.636 62.3751 109.823 62.3225 110.002 62.3438ZM106.267 66.5054C106.372 66.5177 106.476 66.5563 106.569 66.6228C106.862 66.8323 106.93 67.2397 106.72 67.533C106.318 68.0949 105.935 68.6806 105.583 69.2737C105.399 69.5834 104.998 69.6852 104.689 69.5012C104.379 69.3172 104.277 68.9163 104.461 68.6075C104.833 67.9832 105.236 67.3662 105.659 66.7748C105.802 66.5727 106.039 66.4782 106.267 66.5054ZM103.535 71.3873C103.594 71.3947 103.653 71.4103 103.711 71.4341C104.043 71.5737 104.199 71.9565 104.059 72.2884C103.791 72.9234 103.547 73.5789 103.333 74.2361C103.222 74.5786 102.853 74.7651 102.511 74.6542C102.169 74.5425 101.981 74.1745 102.092 73.8319C102.317 73.1403 102.574 72.4502 102.856 71.7816C102.972 71.508 103.254 71.3536 103.535 71.3873ZM101.944 76.7465C101.957 76.7481 101.97 76.7498 101.984 76.7522C102.338 76.8163 102.574 77.1564 102.51 77.5104C102.419 78.0107 102.343 78.52 102.283 79.0235C102.261 79.2059 102.242 79.3883 102.224 79.5706C102.189 79.9296 101.87 80.1917 101.511 80.1572C101.148 80.1292 100.89 79.8039 100.925 79.445C100.944 79.2536 100.964 79.0622 100.987 78.8699C101.051 78.3401 101.131 77.8045 101.226 77.278C101.287 76.937 101.603 76.7062 101.944 76.7465Z" fill="#D1A53D"/>
<path opacity="0.3" d="M143.893 62.3494C144.022 62.365 144.147 62.4184 144.252 62.5113C144.514 62.747 144.777 62.9926 145.033 63.2415C145.291 63.4929 145.296 63.9061 145.045 64.164C144.794 64.4219 144.381 64.4277 144.123 64.1763C143.879 63.9397 143.63 63.7065 143.381 63.4822C143.113 63.2415 143.09 62.8292 143.331 62.5614C143.478 62.3971 143.69 62.3248 143.893 62.3494Z" fill="#D1A53D"/>
</g>
<path d="M142.459 69.7463C142.389 69.6362 142.258 69.5829 142.131 69.6132L138.522 70.4733C137.284 69.2608 135.843 68.2373 134.237 67.4627L133.821 63.7784C133.806 63.6495 133.711 63.5435 133.584 63.5148L129.24 62.5462C129.113 62.5183 128.982 62.5734 128.914 62.6843L126.971 65.8428C125.188 65.8617 123.449 66.1763 121.813 66.7472L118.911 64.4348C118.809 64.3535 118.667 64.3461 118.558 64.4159L114.801 66.8022C114.691 66.872 114.638 67.0035 114.668 67.13L115.528 70.7395C114.316 71.9774 113.292 73.4182 112.518 75.0242L108.833 75.4407C108.704 75.4555 108.598 75.5499 108.57 75.6772L107.601 80.0211C107.572 80.1476 107.628 80.279 107.739 80.3472L110.898 82.29C110.917 84.0734 111.231 85.8124 111.802 87.4479L109.49 90.3501C109.408 90.452 109.401 90.5941 109.471 90.7033L111.857 94.4599C111.927 94.5699 112.058 94.6233 112.185 94.5929L115.794 93.7329C117.032 94.9453 118.473 95.9689 120.079 96.7435L120.496 100.429C120.51 100.558 120.605 100.664 120.732 100.692L125.076 101.661C125.203 101.689 125.334 101.634 125.402 101.523L127.345 98.3643C129.128 98.3454 130.867 98.0307 132.503 97.4598L135.405 99.7722C135.507 99.8536 135.649 99.861 135.758 99.7911L139.515 97.4048C139.625 97.335 139.678 97.2035 139.648 97.077L138.788 93.4675C140 92.2296 141.024 90.7888 141.799 89.1828L145.484 88.7663C145.613 88.7516 145.719 88.6571 145.746 88.5298L146.715 84.1859C146.743 84.0586 146.688 83.928 146.577 83.8598L143.418 81.917C143.4 80.1336 143.085 78.3946 142.514 76.7591L144.826 73.8569C144.908 73.755 144.915 73.6129 144.845 73.5037L142.459 69.7463Z" fill="#D1A53D"/>
<path d="M127.72 77.6615C129.885 77.9195 131.598 79.7356 131.66 81.979C131.729 84.4449 129.778 86.5067 127.313 86.5757C126.119 86.6093 124.983 86.1748 124.115 85.3542C123.246 84.5336 122.75 83.423 122.717 82.2287C122.648 79.7627 124.598 77.701 127.064 77.632C127.285 77.6262 127.505 77.6361 127.72 77.6615ZM126.775 85.5095C126.943 85.5292 127.112 85.5374 127.284 85.5325C129.175 85.4799 130.67 83.8986 130.617 82.0085C130.564 80.1176 128.984 78.6218 127.093 78.6752C125.202 78.7277 123.707 80.309 123.76 82.1991C123.785 83.115 124.166 83.966 124.832 84.596C125.372 85.1078 126.049 85.4232 126.775 85.5095Z" fill="#B0872F"/>
<path d="M128.325 71.2321C128.697 71.2765 129.069 71.3397 129.44 71.4219C129.556 71.4482 129.672 71.4761 129.788 71.5057C130.359 71.6527 130.917 71.8441 131.454 72.0782C131.461 72.0815 131.469 72.0848 131.476 72.0881C131.497 72.0971 131.517 72.1061 131.538 72.116C131.579 72.1341 131.619 72.1521 131.659 72.1702C131.764 72.2187 131.822 72.3287 131.809 72.438C131.806 72.4643 131.799 72.4914 131.787 72.5168C131.727 72.6474 131.572 72.7041 131.441 72.6442C130.768 72.3337 130.057 72.0938 129.327 71.932C125.703 71.1229 122.091 72.3066 119.638 74.752C118.274 76.1122 117.269 77.8627 116.819 79.8785C116.74 80.2317 116.68 80.5866 116.638 80.9414C116.354 83.3285 116.895 85.7213 118.202 87.7782C119.702 90.1406 122.034 91.7778 124.765 92.3864C130.406 93.644 136.015 90.079 137.273 84.4399C137.35 84.0924 137.41 83.7417 137.452 83.3901C137.633 81.8672 137.479 80.3213 136.995 78.8649C136.983 78.8271 136.98 78.7885 136.984 78.7515C136.995 78.6546 137.062 78.5675 137.16 78.5346C137.297 78.4895 137.444 78.5626 137.49 78.6998C137.998 80.2293 138.161 81.8516 137.97 83.4509C137.927 83.8197 137.863 84.1877 137.783 84.5524C136.463 90.4733 130.57 94.2141 124.652 92.8949C121.785 92.255 119.338 90.5374 117.762 88.0567C116.39 85.898 115.822 83.386 116.12 80.8798C116.165 80.5077 116.228 80.1348 116.311 79.7643C116.951 76.8967 118.668 74.4488 121.148 72.8733C123.306 71.5016 125.818 70.9339 128.325 71.2321Z" fill="#B0872F"/>
<g opacity="0.3">
<path opacity="0.3" d="M176.97 67.1275C177.143 67.148 177.288 67.2803 177.319 67.461C177.375 67.7986 177.423 68.142 177.46 68.482C177.484 68.703 177.323 68.9018 177.103 68.9256C176.881 68.9502 176.683 68.7892 176.659 68.5683C176.625 68.2438 176.579 67.9169 176.525 67.5949C176.488 67.3756 176.636 67.1678 176.855 67.1308C176.894 67.1242 176.933 67.1234 176.97 67.1275Z" fill="#D1A53D"/>
<path opacity="0.3" d="M177.116 70.2122C177.319 70.2361 177.474 70.411 177.471 70.6189C177.461 71.2078 177.421 71.8025 177.351 72.3874C177.336 72.5106 177.321 72.6338 177.304 72.757C177.272 72.9772 177.058 73.1209 176.849 73.1004C176.628 73.0692 176.475 72.8655 176.505 72.6453C176.522 72.527 176.537 72.4096 176.551 72.2921C176.618 71.7344 176.656 71.1667 176.665 70.6057C176.669 70.3831 176.853 70.2057 177.074 70.2098C177.088 70.2098 177.102 70.2106 177.116 70.2122ZM176.534 74.3547C176.553 74.3572 176.572 74.3605 176.591 74.3654C176.806 74.4229 176.933 74.6438 176.876 74.8591C176.692 75.5491 176.462 76.2333 176.196 76.8929C176.112 77.0991 175.876 77.1977 175.671 77.1155C175.464 77.0317 175.365 76.7976 175.448 76.5906C175.703 75.9614 175.921 75.3084 176.097 74.6504C176.15 74.4549 176.338 74.3317 176.534 74.3547ZM174.964 78.2327C175.015 78.2384 175.065 78.2548 175.113 78.2811C175.308 78.3895 175.377 78.6352 175.268 78.829C174.921 79.4517 174.53 80.0587 174.108 80.6345C173.977 80.8144 173.725 80.853 173.545 80.7208C173.366 80.5893 173.327 80.3371 173.459 80.1581C173.861 79.6094 174.233 79.0303 174.564 78.4364C174.647 78.2893 174.807 78.2138 174.964 78.2327ZM172.49 81.6054C172.573 81.6153 172.654 81.6506 172.718 81.7122C172.88 81.865 172.888 82.1205 172.735 82.2823C172.244 82.8014 171.718 83.2951 171.169 83.7485C170.998 83.8898 170.744 83.8652 170.602 83.6943C170.46 83.5226 170.485 83.2688 170.657 83.1267C171.18 82.6946 171.683 82.224 172.15 81.7286C172.24 81.6325 172.368 81.5906 172.49 81.6054ZM169.267 84.2718C169.383 84.2857 169.491 84.349 169.559 84.455C169.679 84.6422 169.624 84.8911 169.437 85.0111C168.836 85.3947 168.205 85.7454 167.563 86.0526C167.362 86.1496 167.122 86.0641 167.026 85.8629C166.93 85.6616 167.015 85.4218 167.216 85.3257C167.828 85.0324 168.43 84.6981 169.003 84.3317C169.084 84.28 169.177 84.2611 169.267 84.2718ZM165.494 86.0748C165.643 86.0929 165.777 86.1947 165.828 86.3475C165.899 86.5586 165.785 86.7862 165.574 86.8576C164.898 87.0835 164.2 87.27 163.503 87.4104C163.284 87.454 163.072 87.3127 163.028 87.095C162.984 86.8773 163.126 86.6646 163.343 86.6211C164.009 86.4872 164.673 86.3097 165.318 86.0945C165.377 86.0732 165.437 86.0674 165.494 86.0748ZM161.397 86.9003C161.584 86.9225 161.736 87.0753 161.751 87.27C161.767 87.4918 161.601 87.6856 161.379 87.7021C160.67 87.7555 159.948 87.7645 159.235 87.73C159.012 87.7152 158.841 87.5296 158.852 87.3078C158.863 87.086 159.051 86.9143 159.274 86.925C159.955 86.9587 160.643 86.9496 161.319 86.8987C161.345 86.8962 161.371 86.8971 161.397 86.9003ZM155.179 86.212C155.202 86.2145 155.226 86.2194 155.249 86.2268C155.811 86.3968 156.393 86.5397 156.977 86.6506C157.066 86.6679 157.153 86.6835 157.24 86.6983C157.46 86.7361 157.607 86.9447 157.569 87.164C157.531 87.3842 157.321 87.5369 157.104 87.4926C157.011 87.4762 156.918 87.4597 156.826 87.4417C156.216 87.3258 155.606 87.1763 155.017 86.9973C154.804 86.9324 154.683 86.7081 154.748 86.4954C154.805 86.3056 154.99 86.189 155.179 86.212Z" fill="#D1A53D"/>
</g>
<g opacity="0.3">
<path opacity="0.3" d="M161.36 53.0482C161.579 53.0745 161.737 53.2717 161.713 53.491C161.69 53.712 161.491 53.873 161.27 53.8491C160.604 53.7785 159.928 53.7481 159.261 53.7588C159.04 53.7604 158.855 53.5846 158.852 53.362C158.848 53.1394 159.026 52.9562 159.248 52.9529C159.948 52.9423 160.657 52.9743 161.355 53.0482C161.355 53.0474 161.359 53.0474 161.36 53.0482ZM163.394 53.3875C163.408 53.3891 163.422 53.3916 163.436 53.3949C164.12 53.5518 164.801 53.7514 165.46 53.9888C165.67 54.0644 165.778 54.2952 165.703 54.5038C165.627 54.7133 165.395 54.8209 165.187 54.747C164.558 54.5203 163.908 54.3297 163.256 54.1802C163.039 54.1309 162.903 53.914 162.953 53.698C163 53.4951 163.191 53.3637 163.394 53.3875ZM157.247 53.1131C157.425 53.1345 157.573 53.2725 157.599 53.4573C157.629 53.6775 157.476 53.8812 157.256 53.9116C156.592 54.0044 155.928 54.1383 155.283 54.31C155.067 54.3667 154.848 54.2393 154.79 54.0241C154.733 53.8089 154.861 53.5887 155.076 53.5312C155.752 53.3513 156.448 53.2109 157.144 53.1139C157.179 53.109 157.214 53.109 157.247 53.1131ZM167.265 54.7848C167.31 54.7905 167.356 54.8037 167.399 54.825C168.026 55.1413 168.639 55.5003 169.221 55.8913C169.406 56.0153 169.455 56.265 169.331 56.4507C169.207 56.6347 168.957 56.684 168.772 56.5608C168.217 56.1886 167.632 55.8469 167.035 55.5446C166.836 55.4444 166.757 55.2021 166.858 55.0033C166.936 54.8472 167.102 54.7651 167.265 54.7848ZM153.272 54.1703C153.414 54.1876 153.543 54.2788 153.599 54.42C153.682 54.6271 153.582 54.8612 153.375 54.9441C152.755 55.193 152.143 55.4822 151.556 55.8042C151.361 55.9118 151.116 55.8403 151.009 55.6448C150.902 55.4493 150.973 55.2045 151.169 55.0977C151.783 54.7601 152.425 54.4562 153.075 54.1958C153.14 54.1703 153.207 54.1629 153.272 54.1703ZM149.667 56.1509C149.775 56.164 149.878 56.2207 149.946 56.316C150.076 56.4967 150.035 56.7489 149.854 56.8787C149.31 57.2697 148.785 57.6977 148.293 58.1495C148.129 58.3006 147.875 58.2891 147.724 58.1256C147.574 57.9622 147.585 57.7075 147.748 57.5564C148.263 57.0824 148.813 56.6339 149.384 56.224C149.469 56.1624 149.57 56.1394 149.667 56.1509ZM146.639 58.938C146.715 58.9471 146.789 58.9775 146.853 59.0317C147.022 59.1763 147.042 59.4301 146.898 59.6001C146.463 60.1094 146.056 60.6508 145.688 61.2086C145.565 61.3934 145.315 61.4451 145.13 61.3227C144.944 61.2003 144.893 60.9506 145.016 60.7641C145.402 60.1801 145.829 59.6125 146.285 59.0777C146.375 58.9701 146.51 58.9224 146.639 58.938Z" fill="#D1A53D"/>
<path opacity="0.3" d="M170.747 57.0947C170.825 57.1037 170.9 57.1358 170.963 57.19C171.224 57.4159 171.479 57.65 171.722 57.8866C171.882 58.0418 171.885 58.2973 171.73 58.4567C171.575 58.6152 171.32 58.6193 171.16 58.4641C170.928 58.2382 170.685 58.0147 170.436 57.7995C170.268 57.6541 170.25 57.3995 170.395 57.2311C170.485 57.1267 170.619 57.0799 170.747 57.0947Z" fill="#D1A53D"/>
</g>
<path d="M170.058 62.2191C170.011 62.1459 169.924 62.1098 169.839 62.1303L167.424 62.7062C166.595 61.8954 165.631 61.2103 164.557 60.692L164.278 58.2268C164.268 58.1405 164.205 58.0699 164.119 58.051L161.212 57.4028C161.127 57.3839 161.04 57.4209 160.994 57.4948L159.693 59.6085C158.5 59.6208 157.336 59.8319 156.241 60.2139L154.3 58.6662C154.231 58.612 154.136 58.6071 154.063 58.6539L151.549 60.2508C151.476 60.2977 151.44 60.3856 151.461 60.4702L152.036 62.8853C151.225 63.7141 150.541 64.6777 150.022 65.7522L147.556 66.0306C147.47 66.0405 147.399 66.1037 147.38 66.1892L146.731 69.0963C146.713 69.1809 146.75 69.2688 146.823 69.3148L148.937 70.6152C148.949 71.8088 149.16 72.972 149.542 74.067L147.995 76.0089C147.941 76.0771 147.936 76.1716 147.983 76.2455L149.579 78.7592C149.626 78.8323 149.714 78.8684 149.799 78.8479L152.214 78.272C153.043 79.0836 154.006 79.7679 155.081 80.2863L155.36 82.7523C155.37 82.8385 155.433 82.9092 155.519 82.9281L158.426 83.5762C158.51 83.5951 158.598 83.5581 158.644 83.4842L159.945 81.3706C161.138 81.3583 162.301 81.1471 163.396 80.7652L165.338 82.312C165.406 82.3662 165.502 82.3711 165.575 82.3243L168.088 80.7274C168.162 80.6806 168.198 80.5927 168.177 80.5081L167.601 78.093C168.412 77.2641 169.097 76.3005 169.616 75.2261L172.082 74.9468C172.168 74.9369 172.238 74.8737 172.257 74.7882L172.905 71.8811C172.924 71.7965 172.887 71.7086 172.813 71.6626L170.7 70.3622C170.687 69.1686 170.476 68.0054 170.094 66.9104L171.641 64.9685C171.695 64.9003 171.7 64.8058 171.654 64.7319L170.058 62.2191Z" fill="#D1A53D"/>
<path d="M160.367 67.4518C161.013 67.529 161.614 67.8091 162.095 68.2634C162.686 68.8228 163.024 69.5793 163.047 70.3925C163.094 72.0715 161.765 73.4762 160.086 73.5238C158.403 73.5673 157.001 72.2416 156.954 70.5626C156.931 69.7485 157.227 68.9747 157.786 68.3841C158.346 67.7927 159.102 67.4543 159.916 67.4321C160.068 67.428 160.219 67.4346 160.367 67.4518ZM159.735 72.704C159.842 72.7172 159.953 72.7221 160.063 72.7188C161.299 72.6843 162.276 71.6509 162.242 70.4155C162.225 69.8175 161.976 69.2606 161.541 68.8499C161.106 68.4383 160.537 68.2215 159.939 68.2379C159.34 68.2543 158.784 68.5032 158.372 68.9386C157.961 69.3739 157.743 69.9432 157.76 70.542C157.791 71.6641 158.65 72.5742 159.735 72.704Z" fill="#B0872F"/>
<path d="M160.545 62.9815C160.798 63.0119 161.052 63.0546 161.306 63.1112C161.81 63.2238 162.304 63.3872 162.774 63.5984C162.795 63.6082 162.816 63.6172 162.837 63.6271C163 63.7019 163.088 63.8711 163.069 64.0403C163.064 64.0813 163.052 64.1224 163.034 64.1618C162.941 64.3639 162.701 64.451 162.5 64.359C162.063 64.1577 161.603 64.0025 161.132 63.8973C161.106 63.8916 161.08 63.8859 161.054 63.8809C159.936 63.6427 158.801 63.6928 157.734 64.0091C157.155 64.1807 156.595 64.4321 156.069 64.7598C156.065 64.7623 156.061 64.7648 156.056 64.7681C156.043 64.7763 156.03 64.7845 156.017 64.7927C154.488 65.7644 153.428 67.2734 153.034 69.0419C152.983 69.2711 152.944 69.5003 152.917 69.7303C152.733 71.2754 153.083 72.8246 153.929 74.1561C154.901 75.6856 156.41 76.7444 158.179 77.1387C159.946 77.5322 161.763 77.2151 163.293 76.2442C164.822 75.2724 165.882 73.7635 166.276 71.995C166.326 71.7699 166.365 71.5432 166.392 71.3156C166.509 70.3299 166.409 69.3294 166.096 68.3864C166.077 68.3281 166.072 68.269 166.078 68.2123C166.096 68.062 166.198 67.9281 166.351 67.8772C166.562 67.8073 166.79 67.9215 166.86 68.1326C167.211 69.1881 167.323 70.3069 167.191 71.4101C167.161 71.6647 167.118 71.9186 167.061 72.1699C166.62 74.1487 165.435 75.8368 163.723 76.9243C162.012 78.0111 159.981 78.3684 158.002 77.9256C156.023 77.4845 154.335 76.2992 153.248 74.5882C152.302 73.099 151.91 71.3657 152.116 69.6366C152.146 69.3804 152.19 69.1233 152.247 68.867C153.101 65.0358 156.729 62.5272 160.545 62.9815Z" fill="#B0872F"/>
<path d="M281.43 61.9346C281.329 61.9346 281.228 61.9083 281.129 61.8565L275.938 59.1269C275.564 58.9306 275.144 58.8271 274.722 58.8271C274.3 58.8271 273.88 58.9306 273.506 59.1269L268.315 61.8565C268.217 61.9083 268.116 61.9346 268.014 61.9346C267.828 61.9346 267.641 61.8458 267.515 61.6964C267.43 61.5953 267.337 61.4228 267.379 61.1772L268.371 55.3968C268.516 54.5491 268.235 53.685 267.619 53.0845L263.419 48.9905C263.16 48.7383 263.219 48.4443 263.256 48.3301C263.293 48.2151 263.418 47.9432 263.776 47.8914L269.581 47.0478C270.432 46.9246 271.167 46.3899 271.547 45.6194L274.143 40.3598C274.303 40.0353 274.6 40 274.721 40C274.842 40 275.139 40.0353 275.299 40.3598L277.895 45.6194C278.275 46.3907 279.011 46.9246 279.862 47.0478L285.666 47.8914C286.024 47.9432 286.149 48.2159 286.186 48.3301C286.223 48.4443 286.283 48.7383 286.023 48.9905L281.823 53.0845C281.207 53.685 280.927 54.5491 281.072 55.3968L282.064 61.1772C282.106 61.4228 282.013 61.5945 281.927 61.6964C281.803 61.8458 281.616 61.9346 281.43 61.9346Z" fill="#D1A53D"/>
<path opacity="0.76" d="M268.991 53.9884C268.928 53.9884 268.871 53.949 268.85 53.8866C268.679 53.3568 268.376 52.8721 267.978 52.4828L266.38 50.9254C266.322 50.8687 266.321 50.7751 266.378 50.7167C266.435 50.6584 266.528 50.6576 266.586 50.7143L268.184 52.2717C268.617 52.6939 268.945 53.2204 269.131 53.7954C269.157 53.8726 269.114 53.9564 269.037 53.981C269.021 53.986 269.006 53.9884 268.991 53.9884Z" fill="#F8F9F9"/>
<path opacity="0.76" d="M272.265 58.777C272.212 58.777 272.16 58.7482 272.134 58.6981C272.096 58.6258 272.124 58.5371 272.196 58.4985L272.891 58.133C273.425 57.852 274.028 57.7034 274.632 57.7034C275.237 57.7034 275.839 57.852 276.374 58.133C276.447 58.1708 276.475 58.2603 276.436 58.3326C276.398 58.4049 276.309 58.4328 276.236 58.3942C275.743 58.1354 275.188 57.9983 274.632 57.9983C274.075 57.9983 273.521 58.1354 273.028 58.3942L272.333 58.7597C272.312 58.7712 272.289 58.777 272.265 58.777Z" fill="#F8F9F9"/>
<path opacity="0.76" d="M279.45 59.9324C279.334 59.9324 279.217 59.9151 279.103 59.8806C279.025 59.8568 278.981 59.7747 279.005 59.6966C279.029 59.6186 279.111 59.5751 279.189 59.5989C279.488 59.6901 279.809 59.6186 280.05 59.4075C280.291 59.1956 280.398 58.8916 280.343 58.5738L279.829 55.578C279.621 54.364 280.023 53.1252 280.906 52.2652L283.083 50.1435C283.336 49.897 283.422 49.5488 283.313 49.2128C283.204 48.8768 282.929 48.646 282.58 48.5951L279.573 48.1581C278.354 47.9807 277.3 47.2159 276.755 46.1103L275.409 43.3848C275.253 43.0677 274.948 42.8788 274.595 42.8788C274.242 42.8788 273.937 43.0677 273.781 43.3848L272.436 46.1103C271.89 47.2151 270.836 47.9807 269.617 48.1581L266.61 48.5951C266.431 48.6214 266.267 48.6961 266.137 48.8128C266.076 48.867 265.982 48.8621 265.928 48.8013C265.874 48.7405 265.879 48.6468 265.94 48.5926C266.113 48.4374 266.33 48.338 266.567 48.3035L269.575 47.8665C270.698 47.703 271.669 46.9982 272.171 45.9805L273.517 43.255C273.721 42.841 274.134 42.5847 274.595 42.5847C275.056 42.5847 275.47 42.8418 275.674 43.255L277.019 45.9805C277.522 46.9982 278.492 47.7038 279.616 47.8665L282.623 48.3035C283.08 48.37 283.452 48.6838 283.595 49.1224C283.737 49.5611 283.62 50.0334 283.29 50.3554L281.113 52.4771C280.3 53.2698 279.929 54.41 280.122 55.5287L280.635 58.5245C280.706 58.9393 280.561 59.3525 280.246 59.6293C280.019 59.8273 279.737 59.9324 279.45 59.9324Z" fill="#F8F9F9"/>
<path d="M316.162 63.2586C316.102 63.2479 316.045 63.2224 315.993 63.1813L313.214 61.0317C313.014 60.8772 312.777 60.7721 312.528 60.7286C312.279 60.685 312.021 60.7023 311.78 60.7795L308.433 61.8498C308.37 61.8703 308.308 61.8753 308.248 61.8646C308.138 61.8449 308.037 61.7734 307.978 61.6724C307.938 61.6042 307.902 61.4925 307.952 61.352L309.138 58.0449C309.312 57.5603 309.236 57.0206 308.935 56.6025L306.883 53.7505C306.757 53.5747 306.822 53.4072 306.856 53.3439C306.89 53.2798 306.993 53.1328 307.209 53.1394L310.72 53.2453C311.235 53.261 311.724 53.0219 312.029 52.6071L314.107 49.774C314.235 49.599 314.414 49.6097 314.486 49.622C314.557 49.6343 314.729 49.6861 314.79 49.8939L315.774 53.2667C315.918 53.7612 316.296 54.153 316.785 54.314L320.121 55.4156C320.327 55.4837 320.373 55.6571 320.383 55.7285C320.392 55.8 320.397 55.9791 320.218 56.1014L317.314 58.0794C316.888 58.3694 316.633 58.8499 316.63 59.365L316.614 62.8782C316.613 63.0277 316.541 63.1197 316.479 63.1698C316.391 63.2446 316.272 63.2783 316.162 63.2586Z" fill="#D1A53D"/>
<path opacity="0.76" d="M309.824 57.3092C309.787 57.3027 309.758 57.2731 309.752 57.2345C309.705 56.9043 309.578 56.5864 309.383 56.3161L308.603 55.2311C308.574 55.1916 308.583 55.1366 308.622 55.1079C308.662 55.0791 308.717 55.0881 308.746 55.1284L309.526 56.2135C309.737 56.5075 309.876 56.8525 309.926 57.2107C309.933 57.2591 309.899 57.3035 309.851 57.3109C309.842 57.3109 309.833 57.3109 309.824 57.3092Z" fill="#F8F9F9"/>
<path opacity="0.76" d="M311.327 60.4582C311.296 60.4524 311.269 60.4303 311.258 60.3982C311.243 60.3514 311.269 60.3021 311.316 60.2873L311.763 60.1444C312.108 60.0343 312.479 60.0088 312.835 60.0721C313.192 60.1354 313.532 60.2857 313.818 60.5067C313.857 60.5362 313.864 60.5921 313.834 60.6307C313.804 60.6693 313.748 60.6767 313.709 60.6463C313.446 60.4418 313.133 60.3038 312.804 60.2454C312.476 60.1871 312.134 60.2109 311.817 60.312L311.369 60.4549C311.355 60.4598 311.341 60.4607 311.327 60.4582Z" fill="#F8F9F9"/>
<path opacity="0.76" d="M315.419 61.8966C315.35 61.8843 315.283 61.8621 315.22 61.8301C315.176 61.8079 315.159 61.7545 315.181 61.7109C315.203 61.6674 315.257 61.6502 315.3 61.6723C315.467 61.7569 315.664 61.7487 315.828 61.6485C315.992 61.5483 316.086 61.3807 316.087 61.1877L316.096 59.3666C316.099 58.6281 316.465 57.9398 317.075 57.5241L318.58 56.499C318.755 56.3799 318.842 56.1836 318.813 55.9741C318.783 55.7646 318.646 55.5995 318.445 55.533L316.716 54.9621C316.015 54.7304 315.473 54.1694 315.266 53.4613L314.756 51.7133C314.697 51.5104 314.536 51.3667 314.328 51.3297C314.119 51.2928 313.92 51.3733 313.795 51.5433L312.718 53.0112C312.281 53.6067 311.58 53.9484 310.842 53.9263L309.022 53.8712C308.914 53.8679 308.809 53.8951 308.721 53.9501C308.679 53.9756 308.625 53.9632 308.599 53.9213C308.574 53.8794 308.586 53.8252 308.628 53.7998C308.746 53.7267 308.885 53.6897 309.028 53.6946L310.847 53.7497C311.527 53.7702 312.173 53.4556 312.576 52.9069L313.653 51.439C313.816 51.2164 314.086 51.1079 314.359 51.1556C314.631 51.2032 314.849 51.3979 314.926 51.6632L315.436 53.4112C315.626 54.0643 316.126 54.5809 316.772 54.7937L318.501 55.3646C318.764 55.4508 318.95 55.6751 318.989 55.9486C319.027 56.2222 318.909 56.4891 318.681 56.6444L317.176 57.6695C316.614 58.0523 316.276 58.6873 316.273 59.3666L316.265 61.1877C316.264 61.4399 316.135 61.6682 315.921 61.7988C315.765 61.8941 315.589 61.9262 315.419 61.8966Z" fill="#F8F9F9"/>
<path d="M201.955 49.0446L243.4 58.3755C245.686 58.8905 247.168 61.1068 246.77 63.416L236.301 124.192C235.99 126 234.244 127.191 232.448 126.82L184.753 116.989C183.064 116.641 181.991 114.976 182.369 113.295L195.984 52.82C196.59 50.1289 199.263 48.4383 201.955 49.0446Z" fill="black"/>
<path d="M192.128 117.701C192.106 117.701 192.085 117.699 192.063 117.694L186.763 116.428C184.906 115.985 183.736 114.108 184.156 112.246L185.962 104.222C185.996 104.072 186.144 103.979 186.293 104.012C186.443 104.046 186.536 104.194 186.503 104.343L184.696 112.368C184.343 113.937 185.328 115.516 186.892 115.889L192.192 117.155C192.34 117.19 192.432 117.34 192.397 117.489C192.367 117.616 192.253 117.701 192.128 117.701Z" fill="#F8F9F9"/>
<path d="M186.574 102.079C186.553 102.079 186.534 102.077 186.513 102.073C186.364 102.039 186.27 101.891 186.304 101.741L186.596 100.442C186.63 100.292 186.778 100.199 186.927 100.232C187.077 100.266 187.17 100.414 187.137 100.563L186.844 101.863C186.815 101.992 186.7 102.079 186.574 102.079Z" fill="#F8F9F9"/>
<path d="M202.149 48.5965C207.637 50.6378 226.564 57.3935 242.933 59.7814C243.68 59.8907 244.192 60.5898 244.065 61.3332L233.684 122.411C233.542 123.248 232.75 123.814 231.912 123.677C225.055 122.554 196.835 117.827 187.127 114.548C186.537 114.348 186.192 113.736 186.326 113.127L200.226 49.6479C200.414 48.7846 201.322 48.2884 202.149 48.5965Z" fill="#B0872F"/>
<path d="M202.438 50.2883C207.719 52.2533 225.934 58.7543 241.687 61.0519C242.405 61.157 242.898 61.8298 242.776 62.5453L232.786 121.323C232.649 122.129 231.888 122.673 231.081 122.541C224.481 121.46 197.324 116.912 187.983 113.756C187.415 113.564 187.083 112.974 187.211 112.388L200.588 51.2995C200.768 50.4699 201.642 49.9918 202.438 50.2883Z" fill="#D1A53D"/>
<g opacity="0.6">
<path opacity="0.6" d="M237.748 65.5465C238.343 65.6804 238.866 65.6007 238.911 65.3691C238.956 65.1374 238.508 64.8302 237.916 64.6856L224.215 61.3432C223.623 61.1987 223.171 61.3523 223.209 61.6849C223.249 62.0168 223.767 62.3988 224.362 62.5318L237.748 65.5465Z" fill="#F8F9F9"/>
</g>
<g opacity="0.6">
<path opacity="0.6" d="M223.769 63.6782C223.177 63.5336 222.725 63.6872 222.764 64.0199C222.803 64.3518 223.322 64.7337 223.916 64.8668L237.303 67.8806C237.898 68.0145 238.421 67.9348 238.466 67.7032C238.511 67.4716 238.064 67.1643 237.472 67.0198L223.769 63.6782Z" fill="#F8F9F9"/>
</g>
<g opacity="0.6">
<path opacity="0.6" d="M223.328 66.0124C222.736 65.8678 222.283 66.0214 222.323 66.3541C222.362 66.686 222.88 67.0679 223.474 67.201L236.861 70.2149C237.456 70.3487 237.979 70.2691 238.024 70.0374C238.069 69.8058 237.622 69.4986 237.03 69.354L223.328 66.0124Z" fill="#F8F9F9"/>
</g>
<g opacity="0.6">
<path opacity="0.6" d="M237.189 75.4108C237.783 75.5447 238.299 75.4634 238.336 75.2301C238.373 74.9968 237.917 74.6929 237.323 74.5541L203.556 66.6713C202.963 66.5325 202.621 66.7165 202.796 67.0796C202.972 67.4427 203.602 67.8493 204.196 67.9832L237.189 75.4108Z" fill="#F8F9F9"/>
</g>
<g opacity="0.6">
<path opacity="0.6" d="M203.11 69.006C202.517 68.8672 202.176 69.0512 202.351 69.4143C202.526 69.7774 203.156 70.184 203.751 70.3179L236.743 77.7456C237.338 77.8795 237.854 77.7981 237.891 77.5648C237.927 77.3316 237.472 77.0276 236.878 76.8888L203.11 69.006Z" fill="#F8F9F9"/>
</g>
<path d="M207.331 75.4809C207.184 75.3906 207.019 75.3265 206.84 75.2928C206.833 75.2887 206.828 75.2896 206.822 75.2854C206.677 75.2608 206.511 75.2362 206.332 75.2082C205.453 75.0768 204.223 74.9487 203.114 74.8386C202.504 74.7704 201.952 74.7129 201.552 74.6661C201.26 74.6291 200.972 74.7088 200.754 74.8838C200.56 75.0423 200.445 75.2567 200.426 75.4998L200.086 79.5182C200.033 80.1417 200.502 80.7134 201.176 80.8506L205.865 81.7911C205.866 81.796 205.871 81.7952 205.876 81.7944C206.532 81.9192 207.168 81.5414 207.294 80.9467C207.69 79.1305 208.042 77.4236 207.97 76.4716C207.941 76.06 207.695 75.6962 207.331 75.4809ZM207.58 76.5003C207.647 77.3981 207.306 79.0788 206.915 80.8662C206.832 81.2563 206.36 81.336 205.951 81.4247C205.951 81.4247 205.946 81.4256 205.94 81.4272L201.255 80.476C200.771 80.375 200.436 79.9815 200.471 79.5568L200.816 75.5327C200.825 75.3972 200.89 75.2805 201.003 75.1893C201.136 75.0826 201.313 75.0292 201.502 75.0546C201.907 75.1006 202.46 75.1622 203.075 75.2288C204.054 75.3282 205.209 75.4464 206.08 75.5631C206.333 75.6025 206.557 75.6387 206.755 75.6732C206.916 75.6994 207.069 75.761 207.196 75.8563C207.413 76.0132 207.559 76.249 207.58 76.5003Z" fill="#F8F9F9"/>
<path opacity="0.6" d="M201.973 75.5519C202.973 75.6735 205.158 75.8657 206.177 76.0481C206.609 76.1253 206.937 76.4579 206.967 76.8506C207.024 77.6137 206.721 79.0553 206.432 80.3835C206.345 80.7811 205.917 81.0299 205.469 80.9404L201.724 80.1864C201.263 80.0935 200.94 79.7058 200.975 79.2877L201.248 76.076C201.277 75.7433 201.603 75.5067 201.973 75.5519Z" fill="#F8F9F9"/>
<g opacity="0.6">
<path opacity="0.6" d="M211.318 78.6556C210.723 78.5267 210.269 78.9193 210.311 79.5272L210.329 79.7819C210.37 80.3897 210.895 80.9812 211.493 81.0954L233.733 85.3514C234.331 85.4655 234.888 85.1641 234.97 84.6802C235.051 84.1964 234.63 83.6953 234.035 83.5663L211.318 78.6556Z" fill="#F8F9F9"/>
</g>
<path d="M201.929 76.1949C202.316 76.0569 202.742 76.2647 202.871 76.6557L203.479 78.4932C203.54 78.6772 203.785 78.7133 203.896 78.5548L207.172 73.8801C207.335 73.6468 207.698 73.8062 207.641 74.0847C207.318 75.6445 206.334 78.5384 203.358 80.5492C203.358 80.5492 202.083 79.75 201.44 77.1017C201.347 76.7189 201.557 76.3263 201.929 76.1949Z" fill="#BE202F"/>
<path d="M205.556 85.5415C205.408 85.4511 205.243 85.3871 205.064 85.3534C205.057 85.3493 205.052 85.3501 205.045 85.346C204.901 85.3222 204.734 85.2967 204.556 85.2688C203.671 85.1382 202.447 85.0092 201.337 84.8942C200.728 84.8318 200.175 84.7735 199.776 84.7266C199.485 84.6897 199.196 84.7694 198.978 84.9443C198.784 85.1029 198.669 85.3172 198.648 85.5555L198.309 89.5788C198.254 90.1973 198.724 90.7739 199.399 90.9111L204.088 91.8516C204.093 91.8508 204.094 91.8557 204.099 91.8549C204.755 91.9798 205.39 91.6027 205.517 91.0072C205.913 89.1911 206.265 87.485 206.191 86.5272C206.165 86.1165 205.919 85.7526 205.556 85.5415ZM205.805 86.5617C205.873 87.4595 205.53 89.136 205.139 90.9234C205.057 91.3144 204.62 91.5592 204.173 91.4721C204.173 91.4721 204.167 91.4738 204.167 91.468L199.479 90.5275C198.997 90.4322 198.66 90.0379 198.696 89.6124L199.041 85.5932C199.051 85.4577 199.114 85.3386 199.227 85.2466C199.36 85.1398 199.544 85.0889 199.726 85.1103C200.133 85.1612 200.685 85.2195 201.3 85.286C202.278 85.3854 203.434 85.507 204.305 85.6236C204.558 85.6631 204.788 85.6967 204.979 85.7329C205.141 85.7592 205.288 85.8216 205.413 85.9111C205.632 86.0705 205.784 86.3103 205.805 86.5617Z" fill="#F8F9F9"/>
<path opacity="0.6" d="M200.192 85.6127C201.192 85.7343 203.377 85.9265 204.396 86.1089C204.828 86.1861 205.156 86.5188 205.185 86.9114C205.243 87.6745 204.94 89.1161 204.651 90.4444C204.564 90.842 204.136 91.0909 203.688 91.0013L199.942 90.2473C199.482 90.1544 199.159 89.7667 199.194 89.3486L199.467 86.1368C199.496 85.8041 199.822 85.5675 200.192 85.6127Z" fill="#F8F9F9"/>
<g opacity="0.6">
<path opacity="0.6" d="M209.537 88.7167C208.942 88.5877 208.488 88.9804 208.53 89.5882L208.547 89.8429C208.589 90.4508 209.113 91.0422 209.712 91.1564L231.951 95.4124C232.55 95.5266 233.106 95.2251 233.188 94.7413C233.27 94.2574 232.849 93.7563 232.254 93.6274L209.537 88.7167Z" fill="#F8F9F9"/>
</g>
<path d="M200.147 86.2837C200.535 86.1457 200.96 86.3536 201.089 86.7446L201.698 88.5821C201.759 88.7661 202.004 88.8022 202.115 88.6437L205.39 83.969C205.554 83.7357 205.917 83.8951 205.859 84.1735C205.537 85.7334 204.553 88.6273 201.577 90.6381C201.577 90.6381 200.302 89.8388 199.659 87.1906C199.566 86.8078 199.777 86.4152 200.147 86.2837Z" fill="#BE202F"/>
<path d="M203.33 95.1381C203.176 95.0436 203.005 94.9754 202.82 94.9377C202.67 94.9147 202.507 94.8834 202.325 94.8613C201.428 94.7274 200.165 94.5959 199.112 94.485C198.503 94.4226 197.951 94.3643 197.544 94.3134C197.259 94.2805 196.964 94.361 196.752 94.5351C196.557 94.6888 196.444 94.9081 196.422 95.1463L196.082 99.1647C196.029 99.7882 196.498 100.36 197.173 100.497L201.862 101.443C201.862 101.443 201.867 101.442 201.874 101.445C202.53 101.57 203.165 101.193 203.292 100.597C203.688 98.7811 204.039 97.0693 203.965 96.1172C203.939 95.7123 203.689 95.3549 203.33 95.1381ZM203.577 96.1468C203.645 97.0495 203.303 98.7269 202.912 100.514C202.824 100.905 202.379 101.135 201.934 101.06L197.251 100.118C196.767 100.017 196.431 99.6231 196.467 99.1984L196.808 95.18C196.818 95.0502 196.886 94.9237 196.995 94.8391C197.126 94.7274 197.311 94.6814 197.499 94.7019C197.9 94.7537 198.457 94.8111 199.066 94.8736C200.046 94.9779 201.207 95.0986 202.073 95.2169C202.325 95.2514 202.555 95.2843 202.746 95.3213C202.907 95.3475 203.061 95.4141 203.192 95.5077C203.412 95.6654 203.556 95.8954 203.577 96.1468Z" fill="#F8F9F9"/>
<path opacity="0.6" d="M197.524 95.2009C198.524 95.3225 200.709 95.5147 201.728 95.697C202.16 95.7743 202.488 96.1069 202.518 96.4996C202.575 97.2627 202.272 98.7043 201.983 100.033C201.896 100.43 201.468 100.679 201.02 100.59L197.274 99.8355C196.814 99.7426 196.491 99.3549 196.526 98.9368L196.799 95.725C196.828 95.3931 197.154 95.1565 197.524 95.2009Z" fill="#F8F9F9"/>
<g opacity="0.6">
<path opacity="0.6" d="M207.318 98.3048C206.723 98.1758 206.269 98.5685 206.311 99.1764L206.329 99.4302C206.37 100.038 206.895 100.63 207.493 100.744L229.733 105C230.331 105.114 230.888 104.812 230.969 104.329C231.05 103.845 230.63 103.344 230.034 103.215L207.318 98.3048Z" fill="#F8F9F9"/>
</g>
<path d="M197.925 95.8441C198.312 95.7061 198.738 95.9139 198.867 96.3049L199.475 98.1424C199.536 98.3264 199.781 98.3626 199.892 98.204L203.168 93.5293C203.331 93.296 203.694 93.4554 203.637 93.7338C203.314 95.2937 202.33 98.1876 199.354 100.198C199.354 100.198 198.079 99.3992 197.436 96.7518C197.343 96.369 197.554 95.9763 197.925 95.8441Z" fill="#BE202F"/>
<path d="M200.672 105.006C200.518 104.911 200.348 104.842 200.156 104.806C200.006 104.783 199.838 104.753 199.661 104.73C198.781 104.598 197.557 104.468 196.453 104.353C195.838 104.291 195.286 104.233 194.885 104.181C194.594 104.144 194.306 104.229 194.088 104.404C193.899 104.557 193.78 104.777 193.759 105.015L193.418 109.034C193.365 109.657 193.834 110.229 194.509 110.366L199.198 111.312C199.203 111.31 199.203 111.31 199.21 111.315C199.866 111.44 200.5 111.057 200.632 110.461C201.029 108.65 201.375 106.939 201.302 105.987C201.275 105.577 201.031 105.223 200.672 105.006ZM200.914 106.016C200.982 106.919 200.639 108.596 200.248 110.383C200.165 110.768 199.735 111.017 199.283 110.931C199.282 110.926 199.277 110.927 199.277 110.927L194.588 109.982C194.106 109.887 193.769 109.492 193.805 109.067L194.151 105.048C194.162 104.917 194.229 104.791 194.339 104.707C194.47 104.595 194.655 104.549 194.838 104.57C195.243 104.615 195.796 104.68 196.411 104.74C197.39 104.845 198.546 104.966 199.417 105.084C199.669 105.118 199.893 105.153 200.091 105.188C200.253 105.219 200.407 105.287 200.532 105.376C200.748 105.535 200.892 105.765 200.914 106.016Z" fill="#F8F9F9"/>
<path opacity="0.6" d="M195.301 105.067C196.301 105.189 198.486 105.381 199.505 105.563C199.937 105.64 200.265 105.973 200.295 106.366C200.352 107.129 200.049 108.57 199.76 109.899C199.674 110.296 199.245 110.545 198.797 110.456L195.052 109.702C194.591 109.609 194.268 109.221 194.303 108.803L194.576 105.591C194.605 105.258 194.931 105.022 195.301 105.067Z" fill="#F8F9F9"/>
<g opacity="0.6">
<path opacity="0.6" d="M204.647 108.171C204.051 108.042 203.598 108.435 203.639 109.043L203.657 109.296C203.699 109.904 204.223 110.496 204.821 110.61L227.061 114.866C227.66 114.98 228.216 114.679 228.297 114.195C228.378 113.711 227.958 113.21 227.362 113.081L204.647 108.171Z" fill="#F8F9F9"/>
</g>
<path d="M195.257 105.711C195.644 105.573 196.07 105.781 196.199 106.172L196.808 108.009C196.868 108.193 197.113 108.23 197.224 108.07L200.5 103.396C200.663 103.162 201.026 103.322 200.969 103.6C200.646 105.16 199.662 108.054 196.686 110.065C196.686 110.065 195.411 109.265 194.768 106.617C194.675 106.236 194.885 105.843 195.257 105.711Z" fill="#BE202F"/>
<path d="M227.271 46.0999C226.01 44.7215 224.704 44.4488 223.728 44.5104C222.834 44.5712 222.11 45.2563 221.995 46.1385L221.494 50.0025L221.422 50.5413L226.026 52.0174C226.026 52.0174 226.312 51.7718 226.673 51.3545C227.611 50.2768 229.064 48.0524 227.271 46.0999ZM223.513 47.6778C223.657 47.0289 224.302 46.6223 224.946 46.7661C225.596 46.9147 226.002 47.5546 225.859 48.2035C225.71 48.8533 225.07 49.2591 224.419 49.1112C223.772 48.9683 223.365 48.3227 223.513 47.6778Z" fill="black"/>
<path d="M225.674 45.4502C225.1 45.1906 224.498 45.0822 223.883 45.1216C222.977 45.1791 222.233 45.8798 222.117 46.7793L222.049 47.3116C222.037 47.4085 222.08 47.4997 222.155 47.544C222.182 47.5662 222.218 47.5752 222.252 47.5785C222.385 47.5999 222.504 47.5071 222.52 47.3756L222.593 46.8425C222.68 46.1673 223.234 45.6408 223.914 45.5989C224.452 45.566 224.978 45.6572 225.477 45.8823C225.596 45.9398 225.74 45.8864 225.791 45.764C225.85 45.6457 225.79 45.502 225.674 45.4502ZM222.229 47.7773C222.098 47.7609 221.979 47.8537 221.963 47.9851L221.869 48.6842C221.857 48.7811 221.898 48.8673 221.976 48.9166C222.008 48.9372 222.039 48.9478 222.073 48.9511C222.205 48.9725 222.324 48.8797 222.34 48.7482L222.432 48.0443C222.454 47.9178 222.361 47.7937 222.229 47.7773Z" fill="#B0872F"/>
<path d="M214.312 51.8988L214.8 49.7302C214.969 48.9819 215.725 48.5219 216.467 48.7158L231.303 52.5937C231.962 52.7662 232.381 53.411 232.271 54.0821L231.927 56.194L214.312 51.8988Z" fill="black"/>
<path d="M219.645 50.2L220.288 50.3445L219.645 50.2Z" fill="#B0872F"/>
<path d="M214.863 51.4648C214.781 51.4122 214.737 51.312 214.76 51.2118L214.957 50.3345C215.038 49.9747 215.254 49.6674 215.567 49.4695C215.879 49.2723 216.249 49.2083 216.609 49.2888L218.973 49.8211C219.101 49.8498 219.183 49.978 219.153 50.1069C219.124 50.2359 218.996 50.3164 218.868 50.2876L216.504 49.7553C216.018 49.6461 215.532 49.9525 215.422 50.4396L215.224 51.3169C215.195 51.4451 215.067 51.5264 214.939 51.4976C214.912 51.4902 214.886 51.4796 214.863 51.4648Z" fill="#B0872F"/>
<path d="M209.717 50.0409L235.864 55.9267C236.803 56.1386 237.455 56.9954 237.407 57.9581L237.401 58.0912C237.348 59.1451 236.357 59.8976 235.328 59.6659L208.504 53.6266C207.888 53.4878 207.513 52.8618 207.681 52.2531L208.009 51.0653C208.213 50.3219 208.965 49.8717 209.717 50.0409Z" fill="#B0872F"/>
<path d="M328.599 266.406H270.789V152.167C270.789 151.217 271.56 150.446 272.511 150.446H326.878C327.829 150.446 328.599 151.217 328.599 152.167V266.406Z" fill="#B0872F"/>
<path d="M321.931 266.406H264.121V152.167C264.121 151.217 264.892 150.446 265.842 150.446H320.209C321.16 150.446 321.93 151.217 321.93 152.167V266.406H321.931Z" fill="#D1A53D"/>
<path d="M191.141 266.325H148.508V221.119C148.508 220.169 149.278 219.398 150.229 219.398H189.42C190.37 219.398 191.141 220.169 191.141 221.119V266.325H191.141Z" fill="#B0872F"/>
<path d="M184.915 266.325H142.281V221.119C142.281 220.169 143.052 219.398 144.002 219.398H183.193C184.144 219.398 184.914 220.169 184.914 221.119V266.325H184.915Z" fill="#D1A53D"/>
<path d="M287.242 150.682C287.241 150.638 287.245 150.595 287.255 150.55C287.913 147.946 290.599 146.611 290.599 146.611L291.891 146.712C292.633 149.008 293.113 150.128 292.993 150.755C292.99 150.772 292.984 150.789 292.98 150.806C291.914 150.902 289.72 150.964 287.242 150.682Z" fill="#515959"/>
<path d="M292.98 150.821C292.922 151.03 292.768 151.193 292.57 151.235C291.054 151.553 288.644 151.297 287.632 151.165C287.409 151.136 287.246 150.929 287.242 150.696C289.72 150.979 291.914 150.916 292.98 150.821Z" fill="black"/>
<path d="M289.469 144.61L290.035 147.334C290.076 147.533 290.229 147.683 290.415 147.7C290.642 147.721 290.966 147.734 291.291 147.686C291.583 147.643 291.787 147.347 291.735 147.028L291.341 144.61H289.469V144.61Z" fill="url(#paint0_linear_1610_27499)"/>
<path d="M303.936 150.797C302.556 150.759 301.842 150.596 301.473 150.446C301.472 150.583 301.473 150.723 301.477 150.867C301.482 151.022 301.596 151.145 301.737 151.144L309.314 151.095C309.556 151.093 309.697 150.813 309.593 150.591C308.599 150.673 306.069 150.857 303.936 150.797Z" fill="black"/>
<path d="M309.592 150.574C309.583 150.555 309.575 150.535 309.562 150.516C308.893 149.581 307.189 147.719 303.821 146.912L302.205 146.861C302.205 146.861 301.486 148.111 301.473 150.428C301.841 150.579 302.555 150.741 303.935 150.779C306.069 150.839 308.599 150.656 309.592 150.574Z" fill="#515959"/>
<path d="M301.918 144.417C301.936 144.538 302.157 146.368 302.243 147.078C302.264 147.246 302.386 147.377 302.54 147.396C302.815 147.428 303.26 147.458 303.65 147.378C303.86 147.336 304.012 147.134 304.012 146.899V144.026L301.918 144.417Z" fill="url(#paint1_linear_1610_27499)"/>
<path d="M290.607 108.841C290.607 108.841 288.022 131.821 289.458 146.183C289.458 146.183 291.181 146.183 292.043 145.896C292.043 145.896 294.729 123.427 295.598 116.998C295.631 116.756 295.977 116.745 296.024 116.985C297.096 122.395 301.308 143.606 301.809 145.609C301.809 145.609 303.245 146.183 304.394 145.609C304.394 145.609 302.097 114.873 300.372 109.416L290.607 108.841Z" fill="#515959"/>
<path d="M285.061 82.1141C285.061 82.1141 295.977 80.3907 304.594 82.6883L304.02 91.593C304.02 91.593 301.722 103.944 299.998 109.402C299.998 109.402 293.392 110.551 290.232 108.828C290.232 108.828 287.647 93.3164 286.211 91.0188C286.211 91.0188 284.774 84.9868 285.061 82.1141Z" fill="url(#paint2_linear_1610_27499)"/>
<path d="M292.775 74.2676L291.688 81.621C291.688 81.621 294.725 83.0166 296.853 81.561L296.395 76.3712L292.775 74.2676Z" fill="url(#paint3_linear_1610_27499)"/>
<path d="M290.176 92.0486C290.176 92.0486 265.512 85.3351 277.759 68.0703L278.588 69.2433C278.588 69.2433 274.898 80.9371 287.121 82.0477C287.12 82.0485 290.286 90.2127 290.176 92.0486Z" fill="url(#paint4_linear_1610_27499)"/>
<path d="M277.478 68.1545C277.478 68.1545 277.201 64.8212 278.867 64.5435C280.534 64.2659 281.089 65.9326 281.368 66.7655C281.645 67.5992 278.867 69.2659 278.312 69.2659C277.756 69.2659 277.478 68.1545 277.478 68.1545Z" fill="url(#paint5_linear_1610_27499)"/>
<path d="M299.253 92.8821C299.253 92.8821 323.916 86.1686 311.669 68.9038L310.841 70.0768C310.841 70.0768 314.531 81.7706 302.308 82.8812C302.309 82.882 299.143 91.0462 299.253 92.8821Z" fill="url(#paint6_linear_1610_27499)"/>
<path d="M311.608 68.9882C311.608 68.9882 311.886 65.6549 310.219 65.3773C308.552 65.0996 307.997 66.7663 307.719 67.5992C307.441 68.433 310.219 70.0996 310.774 70.0996C311.329 70.0996 311.608 68.9882 311.608 68.9882Z" fill="url(#paint7_linear_1610_27499)"/>
<path d="M296.923 70.4602C296.923 70.4602 299.355 75.038 299.043 76.887C298.732 78.7361 295.717 78.6038 293.085 77.1014L291.246 72.1581L296.923 70.4602Z" fill="url(#paint8_linear_1610_27499)"/>
<path d="M292.988 74.6677C293.095 74.6201 293.134 74.4895 293.07 74.3917C292.876 74.0944 292.51 73.4865 292.393 72.9551C292.393 72.9551 291.956 72.675 293.506 72.3045C295.056 71.9332 297.367 71.3574 297.853 70.0382C298.327 68.7518 297.082 65.5171 295.096 68.0947C295.02 68.1925 294.873 68.1949 294.797 68.0972C294.472 67.6733 293.616 66.7944 292.428 67.3275C291.317 67.8261 291.191 68.641 291.207 69.0517C291.211 69.1724 291.103 69.2661 290.985 69.2439C290.423 69.1371 289.073 69.0443 288.444 70.4284C287.926 71.5685 288.263 72.2133 288.57 72.5288C288.669 72.6306 288.626 72.799 288.489 72.8409C288.12 72.9543 287.643 73.2672 287.691 74.133C287.757 75.3298 289.095 75.2238 289.476 75.1696C289.538 75.1606 289.601 75.182 289.643 75.2288C289.97 75.5902 291.441 77.1246 293.034 77.3094C293.172 77.325 293.279 77.1895 293.234 77.0581L292.545 75.0546C292.513 74.9618 292.557 74.8591 292.647 74.8197L292.988 74.6677Z" fill="black"/>
<path d="M293.111 74.9392C293.111 74.9392 291.379 73.7514 291.253 74.7519C291.126 75.7524 292.812 76.2009 293.647 75.8279L293.111 74.9392Z" fill="url(#paint9_linear_1610_27499)"/>
<path d="M256.249 266.413H207.203V199.552C207.203 198.602 207.974 197.832 208.924 197.832H254.527C255.478 197.832 256.248 198.602 256.248 199.552V266.413H256.249Z" fill="#B0872F"/>
<path d="M249.132 266.413H200.086V199.552C200.086 198.602 200.856 197.832 201.807 197.832H247.41C248.361 197.832 249.131 198.602 249.131 199.552V266.413H249.132Z" fill="#D1A53D"/>
<path d="M225.638 166.26L221.875 172.048C223.625 175.458 225.57 177.341 227.515 178.236C227.862 176.112 229.103 174.348 230.014 173.301C226.545 171.327 225.638 166.26 225.638 166.26Z" fill="url(#paint10_linear_1610_27499)"/>
<path d="M238.707 172.263C234.854 174.543 232.102 174.409 230.155 173.302C229.244 174.349 228.003 176.113 227.656 178.237C233.839 181.081 240.031 173.921 240.031 173.921L238.707 172.263Z" fill="url(#paint11_linear_1610_27499)"/>
<path d="M238.68 173.248C238.68 173.248 237.64 171.435 239.136 170.043C239.136 170.043 239.618 169.492 240.148 170.301C240.148 170.301 241.757 168.84 242.196 169.428C242.637 170.017 243.802 171.474 242.664 173.136C241.511 174.816 239.188 174.067 238.68 173.248Z" fill="url(#paint12_linear_1610_27499)"/>
<path d="M240.58 172.327C240.412 172.327 240.232 172.296 240.071 172.2C239.913 172.106 239.712 171.911 239.662 171.517C239.643 171.365 239.75 171.226 239.902 171.207C240.057 171.188 240.192 171.295 240.212 171.447C240.238 171.655 240.324 171.707 240.353 171.724C240.446 171.78 240.582 171.781 240.705 171.764L240.37 170.705C240.324 170.559 240.406 170.404 240.551 170.358C240.697 170.312 240.853 170.393 240.899 170.539L241.321 171.878C241.364 172.016 241.293 172.165 241.158 172.218C241.117 172.234 240.868 172.327 240.58 172.327Z" fill="url(#paint13_linear_1610_27499)"/>
<path d="M184.078 211.116C183.743 211.317 183.573 211.742 183.652 212.158C183.966 213.795 184.998 218.118 187.506 220.677C187.672 220.847 187.913 220.832 188.058 220.679C187.423 220.018 186.636 218.887 185.716 216.966C184.301 214.015 184.04 212.195 184.078 211.116Z" fill="black"/>
<path d="M187.32 211.075C187.32 211.075 185.703 210.195 184.093 211.128C184.089 211.131 184.086 211.134 184.082 211.136C184.042 212.215 184.304 214.035 185.719 216.987C186.64 218.907 187.427 220.038 188.062 220.7C188.108 220.651 188.145 220.59 188.166 220.516C188.637 218.879 189.632 214.332 187.32 211.075Z" fill="#515959"/>
<path d="M189.527 211.161L188.062 212.567C187.803 212.816 187.405 212.856 187.105 212.657C186.844 212.484 186.554 212.199 186.36 211.739C186.245 211.463 186.3 211.143 186.502 210.921L187.965 209.312C188.314 208.928 188.935 208.992 189.199 209.439L189.657 210.212C189.839 210.52 189.786 210.914 189.527 211.161Z" fill="url(#paint14_linear_1610_27499)"/>
<path d="M236.996 204.128C237.337 204.319 237.79 204.259 238.112 203.983C239.38 202.902 242.628 199.867 243.614 196.422C243.678 196.195 243.546 195.993 243.343 195.942C243.081 196.821 242.487 198.064 241.273 199.813C239.406 202.502 237.953 203.629 236.996 204.128Z" fill="black"/>
<path d="M235.215 201.328C235.215 201.328 235.249 203.168 236.856 204.107C236.86 204.11 236.864 204.111 236.868 204.113C237.825 203.614 239.278 202.487 241.145 199.798C242.36 198.049 242.954 196.806 243.215 195.927C243.15 195.91 243.078 195.909 243.003 195.927C241.348 196.326 236.904 197.708 235.215 201.328Z" fill="#515959"/>
<path d="M235.445 198.299L236.976 199.633C237.247 199.869 237.322 200.262 237.151 200.577C237.002 200.852 236.745 201.167 236.303 201.401C236.039 201.541 235.715 201.514 235.476 201.334L233.743 200.02C233.329 199.706 233.337 199.082 233.759 198.779L234.488 198.254C234.779 198.045 235.176 198.064 235.445 198.299Z" fill="url(#paint15_linear_1610_27499)"/>
<path d="M204.614 184.797C204.614 184.797 201.626 194.975 199.695 199.448C199.695 199.448 196.319 199.963 194.228 201.185C192.137 202.406 187.637 209.174 187.637 209.174C187.637 209.174 188.812 211.406 190.231 211.748L203.046 202.869L213.273 190.976L212.787 185.46L204.614 184.797Z" fill="#515959"/>
<path d="M204.519 183.963L203.645 186.75C203.645 186.75 204.444 194.057 213.656 192.825C222.869 191.593 224.027 190.089 224.027 190.089C224.027 190.089 223.227 194.755 233.3 200.367C233.3 200.367 234.831 199.211 235.168 197.898L228.109 186.264C227.128 184.738 226.217 184.336 224.424 184.616C220.46 185.236 213.036 186.044 211.913 185.852L204.519 183.963Z" fill="#515959"/>
<path d="M211.978 163.221C209.293 163.358 205.05 164.634 202.309 167.158C203.151 168.087 204.448 169.6 205.414 171.094C206.277 170.283 207.517 169.608 209.263 169.176C207.754 174.816 205.971 180.189 203.796 185.184C203.66 185.497 203.815 185.858 204.137 185.97C205.819 186.556 210.779 187.952 214.757 185.704L223.577 173.075C224.526 171.717 225.149 170.159 225.4 168.521L225.748 166.243C225.748 166.242 217.827 162.924 211.978 163.221Z" fill="url(#paint16_linear_1610_27499)"/>
<path d="M207.152 182.352C206.769 181.506 205.457 180.715 204.83 180.375C204.286 179.252 202.111 174.2 205.399 171.113C204.433 169.62 203.136 168.107 202.294 167.177C199.131 170.089 197.973 174.662 203.519 181.066C203.216 182.643 204.204 184.48 204.738 184.738C204.985 184.856 207.663 183.476 207.152 182.352Z" fill="url(#paint17_linear_1610_27499)"/>
<path d="M209.867 168.984L212.319 168.455L209.867 168.984Z" fill="url(#paint18_linear_1610_27499)"/>
<path d="M218.039 159.867L215.735 164.377C215.594 164.653 215.636 164.985 215.842 165.215C216.4 165.837 217.718 166.846 220.01 166.123C220.263 166.043 220.445 165.821 220.483 165.559L221.083 161.462L218.039 159.867Z" fill="url(#paint19_linear_1610_27499)"/>
<path d="M221.704 155.421C221.704 155.421 223.917 159.585 223.633 161.269C223.35 162.951 220.608 162.83 218.212 161.464L216.539 156.967L221.704 155.421Z" fill="url(#paint20_linear_1610_27499)"/>
<path d="M218.247 159.254C218.345 159.21 218.38 159.092 218.322 159.003C218.145 158.731 217.813 158.179 217.707 157.696C217.707 157.696 217.309 157.441 218.72 157.103C220.13 156.766 222.233 156.242 222.675 155.042C223.106 153.871 221.973 150.929 220.167 153.273C220.098 153.363 219.963 153.364 219.895 153.275C219.598 152.889 218.821 152.089 217.74 152.574C216.728 153.027 216.614 153.769 216.628 154.143C216.632 154.253 216.534 154.338 216.426 154.318C215.914 154.22 214.687 154.136 214.115 155.396C213.643 156.433 213.95 157.02 214.229 157.307C214.319 157.4 214.28 157.554 214.156 157.591C213.82 157.694 213.385 157.979 213.429 158.767C213.489 159.855 214.706 159.759 215.053 159.71C215.109 159.702 215.167 159.721 215.205 159.764C215.502 160.093 216.841 161.489 218.289 161.657C218.415 161.672 218.512 161.548 218.471 161.428L217.844 159.606C217.814 159.521 217.855 159.428 217.937 159.392L218.247 159.254Z" fill="black"/>
<path d="M218.681 159.513C218.681 159.513 217.106 158.432 216.99 159.343C216.875 160.253 218.409 160.661 219.169 160.322L218.681 159.513Z" fill="url(#paint21_linear_1610_27499)"/>
<path d="M142.794 258.557C142.794 258.557 142.157 262.163 141.845 265.731C141.724 267.126 142.798 268.337 144.197 268.395C148.949 268.593 159.114 268.977 162.762 268.815C163.311 268.79 163.669 268.229 163.466 267.719C163.296 267.292 162.968 266.946 162.55 266.754L145.759 259.036L142.794 258.557Z" fill="#515959"/>
<path d="M142.281 256.445L142.793 260.756C142.793 260.756 145.734 262.126 147.743 260.584L146.525 255.778L142.281 256.445Z" fill="url(#paint22_linear_1610_27499)"/>
<path d="M142.718 175.378C142.497 176.504 141.532 231.572 147.419 256.251C147.515 256.653 147.31 257.069 146.928 257.225C146.025 257.594 144.255 258.128 142.134 258.199C141.476 258.221 140.887 257.794 140.703 257.163C139.02 251.438 130.957 222.75 129.905 195.346C128.73 164.724 129.905 194.304 129.905 194.304L130.594 175.375L142.718 175.378Z" fill="#515959"/>
<path d="M123.405 260.448C123.405 260.448 122.391 262.267 121.41 267.103C121.232 267.976 121.843 268.813 122.73 268.9C124.299 269.054 126.714 269.252 128.65 269.239C129.542 269.232 130.238 268.456 130.131 267.571C129.916 265.805 129.249 262.909 127.186 260.653L123.405 260.448Z" fill="#515959"/>
<path d="M122.715 254.892L123.91 261.412C123.91 261.412 125.092 262.291 127.43 261.655L126.859 254.639L122.715 254.892Z" fill="url(#paint23_linear_1610_27499)"/>
<path d="M119.232 177.062C114.418 206.117 120.276 248.873 122.253 257.241C122.374 257.754 122.788 258.146 123.307 258.232C124.189 258.378 125.641 258.497 127.072 258.082C127.565 257.939 127.912 257.494 127.932 256.98C128.198 250.215 127.72 208.68 132.206 192.266C132.434 191.434 132.942 190.708 133.645 190.209L142.351 184.019L143.019 174.014L119.232 177.062Z" fill="#515959"/>
<path d="M149.853 122.01C135.426 121.772 119.507 125.799 119.507 125.799C115.206 150.893 118.755 179.836 118.755 179.836C129.924 182.765 142.524 178.045 142.524 178.045C144.38 167.557 153.042 138.039 153.042 138.039C160.091 137.164 165.898 135.13 170.68 132.441C167.032 128.213 165.313 122.833 164.566 119.652C159.465 121.237 154.303 122.084 149.853 122.01Z" fill="url(#paint24_linear_1610_27499)"/>
<path d="M192.416 100.763C190.999 99.0512 189.205 99.8611 189.205 99.8611C187.081 108.83 175.949 116.101 164.512 119.656C165.258 122.837 166.979 128.216 170.626 132.445C189.607 121.772 192.416 100.763 192.416 100.763Z" fill="url(#paint25_linear_1610_27499)"/>
<path d="M192.281 101.212C192.43 101.683 190.712 102.401 189.701 100.473C189.665 99.549 189.104 95.5897 189.656 94.8373C192.596 90.8279 198.299 85.8015 198.299 85.8015C199.262 86.7527 198.469 87.6867 198.469 87.6867L195.703 90.5683C196.281 91.614 196.987 92.4962 197.318 93.7612C197.568 94.719 197.415 95.7425 196.931 96.614C196.446 97.4889 195.783 98.6257 195.157 99.5153C193.971 101.198 192.281 101.212 192.281 101.212Z" fill="url(#paint26_linear_1610_27499)"/>
<path d="M194.503 92.4438L191.982 94.5804L191.191 96.7079L193.439 99.2009C193.439 99.2009 194.195 94.9796 194.756 94.0662C195.317 93.1527 195.026 92.7108 194.503 92.4438Z" fill="url(#paint27_linear_1610_27499)"/>
<path d="M125.265 139.764L119.731 125.794C119.731 125.794 106.255 134.951 104.039 146.559C106.585 146.747 111.218 147.409 115.753 149.699C116.751 144.217 125.265 139.764 125.265 139.764Z" fill="url(#paint28_linear_1610_27499)"/>
<path d="M136.903 152.904C136.903 152.904 121.772 161.455 116.668 154.154C115.608 152.637 115.354 151.131 115.616 149.695C111.08 147.405 106.447 146.742 103.901 146.555C103.233 150.055 103.586 153.777 105.642 157.54C114.585 173.898 138.906 156.635 138.906 156.635L136.903 152.904Z" fill="url(#paint29_linear_1610_27499)"/>
<path d="M135.201 163.726L143.458 134.888C143.552 134.561 143.831 134.322 144.17 134.283C145.665 134.108 150.001 133.618 155.006 133.195C161.036 132.685 168.037 132.272 172.221 132.624C172.815 132.674 173.175 133.303 172.911 133.838C170.532 138.651 160.745 158.232 155.844 164.646C155.681 164.858 155.431 164.982 155.163 164.98L136.004 164.802C135.447 164.797 135.048 164.261 135.201 163.726Z" fill="#515959"/>
<path d="M155.905 130.689L161.892 129.692C162.21 129.638 162.472 129.943 162.37 130.25L161.778 132.046C161.726 132.202 161.59 132.315 161.427 132.337L155.667 133.106C155.369 133.147 155.123 132.876 155.191 132.582L155.558 131.014C155.597 130.846 155.734 130.718 155.905 130.689Z" fill="black"/>
<path d="M151.187 135.77L151.679 133.201C151.729 132.943 151.941 132.749 152.203 132.722L164.294 131.495C164.702 131.454 165.027 131.827 164.932 132.224L164.163 135.426C164.101 135.682 163.878 135.867 163.615 135.88L151.799 136.475C151.415 136.494 151.114 136.148 151.187 135.77Z" fill="black"/>
<path d="M137.296 156.749C137.296 156.749 136.146 152.019 136.61 150.341C137.074 148.663 137.973 146.506 140.97 146.985C143.966 147.464 147.501 148.726 147.501 148.726C147.501 148.726 147.323 150.912 145.045 150.206L146.457 151.299C146.457 151.299 146.255 153.049 144.331 152.114L145.644 153.563C145.644 153.563 144.818 155 143.403 154.078C141.988 153.158 141.31 157.318 137.296 156.749Z" fill="url(#paint30_linear_1610_27499)"/>
<path d="M135.335 110.314L130.745 123.589C130.67 123.809 130.76 124.053 130.963 124.165C132.214 124.857 136.723 126.857 142.155 123.412C142.721 123.053 143.106 122.468 143.192 121.804L144.679 110.314H135.335Z" fill="url(#paint31_linear_1610_27499)"/>
<path d="M145.602 98.002C145.602 98.002 150.643 107.49 149.997 111.324C149.35 115.157 143.103 114.881 137.648 111.768L133.836 101.523L145.602 98.002Z" fill="url(#paint32_linear_1610_27499)"/>
<path d="M137.706 106.744C137.927 106.646 138.01 106.374 137.876 106.172C137.472 105.555 136.716 104.296 136.474 103.194C136.474 103.194 135.568 102.613 138.781 101.844C141.993 101.075 146.784 99.8819 147.791 97.1473C148.773 94.481 146.193 87.7764 142.078 93.119C141.921 93.3219 141.615 93.3269 141.459 93.1231C140.784 92.245 139.01 90.4223 136.547 91.5271C134.243 92.5613 133.984 94.2501 134.015 95.1011C134.024 95.3517 133.801 95.5464 133.554 95.4995C132.388 95.2777 129.593 95.0864 128.288 97.9548C127.213 100.317 127.912 101.655 128.548 102.308C128.754 102.52 128.664 102.869 128.382 102.956C127.616 103.19 126.627 103.84 126.726 105.634C126.863 108.113 129.636 107.895 130.425 107.782C130.554 107.763 130.685 107.808 130.773 107.905C131.45 108.654 134.5 111.834 137.801 112.218C138.087 112.251 138.308 111.969 138.215 111.696L136.786 107.544C136.72 107.351 136.813 107.14 136.999 107.057L137.706 106.744Z" fill="black"/>
<path d="M138.143 107.337C138.143 107.337 134.554 104.874 134.291 106.948C134.029 109.022 137.524 109.952 139.254 109.178L138.143 107.337Z" fill="url(#paint33_linear_1610_27499)"/>
<path d="M314.841 229.795H284.121V223.873H314.841C314.183 223.873 314.183 229.795 314.841 229.795Z" fill="#BE202F"/>
<path d="M283.968 228.32V225.609C283.968 224.654 284.575 223.879 285.323 223.879H314.558C315.147 223.879 315.624 223.419 315.624 222.851C315.624 222.678 315.479 222.539 315.3 222.539H283.349C282.616 222.539 281.453 223.648 281.453 225.017V228.803C281.453 230.093 282.583 231.139 283.273 231.139H315.133C315.405 231.139 315.624 230.927 315.624 230.666C315.624 230.187 315.222 229.8 314.726 229.8H285.129C284.488 229.803 283.968 229.139 283.968 228.32Z" fill="#F1393A"/>
<path d="M313.471 225.211H284.666C284.611 225.211 284.566 225.167 284.566 225.112C284.566 225.057 284.611 225.012 284.666 225.012H313.471C313.525 225.012 313.57 225.057 313.57 225.112C313.57 225.167 313.524 225.211 313.471 225.211Z" fill="#F1393A"/>
<path d="M313.471 226.072H284.666C284.611 226.072 284.566 226.028 284.566 225.973C284.566 225.918 284.611 225.874 284.666 225.874H313.471C313.525 225.874 313.57 225.918 313.57 225.973C313.57 226.028 313.524 226.072 313.471 226.072Z" fill="#F1393A"/>
<path d="M313.471 226.962H284.666C284.611 226.962 284.566 226.917 284.566 226.862C284.566 226.808 284.611 226.763 284.666 226.763H313.471C313.525 226.763 313.57 226.808 313.57 226.862C313.57 226.917 313.524 226.962 313.471 226.962Z" fill="#F1393A"/>
<path d="M313.471 227.851H284.666C284.611 227.851 284.566 227.807 284.566 227.752C284.566 227.697 284.611 227.653 284.666 227.653H313.471C313.525 227.653 313.57 227.697 313.57 227.752C313.57 227.807 313.524 227.851 313.471 227.851Z" fill="#F1393A"/>
<path d="M313.471 228.713H284.666C284.611 228.713 284.566 228.668 284.566 228.614C284.566 228.559 284.611 228.514 284.666 228.514H313.471C313.525 228.514 313.57 228.559 313.57 228.614C313.57 228.668 313.524 228.713 313.471 228.713Z" fill="#F1393A"/>
<path d="M274.143 240.994H322.265C323.381 240.994 324.287 240.089 324.287 238.972V233.121C324.287 232.004 323.381 231.099 322.265 231.099H274.143C273.027 231.099 272.121 232.004 272.121 233.121V238.972C272.12 240.089 273.025 240.994 274.143 240.994Z" fill="#BE202F"/>
<path d="M315.494 239.861H318.941C319.319 239.861 319.626 239.555 319.626 239.176V232.923C319.626 232.546 319.32 232.238 318.941 232.238H315.494C315.116 232.238 314.809 232.545 314.809 232.923V239.176C314.809 239.555 315.115 239.861 315.494 239.861Z" fill="#E92D29"/>
<path d="M312.701 239.86H313.394C313.702 239.86 313.951 239.611 313.951 239.304V232.795C313.951 232.488 313.702 232.238 313.394 232.238H312.701C312.394 232.238 312.145 232.488 312.145 232.795V239.304C312.145 239.611 312.394 239.86 312.701 239.86Z" fill="#E92D29"/>
<path d="M256.105 267.371H324.272V255.834H256.105C257.339 255.835 257.339 267.371 256.105 267.371Z" fill="#F1393A"/>
<path d="M324.252 264.48V259.201C324.252 257.339 323.112 255.83 321.707 255.83H256.328C255.223 255.83 254.328 254.934 254.328 253.83C254.328 253.494 254.6 253.222 254.937 253.222H325.413C326.788 253.222 328.97 255.383 328.97 258.05V265.424C328.97 267.938 326.851 269.976 325.554 269.976H255.251C254.741 269.976 254.328 269.562 254.328 269.053C254.328 268.122 255.082 267.367 256.014 267.367H322.073C323.276 267.367 324.252 266.075 324.252 264.48Z" fill="#BE202F"/>
<path d="M322.558 258.284H257.986C257.931 258.284 257.887 258.24 257.887 258.185C257.887 258.13 257.931 258.085 257.986 258.085H322.558C322.613 258.085 322.657 258.13 322.657 258.185C322.657 258.24 322.613 258.284 322.558 258.284Z" fill="#F8F9F9"/>
<path d="M322.558 260.007H257.986C257.931 260.007 257.887 259.962 257.887 259.908C257.887 259.853 257.931 259.808 257.986 259.808H322.558C322.613 259.808 322.657 259.853 322.657 259.908C322.657 259.962 322.613 260.007 322.558 260.007Z" fill="#F8F9F9"/>
<path d="M322.558 261.73H257.986C257.931 261.73 257.887 261.686 257.887 261.631C257.887 261.576 257.931 261.531 257.986 261.531H322.558C322.613 261.531 322.657 261.576 322.657 261.631C322.657 261.686 322.613 261.73 322.558 261.73Z" fill="#F8F9F9"/>
<path d="M322.558 263.426H257.986C257.931 263.426 257.887 263.381 257.887 263.326C257.887 263.271 257.931 263.227 257.986 263.227H322.558C322.613 263.227 322.657 263.271 322.657 263.326C322.657 263.381 322.613 263.426 322.558 263.426Z" fill="#F8F9F9"/>
<path d="M322.558 265.149H257.986C257.931 265.149 257.887 265.104 257.887 265.049C257.887 264.994 257.931 264.95 257.986 264.95H322.558C322.613 264.95 322.657 264.994 322.657 265.049C322.657 265.104 322.613 265.149 322.558 265.149Z" fill="#F8F9F9"/>
<path d="M263.341 253.151H321.933C322.982 253.151 323.832 252.301 323.832 251.252V242.532C323.832 241.482 322.982 240.632 321.933 240.632H263.341C262.292 240.632 261.441 241.482 261.441 242.532V251.252C261.441 252.301 262.292 253.151 263.341 253.151Z" fill="#F1393A"/>
<path d="M312.376 251.719H317.1C317.478 251.719 317.785 251.412 317.785 251.034V242.762C317.785 242.384 317.479 242.077 317.1 242.077H312.376C311.999 242.077 311.691 242.383 311.691 242.762V251.034C311.691 251.411 311.998 251.719 312.376 251.719Z" fill="#BE202F"/>
<path d="M308.921 251.717H310.513C310.705 251.717 310.86 251.562 310.86 251.371V242.424C310.86 242.232 310.705 242.077 310.513 242.077H308.921C308.729 242.077 308.574 242.232 308.574 242.424V251.371C308.574 251.561 308.729 251.717 308.921 251.717Z" fill="#BE202F"/>
<path d="M284.173 215.785L287.84 222.501C287.84 222.501 286.814 234.201 274.713 239.546C262.614 244.89 256.715 239.396 256.715 239.396L252.105 229.443L284.173 215.785Z" fill="#515959"/>
<path d="M263.223 207.543L289.468 210.672C290.819 210.834 291.444 212.437 290.559 213.469C286.237 218.509 276.455 230.203 273.062 236.638C272.699 237.326 271.913 237.678 271.157 237.495L244.072 230.924C242.847 230.627 242.358 229.147 243.166 228.18C247.428 223.077 258.302 210.27 262.099 207.802C262.433 207.586 262.83 207.497 263.223 207.543Z" fill="black"/>
<path d="M265.907 220.455C265.907 220.455 253.817 230.999 253.096 233.09C252.375 235.181 255.799 243.644 255.799 243.644C254.846 251.406 255.789 259.526 260.012 263.195C260.012 263.195 262.886 252.735 260.28 248.921C257.675 245.107 256.656 243.535 256.656 243.535C256.656 243.535 253.48 234.44 253.815 233.017C253.816 233.017 267.129 220.813 265.907 220.455Z" fill="#515959"/>
<path d="M286.949 213.758L275.979 228.4L273.236 232.062L272.55 232.976L272.207 233.434C272.089 233.59 271.95 233.73 271.801 233.856C271.203 234.361 270.375 234.581 269.606 234.434L260.597 232.85C260.569 232.845 260.551 232.819 260.555 232.791C260.559 232.763 260.586 232.746 260.614 232.75L269.628 234.307C270.362 234.445 271.147 234.233 271.714 233.751C271.855 233.63 271.986 233.498 272.098 233.349L272.44 232.891L273.123 231.975L275.854 228.306L286.783 213.632C286.817 213.586 286.882 213.576 286.929 213.61C286.975 213.646 286.984 213.712 286.949 213.758Z" fill="#515959"/>
<path d="M257.619 247.712C258.072 248.097 258.409 248.555 258.703 249.045C258.783 249.164 258.847 249.29 258.913 249.417C258.978 249.543 259.049 249.667 259.11 249.795L259.28 250.185C259.334 250.316 259.397 250.444 259.439 250.58L259.578 250.981C259.623 251.116 259.675 251.247 259.706 251.386C259.777 251.66 259.853 251.932 259.92 252.207L260.075 253.041C260.088 253.111 260.103 253.18 260.112 253.25L260.136 253.46L260.184 253.881C260.266 254.441 260.266 255.007 260.297 255.57C260.307 255.711 260.303 255.852 260.3 255.993L260.291 256.417C260.284 256.698 260.283 256.98 260.272 257.262C260.223 257.824 260.187 258.386 260.129 258.945L259.896 260.619C259.893 260.638 259.876 260.653 259.856 260.65C259.836 260.647 259.823 260.629 259.825 260.609V260.607L260.04 258.936C260.092 258.377 260.123 257.817 260.165 257.257C260.174 256.976 260.172 256.696 260.177 256.416L260.181 255.994C260.183 255.854 260.185 255.714 260.174 255.574C260.136 255.015 260.131 254.453 260.044 253.899L259.992 253.482L259.967 253.274C259.956 253.205 259.941 253.136 259.927 253.068L259.765 252.245C259.696 251.973 259.618 251.705 259.545 251.435C259.513 251.299 259.461 251.169 259.414 251.038L259.273 250.644C259.231 250.51 259.168 250.386 259.113 250.258L258.943 249.876C258.882 249.751 258.812 249.631 258.748 249.508C258.682 249.386 258.618 249.261 258.539 249.148C258.463 249.032 258.391 248.913 258.312 248.799L258.063 248.467C257.971 248.364 257.885 248.256 257.789 248.157L257.644 248.013C257.593 247.969 257.541 247.919 257.494 247.883L257.488 247.879C257.441 247.845 257.432 247.78 257.466 247.733C257.5 247.687 257.565 247.677 257.612 247.711C257.616 247.71 257.618 247.711 257.619 247.712Z" fill="#F8F9F9"/>
<path d="M257.646 251.384C257.659 251.44 257.671 251.499 257.68 251.554L257.702 251.703L257.743 252.001L257.82 252.595L257.968 253.784L258.253 256.162L258.81 260.919C258.814 260.95 258.792 260.978 258.76 260.982C258.729 260.986 258.702 260.963 258.697 260.932L258.093 256.182L257.784 253.807L257.624 252.621L257.542 252.029L257.498 251.734L257.475 251.587C257.467 251.544 257.46 251.506 257.453 251.464L257.446 251.421C257.438 251.365 257.475 251.314 257.531 251.305C257.584 251.298 257.634 251.332 257.646 251.384Z" fill="#F8F9F9"/>
<defs>
<linearGradient id="paint0_linear_1610_27499" x1="291.052" y1="141.99" x2="289.9" y2="152.042" gradientUnits="userSpaceOnUse">
<stop stop-color="#FEBBBA"/>
<stop offset="1" stop-color="#FF928E"/>
</linearGradient>
<linearGradient id="paint1_linear_1610_27499" x1="303.24" y1="143.265" x2="302.163" y2="152.668" gradientUnits="userSpaceOnUse">
<stop stop-color="#FEBBBA"/>
<stop offset="1" stop-color="#FF928E"/>
</linearGradient>
<linearGradient id="paint2_linear_1610_27499" x1="287.454" y1="81.4937" x2="323.681" y2="107.043" gradientUnits="userSpaceOnUse">
<stop stop-color="#BE202F"/>
<stop offset="1" stop-color="#E92D29"/>
</linearGradient>
<linearGradient id="paint3_linear_1610_27499" x1="295.661" y1="87.9399" x2="293.537" y2="76.2137" gradientUnits="userSpaceOnUse">
<stop stop-color="#FEBBBA"/>
<stop offset="1" stop-color="#FF928E"/>
</linearGradient>
<linearGradient id="paint4_linear_1610_27499" x1="282.263" y1="92.5981" x2="282.263" y2="68.0703" gradientUnits="userSpaceOnUse">
<stop stop-color="#BE202F"/>
<stop offset="1" stop-color="#E92D29"/>
</linearGradient>
<linearGradient id="paint5_linear_1610_27499" x1="280.598" y1="62.9124" x2="277.681" y2="72.4959" gradientUnits="userSpaceOnUse">
<stop stop-color="#FEBBBA"/>
<stop offset="1" stop-color="#FF928E"/>
</linearGradient>
<linearGradient id="paint6_linear_1610_27499" x1="301.216" y1="68.9038" x2="331.419" y2="89.2279" gradientUnits="userSpaceOnUse">
<stop stop-color="#BE202F"/>
<stop offset="1" stop-color="#E92D29"/>
</linearGradient>
<linearGradient id="paint7_linear_1610_27499" x1="308.488" y1="63.7458" x2="311.405" y2="73.329" gradientUnits="userSpaceOnUse">
<stop stop-color="#FEBBBA"/>
<stop offset="1" stop-color="#FF928E"/>
</linearGradient>
<linearGradient id="paint8_linear_1610_27499" x1="298.214" y1="75.7383" x2="290.808" y2="71.2215" gradientUnits="userSpaceOnUse">
<stop stop-color="#FEBBBA"/>
<stop offset="1" stop-color="#FF928E"/>
</linearGradient>
<linearGradient id="paint9_linear_1610_27499" x1="295.901" y1="77.4036" x2="289.238" y2="73.3395" gradientUnits="userSpaceOnUse">
<stop stop-color="#FEBBBA"/>
<stop offset="1" stop-color="#FF928E"/>
</linearGradient>
<linearGradient id="paint10_linear_1610_27499" x1="222.886" y1="166.26" x2="238.131" y2="176.819" gradientUnits="userSpaceOnUse">
<stop stop-color="#BE202F"/>
<stop offset="1" stop-color="#E92D29"/>
</linearGradient>
<linearGradient id="paint11_linear_1610_27499" x1="241.523" y1="171.216" x2="213.254" y2="184.91" gradientUnits="userSpaceOnUse">
<stop stop-color="#FEBBBA"/>
<stop offset="1" stop-color="#FF928E"/>
</linearGradient>
<linearGradient id="paint12_linear_1610_27499" x1="241.421" y1="171.488" x2="213.152" y2="185.182" gradientUnits="userSpaceOnUse">
<stop stop-color="#FEBBBA"/>
<stop offset="1" stop-color="#FF928E"/>
</linearGradient>
<linearGradient id="paint13_linear_1610_27499" x1="234.18" y1="183.498" x2="239.628" y2="173.341" gradientUnits="userSpaceOnUse">
<stop stop-color="#FEBBBA"/>
<stop offset="1" stop-color="#FF928E"/>
</linearGradient>
<linearGradient id="paint14_linear_1610_27499" x1="186.301" y1="210.922" x2="189.764" y2="210.922" gradientUnits="userSpaceOnUse">
<stop stop-color="#FEBBBA"/>
<stop offset="1" stop-color="#FF928E"/>
</linearGradient>
<linearGradient id="paint15_linear_1610_27499" x1="233.438" y1="199.8" x2="237.243" y2="199.8" gradientUnits="userSpaceOnUse">
<stop stop-color="#FEBBBA"/>
<stop offset="1" stop-color="#FF928E"/>
</linearGradient>
<linearGradient id="paint16_linear_1610_27499" x1="205.219" y1="163.202" x2="237.493" y2="195.686" gradientUnits="userSpaceOnUse">
<stop stop-color="#BE202F"/>
<stop offset="1" stop-color="#E92D29"/>
</linearGradient>
<linearGradient id="paint17_linear_1610_27499" x1="206.395" y1="180.46" x2="189.571" y2="150.723" gradientUnits="userSpaceOnUse">
<stop stop-color="#FEBBBA"/>
<stop offset="1" stop-color="#FF928E"/>
</linearGradient>
<linearGradient id="paint18_linear_1610_27499" x1="209.15" y1="132.661" x2="211.644" y2="178.929" gradientUnits="userSpaceOnUse">
<stop stop-color="#CB236D"/>
<stop offset="1" stop-color="#4C246D"/>
</linearGradient>
<linearGradient id="paint19_linear_1610_27499" x1="217.149" y1="167.714" x2="218.909" y2="162.693" gradientUnits="userSpaceOnUse">
<stop stop-color="#FEBBBA"/>
<stop offset="1" stop-color="#FF928E"/>
</linearGradient>
<linearGradient id="paint20_linear_1610_27499" x1="222.879" y1="160.224" x2="216.141" y2="156.114" gradientUnits="userSpaceOnUse">
<stop stop-color="#FEBBBA"/>
<stop offset="1" stop-color="#FF928E"/>
</linearGradient>
<linearGradient id="paint21_linear_1610_27499" x1="221.219" y1="161.756" x2="215.157" y2="158.058" gradientUnits="userSpaceOnUse">
<stop stop-color="#FEBBBA"/>
<stop offset="1" stop-color="#FF928E"/>
</linearGradient>
<linearGradient id="paint22_linear_1610_27499" x1="142.281" y1="258.548" x2="147.743" y2="258.548" gradientUnits="userSpaceOnUse">
<stop stop-color="#FEBBBA"/>
<stop offset="1" stop-color="#FF928E"/>
</linearGradient>
<linearGradient id="paint23_linear_1610_27499" x1="122.715" y1="258.262" x2="127.431" y2="258.262" gradientUnits="userSpaceOnUse">
<stop stop-color="#FEBBBA"/>
<stop offset="1" stop-color="#FF928E"/>
</linearGradient>
<linearGradient id="paint24_linear_1610_27499" x1="123.998" y1="119.652" x2="206.557" y2="193.008" gradientUnits="userSpaceOnUse">
<stop stop-color="#BE202F"/>
<stop offset="1" stop-color="#E92D29"/>
</linearGradient>
<linearGradient id="paint25_linear_1610_27499" x1="160.944" y1="132.044" x2="198.063" y2="101.019" gradientUnits="userSpaceOnUse">
<stop stop-color="#FEBBBA"/>
<stop offset="1" stop-color="#FF928E"/>
</linearGradient>
<linearGradient id="paint26_linear_1610_27499" x1="185.109" y1="107.248" x2="198.22" y2="89.1511" gradientUnits="userSpaceOnUse">
<stop stop-color="#FEBBBA"/>
<stop offset="1" stop-color="#FF928E"/>
</linearGradient>
<linearGradient id="paint27_linear_1610_27499" x1="191.429" y1="98.417" x2="217.467" y2="67.3935" gradientUnits="userSpaceOnUse">
<stop stop-color="#FEBBBA"/>
<stop offset="1" stop-color="#FF928E"/>
</linearGradient>
<linearGradient id="paint28_linear_1610_27499" x1="106.675" y1="125.794" x2="139.017" y2="155.065" gradientUnits="userSpaceOnUse">
<stop stop-color="#BE202F"/>
<stop offset="1" stop-color="#E92D29"/>
</linearGradient>
<linearGradient id="paint29_linear_1610_27499" x1="103.593" y1="155.568" x2="138.906" y2="155.568" gradientUnits="userSpaceOnUse">
<stop stop-color="#FEBBBA"/>
<stop offset="1" stop-color="#FF928E"/>
</linearGradient>
<linearGradient id="paint30_linear_1610_27499" x1="136.5" y1="151.86" x2="147.5" y2="151.86" gradientUnits="userSpaceOnUse">
<stop stop-color="#FEBBBA"/>
<stop offset="1" stop-color="#FF928E"/>
</linearGradient>
<linearGradient id="paint31_linear_1610_27499" x1="131.305" y1="131.66" x2="140.908" y2="113.009" gradientUnits="userSpaceOnUse">
<stop stop-color="#FEBBBA"/>
<stop offset="1" stop-color="#FF928E"/>
</linearGradient>
<linearGradient id="paint32_linear_1610_27499" x1="356.219" y1="238.126" x2="380.096" y2="252.952" gradientUnits="userSpaceOnUse">
<stop stop-color="#FEBBBA"/>
<stop offset="1" stop-color="#FF928E"/>
</linearGradient>
<linearGradient id="paint33_linear_1610_27499" x1="353.21" y1="242.468" x2="377.088" y2="257.294" gradientUnits="userSpaceOnUse">
<stop stop-color="#FEBBBA"/>
<stop offset="1" stop-color="#FF928E"/>
</linearGradient>
</defs>
</svg>
