<svg width="174" height="42" viewBox="0 0 174 42" fill="none" xmlns="http://www.w3.org/2000/svg">
<path d="M38.9436 32.8338L38.9269 32.9841C38.9018 33.1596 38.8851 33.3475 38.8851 33.5521C38.881 33.7568 38.881 33.9405 38.881 34.1076V35.4398H40.7227V34.1076C40.7227 33.9196 40.7185 33.715 40.706 33.4936C40.6935 33.2723 40.6809 33.0551 40.6642 32.8338H42.2846C42.2721 32.9048 42.2637 32.9633 42.2637 33.005C42.2596 33.0468 42.2596 33.0927 42.2596 33.147C42.2554 33.2013 42.247 33.2723 42.2429 33.36C42.2387 33.4477 42.2303 33.5521 42.2178 33.6691C42.2136 33.7693 42.2094 33.857 42.2094 33.9238C42.2094 33.9948 42.2094 34.0574 42.2094 34.1034V37.979C42.2094 38.1878 42.2136 38.3882 42.222 38.5845C42.2303 38.7808 42.247 38.998 42.2721 39.2402H40.6726C40.6851 39.0314 40.6976 38.8142 40.706 38.5887C40.7185 38.3632 40.7227 38.1544 40.7227 37.9706V36.3001H38.881V37.9706C38.881 38.0959 38.8851 38.2504 38.8893 38.4342C38.8935 38.6179 38.906 38.785 38.9186 38.9395C38.9186 38.9896 38.9186 39.0356 38.9227 39.0731C38.9269 39.1149 38.9311 39.1692 38.9353 39.2444H37.3357C37.3608 39.023 37.3733 38.81 37.3817 38.6012C37.39 38.3924 37.3942 38.1836 37.3942 37.9831V34.1076C37.3942 34.0533 37.3942 33.9948 37.39 33.9238C37.3859 33.8528 37.3817 33.7693 37.3775 33.6732C37.365 33.4435 37.3566 33.2681 37.3525 33.147C37.3483 33.0969 37.3441 33.0468 37.3441 33.005C37.3441 32.9633 37.3399 32.909 37.3274 32.8338H38.9436V32.8338Z" fill="#C47B2A"/>
<path d="M47.2962 35.9368C47.2836 35.7488 47.1918 35.5985 47.0164 35.4857C46.8409 35.373 46.6238 35.3145 46.3649 35.3145C46.1727 35.3145 45.9848 35.3479 45.7927 35.4106C45.6048 35.4774 45.3834 35.586 45.137 35.7363V34.7257C45.396 34.6755 45.6298 34.6421 45.8303 34.6212C46.0308 34.6004 46.2521 34.592 46.486 34.592C47.1583 34.592 47.6846 34.7173 48.0688 34.9679C48.453 35.2185 48.6451 35.5693 48.6451 36.0119V37.9998C48.6451 38.1752 48.6493 38.3256 48.6576 38.4509C48.666 38.5762 48.6827 38.7056 48.7036 38.8267C48.7161 38.8894 48.7286 38.9479 48.737 39.0021C48.7453 39.0564 48.7662 39.1316 48.7913 39.236H47.3922C47.363 39.1692 47.3463 39.1149 47.3421 39.0648C47.3379 39.0189 47.3337 38.952 47.3337 38.8685C47.1583 39.0356 46.9788 39.1525 46.795 39.2235C46.6113 39.2945 46.3983 39.3321 46.156 39.3321C45.7259 39.3321 45.3834 39.211 45.1245 38.9687C44.8656 38.7265 44.7319 38.4091 44.7319 38.0124C44.7319 37.6407 44.8447 37.3233 45.0744 37.0644C45.3041 36.8054 45.6674 36.5799 46.1727 36.3795C46.3732 36.2959 46.5528 36.2291 46.7157 36.1832C46.8785 36.1372 47.0748 36.0871 47.3003 36.0412L47.2962 35.9368ZM47.3296 36.6593C47.246 36.7136 47.1792 36.7511 47.1333 36.7762C47.0873 36.8013 47.0414 36.8263 46.9996 36.8555L46.6614 37.0268C46.2062 37.2565 45.9806 37.553 45.9806 37.9163C45.9806 38.1043 46.0433 38.2588 46.1686 38.3799C46.2939 38.501 46.4526 38.5636 46.6447 38.5636C46.77 38.5636 46.8869 38.5428 46.9913 38.501C47.0999 38.4592 47.2126 38.3882 47.3296 38.288V36.6593V36.6593Z" fill="#C47B2A"/>
<path d="M52.7461 34.7299C52.7837 34.8092 52.8088 34.8802 52.8213 34.9345C52.8338 34.993 52.838 35.0681 52.838 35.1642V35.1892C52.955 34.9846 53.1011 34.8384 53.2723 34.7507C53.4436 34.6589 53.6482 34.6129 53.8863 34.6129C53.903 34.6129 53.9238 34.6129 53.9489 34.6129C53.974 34.6129 53.999 34.6171 54.0283 34.6213V35.6528C53.974 35.6403 53.928 35.6319 53.8863 35.6236C53.8445 35.6152 53.7986 35.611 53.7526 35.611C53.4686 35.611 53.2515 35.7071 53.0969 35.9034C52.9424 36.0955 52.8631 36.3711 52.8631 36.7219V37.9665C52.8631 38.1753 52.8714 38.3841 52.884 38.5929C52.8965 38.8017 52.9132 39.0189 52.9299 39.236H51.4682C51.4849 39.0231 51.5016 38.7934 51.51 38.5553C51.5225 38.3173 51.5267 38.1168 51.5267 37.9665V36.0203C51.5267 35.8658 51.5225 35.7196 51.5141 35.5902C51.5058 35.4607 51.4974 35.3396 51.4849 35.2268C51.4682 35.1517 51.4515 35.0807 51.4348 35.0138C51.4181 34.947 51.393 34.851 51.3596 34.7257H52.7461V34.7299Z" fill="#C47B2A"/>
<path d="M56.2124 38.6973C56.2291 38.6179 56.2416 38.5261 56.2542 38.4258C56.2667 38.3256 56.2709 38.2212 56.275 38.1168C56.2792 38.0082 56.2792 37.8871 56.2792 37.7451V34.1159C56.2792 34.07 56.2792 34.0115 56.2792 33.9447C56.2792 33.8737 56.2751 33.786 56.2709 33.6816C56.2709 33.5855 56.2709 33.502 56.2667 33.431C56.2625 33.36 56.2625 33.2932 56.2583 33.2305C56.2542 33.1679 56.25 33.1094 56.2458 33.0468C56.2416 32.9883 56.2333 32.9173 56.2291 32.8338H57.6407V34.9929C57.8161 34.8551 57.9748 34.7591 58.121 34.7006C58.2671 34.6421 58.4425 34.6129 58.6388 34.6129C58.8894 34.6129 59.1149 34.663 59.3195 34.7674C59.5242 34.8718 59.6996 35.018 59.8416 35.2101C59.9877 35.4022 60.0963 35.6361 60.1715 35.9075C60.2467 36.179 60.2884 36.4839 60.2884 36.8221C60.2884 37.2022 60.2383 37.5446 60.1423 37.8537C60.0462 38.1627 59.9042 38.4258 59.7205 38.6472C59.5367 38.8685 59.3195 39.0397 59.0648 39.1608C58.81 39.282 58.5261 39.3446 58.217 39.3446C57.9581 39.3446 57.7409 39.3112 57.5697 39.2527C57.3985 39.1901 57.2189 39.0773 57.031 38.9144L56.5924 39.2861L56.1331 39.023C56.1665 38.8852 56.1957 38.7808 56.2124 38.6973ZM57.6365 35.7781V37.9205C57.6365 38.4133 57.8119 38.6597 58.1627 38.6597C58.6764 38.6597 58.9353 38.1001 58.9353 36.9808C58.9353 36.4588 58.8769 36.0746 58.7641 35.8324C58.6513 35.586 58.4718 35.4648 58.2295 35.4648C58.0249 35.4607 57.8286 35.5651 57.6365 35.7781Z" fill="#C47B2A"/>
<path d="M62.6523 36.0036C62.7525 35.7113 62.8903 35.4607 63.0741 35.256C63.2578 35.0514 63.4792 34.8969 63.7381 34.7841C63.997 34.6755 64.2894 34.6212 64.6151 34.6212C64.9409 34.6212 65.2332 34.6755 65.4921 34.7841C65.7511 34.8927 65.9682 35.0514 66.1478 35.256C66.3274 35.4607 66.4694 35.7071 66.5654 36.0036C66.6657 36.2959 66.7116 36.6259 66.7116 36.985C66.7116 37.3483 66.6615 37.6741 66.5654 37.9664C66.4652 38.2588 66.3274 38.5052 66.1478 38.714C65.9682 38.9186 65.7469 39.0773 65.4921 39.1859C65.2332 39.2945 64.9409 39.3488 64.6151 39.3488C64.2894 39.3488 63.997 39.2945 63.7381 39.1859C63.4792 39.0773 63.2578 38.9186 63.0741 38.714C62.8903 38.5093 62.7483 38.2588 62.6523 37.9664C62.552 37.6741 62.5061 37.3483 62.5061 36.985C62.5019 36.6259 62.552 36.3001 62.6523 36.0036ZM64.0722 35.7572C63.9594 36.0203 63.901 36.4296 63.901 36.9892C63.901 38.075 64.139 38.6179 64.6151 38.6179C65.0912 38.6179 65.3251 38.075 65.3251 36.9892C65.3251 36.4296 65.2666 36.0203 65.1497 35.7572C65.0327 35.4941 64.8532 35.3604 64.6109 35.3604C64.3687 35.3604 64.1891 35.4941 64.0722 35.7572Z" fill="#C47B2A"/>
<path d="M70.6415 34.7215C70.6165 35.0222 70.5998 35.2894 70.5831 35.5275C70.5705 35.7655 70.5622 35.9409 70.5622 36.0537V37.8578C70.5622 38.075 70.6081 38.2337 70.7 38.3339C70.7919 38.4342 70.9422 38.4843 71.151 38.4843C71.293 38.4843 71.41 38.455 71.506 38.4008C71.6021 38.3465 71.7065 38.2379 71.8234 38.0792V36.0704C71.8234 35.9075 71.8234 35.7655 71.8234 35.6528C71.8234 35.54 71.8192 35.4356 71.8151 35.3354C71.8109 35.2351 71.8025 35.1391 71.7984 35.0472C71.7942 34.9553 71.7858 34.8426 71.7733 34.7215H73.2642C73.2517 34.8593 73.2433 34.9637 73.2392 35.0347C73.235 35.1099 73.2225 35.1976 73.2141 35.2978C73.1974 35.5943 73.1891 35.8532 73.1891 36.0788V37.9372C73.1891 38.1669 73.1932 38.3799 73.2016 38.5678C73.2099 38.7557 73.2266 38.9813 73.2475 39.236H71.8318V38.81C71.6313 38.9854 71.435 39.1191 71.2346 39.211C71.0383 39.2987 70.8295 39.3446 70.6165 39.3446C70.4369 39.3446 70.2573 39.3112 70.0736 39.2527C69.8898 39.1901 69.7353 39.1107 69.61 39.0063C69.468 38.8936 69.3678 38.7474 69.3051 38.572C69.2425 38.3924 69.2133 38.1627 69.2133 37.8787V36.0746C69.2133 35.9368 69.2133 35.8073 69.2133 35.6737C69.2133 35.5358 69.2091 35.4064 69.1966 35.2811C69.1924 35.185 69.184 35.1015 69.1798 35.0305C69.1757 34.9595 69.1673 34.8551 69.1548 34.7215H70.6415V34.7215Z" fill="#C47B2A"/>
<path d="M77.2943 34.7299C77.3318 34.8092 77.3569 34.8802 77.3694 34.9345C77.382 34.993 77.3861 35.0681 77.3861 35.1642V35.1892C77.5031 34.9846 77.6492 34.8384 77.8205 34.7507C77.9917 34.6589 78.1963 34.6129 78.4344 34.6129C78.4511 34.6129 78.472 34.6129 78.4928 34.6129C78.5179 34.6129 78.543 34.6171 78.5722 34.6213V35.6528C78.5179 35.6403 78.472 35.6319 78.4302 35.6236C78.3884 35.6152 78.3425 35.611 78.2966 35.611C78.0126 35.611 77.7954 35.7071 77.6409 35.9034C77.4864 36.0955 77.407 36.3711 77.407 36.7219V37.9665C77.407 38.1753 77.4154 38.3841 77.4279 38.5929C77.4404 38.8017 77.4571 39.0189 77.4738 39.236H76.0121C76.0289 39.0231 76.0456 38.7934 76.0539 38.5553C76.0664 38.3173 76.0706 38.1168 76.0706 37.9665V36.0203C76.0706 35.8658 76.0664 35.7196 76.0581 35.5902C76.0497 35.4607 76.0414 35.3396 76.0289 35.2268C76.0121 35.1517 75.9954 35.0807 75.9787 35.0138C75.962 34.947 75.937 34.851 75.9036 34.7257H77.2943V34.7299Z" fill="#C47B2A"/>
<path d="M85.981 32.8338L86.0185 32.9674C86.077 33.1888 86.123 33.3809 86.1647 33.5521C86.2023 33.7233 86.2566 33.9071 86.3192 34.1076L87.3591 37.3901L88.4366 34.1076C88.4992 33.9071 88.5619 33.6983 88.6245 33.4769C88.6872 33.2556 88.7415 33.0426 88.7916 32.8338H89.8106C89.7814 32.9048 89.7605 32.9633 89.7479 33.005C89.7354 33.0468 89.7187 33.0927 89.6895 33.147C89.6602 33.218 89.631 33.3015 89.5976 33.3892C89.5642 33.4769 89.535 33.5646 89.5057 33.6565C89.4765 33.7442 89.4473 33.8319 89.418 33.9113C89.3888 33.9906 89.3637 34.0574 89.347 34.1076L87.7893 38.7474L87.9605 39.2485H86.432L84.7281 34.1117C84.7072 34.0366 84.6571 33.8904 84.5777 33.6774C84.5109 33.4978 84.4524 33.3475 84.4023 33.2264C84.3522 33.1053 84.3021 32.9758 84.2478 32.8422H85.981V32.8338Z" fill="#C47B2A"/>
<path d="M93.3186 35.9368C93.3061 35.7488 93.2142 35.5985 93.0388 35.4857C92.8634 35.373 92.6462 35.3145 92.3873 35.3145C92.1952 35.3145 92.0073 35.3479 91.8152 35.4106C91.6272 35.4774 91.4059 35.586 91.1595 35.7363V34.7257C91.4184 34.6755 91.6523 34.6421 91.8528 34.6212C92.0574 34.6004 92.2746 34.592 92.5084 34.592C93.1808 34.592 93.707 34.7173 94.0912 34.9679C94.4755 35.2185 94.6676 35.5693 94.6676 36.0119V37.9998C94.6676 38.1752 94.6717 38.3256 94.6801 38.4509C94.6884 38.5762 94.7051 38.7056 94.726 38.8267C94.7386 38.8894 94.7511 38.9479 94.7594 39.0021C94.7678 39.0564 94.7887 39.1316 94.8137 39.236H93.4147C93.3854 39.1692 93.3687 39.1149 93.3604 39.0648C93.3562 39.0189 93.352 38.952 93.352 38.8685C93.1766 39.0356 92.9971 39.1525 92.8133 39.2235C92.6295 39.2945 92.4166 39.3321 92.1743 39.3321C91.7442 39.3321 91.4017 39.211 91.1428 38.9687C90.8839 38.7265 90.7544 38.4091 90.7544 38.0124C90.7544 37.6407 90.8672 37.3233 91.0969 37.0644C91.3265 36.8054 91.6899 36.5799 92.1952 36.3795C92.3957 36.2959 92.5752 36.2291 92.7381 36.1832C92.901 36.1372 93.0973 36.0871 93.3228 36.0412L93.3186 35.9368ZM93.3562 36.6593C93.2727 36.7136 93.2059 36.7511 93.1599 36.7762C93.114 36.8013 93.068 36.8263 93.0263 36.8555L92.688 37.0268C92.2328 37.2565 92.0073 37.553 92.0073 37.9163C92.0073 38.1043 92.0699 38.2588 92.1952 38.3799C92.3205 38.501 92.4792 38.5636 92.6713 38.5636C92.7966 38.5636 92.9093 38.5428 93.0179 38.501C93.1265 38.4592 93.2393 38.3882 93.3562 38.288V36.6593Z" fill="#C47B2A"/>
<path d="M97.4405 38.501C97.4531 38.2797 97.4572 38.0708 97.4572 37.8746V36.0245C97.4572 35.8115 97.4531 35.6027 97.4447 35.398C97.4363 35.1934 97.4196 34.972 97.3988 34.7256H98.8145V35.1433C99.2071 34.7925 99.5997 34.6171 100.005 34.6171C100.201 34.6171 100.393 34.6463 100.577 34.7089C100.761 34.7716 100.919 34.8509 101.049 34.9553C101.187 35.0723 101.283 35.2184 101.345 35.3897C101.408 35.5609 101.437 35.7906 101.437 36.0746V37.8871C101.437 38.0249 101.437 38.1544 101.441 38.288C101.446 38.4175 101.45 38.5469 101.454 38.6764C101.458 38.7725 101.466 38.856 101.471 38.927C101.475 38.998 101.487 39.1024 101.496 39.236H100.013L100.021 39.0397C100.026 38.927 100.034 38.8142 100.038 38.6973C100.042 38.5803 100.051 38.4718 100.063 38.3674C100.072 38.2629 100.08 38.1711 100.088 38.0917C100.092 38.0124 100.097 37.9497 100.097 37.9038V36.0913C100.097 35.6737 99.9003 35.4607 99.5078 35.4607C99.3658 35.4607 99.2447 35.4899 99.1444 35.5525C99.0442 35.6152 98.9398 35.7238 98.827 35.8741V37.8829C98.827 38.0458 98.827 38.1878 98.827 38.3089C98.827 38.4216 98.8312 38.5261 98.8354 38.6179C98.8396 38.714 98.8479 38.8059 98.8521 38.9019C98.8563 38.998 98.8646 39.1066 98.8772 39.2318H97.3862C97.4071 38.9729 97.428 38.7265 97.4405 38.501Z" fill="#C47B2A"/>
<path d="M108.499 38.9896C108.504 38.9144 108.508 38.8476 108.512 38.785C108.516 38.7223 108.516 38.6639 108.52 38.6012C108.524 38.5428 108.529 38.4759 108.533 38.4049L108.541 38.2922L108.549 37.9706V34.1034C108.549 33.882 108.545 33.6774 108.537 33.4811C108.529 33.2848 108.512 33.0677 108.491 32.8338H110.546C111.477 32.8338 112.187 33.1136 112.671 33.6691C113.156 34.2245 113.402 35.0305 113.402 36.0788C113.402 36.772 113.273 37.3692 113.01 37.8704C112.747 38.3715 112.367 38.7474 111.87 38.9938C111.715 39.0731 111.531 39.1358 111.31 39.1775C111.089 39.2193 110.851 39.2402 110.592 39.2402H108.487C108.487 39.1483 108.491 39.0648 108.499 38.9896ZM110.625 38.4049C110.842 38.4049 111.03 38.359 111.193 38.2629C111.352 38.1669 111.485 38.0207 111.586 37.8161C111.686 37.6115 111.761 37.3525 111.807 37.0351C111.853 36.7177 111.878 36.3335 111.878 35.8825C111.878 35.3312 111.824 34.8885 111.711 34.5586C111.598 34.2287 111.423 33.9781 111.181 33.8069C111.11 33.7568 111.009 33.7192 110.888 33.6941C110.767 33.6691 110.633 33.6565 110.483 33.6565H110.036V38.4091H110.625V38.4049Z" fill="#C47B2A"/>
<path d="M115.766 36.0036C115.866 35.7113 116.004 35.4607 116.188 35.256C116.372 35.0514 116.593 34.8969 116.852 34.7841C117.111 34.6755 117.403 34.6212 117.729 34.6212C118.055 34.6212 118.347 34.6755 118.606 34.7841C118.865 34.8927 119.082 35.0514 119.262 35.256C119.441 35.4607 119.583 35.7071 119.679 36.0036C119.779 36.2959 119.825 36.6259 119.825 36.985C119.825 37.3483 119.775 37.6741 119.679 37.9664C119.579 38.2588 119.441 38.5052 119.262 38.714C119.082 38.9186 118.861 39.0773 118.606 39.1859C118.347 39.2945 118.055 39.3488 117.729 39.3488C117.403 39.3488 117.111 39.2945 116.852 39.1859C116.593 39.0773 116.367 38.9186 116.188 38.714C116.004 38.5093 115.862 38.2588 115.766 37.9664C115.666 37.6741 115.62 37.3483 115.62 36.985C115.62 36.6259 115.666 36.3001 115.766 36.0036ZM117.186 35.7572C117.073 36.0203 117.015 36.4296 117.015 36.9892C117.015 38.075 117.253 38.6179 117.729 38.6179C118.205 38.6179 118.439 38.075 118.439 36.9892C118.439 36.4296 118.38 36.0203 118.263 35.7572C118.147 35.4941 117.967 35.3604 117.725 35.3604C117.482 35.3604 117.303 35.4941 117.186 35.7572Z" fill="#C47B2A"/>
<path d="M122.335 38.501C122.348 38.2797 122.352 38.0708 122.352 37.8746V36.0245C122.352 35.8115 122.348 35.6027 122.339 35.398C122.331 35.1934 122.314 34.972 122.294 34.7256H123.709V35.1433C124.102 34.7925 124.494 34.6171 124.9 34.6171C125.096 34.6171 125.288 34.6463 125.472 34.7089C125.655 34.7716 125.814 34.8509 125.944 34.9553C126.081 35.0723 126.177 35.2184 126.24 35.3897C126.303 35.5609 126.332 35.7906 126.332 36.0746V37.8871C126.332 38.0249 126.332 38.1544 126.336 38.288C126.34 38.4216 126.345 38.5469 126.349 38.6764C126.353 38.7725 126.361 38.856 126.365 38.927C126.37 38.998 126.382 39.1024 126.39 39.236H124.908L124.916 39.0397C124.92 38.927 124.929 38.8142 124.933 38.6973C124.937 38.5803 124.945 38.4718 124.958 38.3674C124.966 38.2629 124.975 38.1711 124.983 38.0917C124.991 38.0124 124.991 37.9497 124.991 37.9038V36.0913C124.991 35.6737 124.795 35.4607 124.403 35.4607C124.261 35.4607 124.139 35.4899 124.039 35.5525C123.939 35.6152 123.835 35.7238 123.722 35.8741V37.8829C123.722 38.0458 123.722 38.1878 123.722 38.3089C123.722 38.4216 123.726 38.5261 123.73 38.6179C123.734 38.714 123.743 38.8059 123.747 38.9019C123.751 38.998 123.759 39.1066 123.772 39.2318H122.281C122.302 38.9729 122.323 38.7265 122.335 38.501Z" fill="#C47B2A"/>
<path d="M18.7222 22.4558C18.8809 22.2678 19.0104 22.105 19.1064 21.9546C19.2025 21.8043 19.2693 21.6581 19.2693 21.4952C19.2693 21.3908 19.2359 21.2906 19.1774 21.1987C19.0939 21.0693 18.931 20.9565 18.7222 20.9565C18.6637 20.9565 18.6011 20.9649 18.5426 20.9857C18.505 20.9941 18.4382 21.0191 18.3463 21.0818C18.2085 21.1737 17.9747 21.3574 17.4944 21.7876C17.0141 22.2177 16.2833 22.8943 15.1557 23.9592C13.2388 25.7717 11.0838 27.3002 8.75346 28.4947C6.85743 29.4677 5.37903 29.9522 4.36002 29.948C4.15121 29.948 3.96328 29.9271 3.79205 29.8895H3.78787H3.7837C3.09461 29.7559 2.60599 29.451 2.27189 28.9541C1.93779 28.4571 1.76656 27.7555 1.76656 26.8325C1.76656 26.5276 1.78327 26.2019 1.82085 25.8553C2.09649 23.266 3.37025 20.4386 5.6129 17.4526C7.14142 15.4271 9.04162 13.6063 11.2592 12.0443C13.4601 10.4949 15.3311 9.60958 16.7928 9.40494C16.9222 9.38824 17.0392 9.37989 17.1519 9.37989C17.6614 9.38406 17.9914 9.53858 18.2252 9.86016C18.3171 9.98962 18.3714 10.1692 18.3714 10.4156C18.3714 10.8249 18.2169 11.397 17.9037 12.0903C17.2814 13.4517 16.467 14.642 15.4772 15.6318C14.997 16.112 14.6796 16.4044 14.4666 16.5839C14.4123 16.4294 14.3246 16.2958 14.1951 16.2123C14.0949 16.1413 13.9696 16.1037 13.8443 16.1037C13.7859 16.1037 13.7274 16.112 13.6689 16.1246H13.6647H13.6606C13.1719 16.2707 12.7293 16.7176 12.2198 17.4944C11.7854 18.1626 11.5641 18.6721 11.5599 19.1022C11.5599 19.1816 11.5683 19.2609 11.585 19.3361V19.3403C11.6393 19.6159 11.752 19.8957 11.9149 20.1839C12.0193 20.3676 12.1989 20.4929 12.4077 20.5305C12.4495 20.5389 12.4912 20.5389 12.533 20.5389C12.7418 20.5389 12.9548 20.4595 13.2012 20.3134C13.4476 20.1672 13.7274 19.9458 14.0657 19.641C15.1891 18.6053 16.442 17.1603 17.7951 15.3352C19.1482 13.5102 19.8498 11.7812 19.8498 10.1817C19.8498 10.1316 19.8498 10.0773 19.8456 10.0272C19.8206 9.37571 19.6368 8.8328 19.2985 8.43187C18.9603 8.03095 18.4633 7.78038 17.8535 7.68432C17.5946 7.64256 17.3232 7.62585 17.0475 7.62585C16.1663 7.62585 15.2016 7.82632 14.1659 8.21888C11.8857 9.0792 9.50936 10.6077 7.10383 12.7585C4.69412 14.9134 2.80228 17.3315 1.48675 19.95C0.538738 21.8753 0.0334101 23.7671 0 25.5838C0 25.6506 0 25.7216 0 25.7884C0 27.5341 0.396745 29.0083 1.19024 30.161C1.92108 31.2468 2.97768 31.8064 4.28067 31.8023C4.56048 31.8023 4.85282 31.7772 5.15769 31.7271C6.75302 31.464 8.42353 30.7791 10.1316 29.7016C11.8063 28.6408 13.4518 27.413 15.0179 26.0432C16.5798 24.6817 17.8243 23.479 18.7222 22.4558Z" fill="#C47B2A"/>
<path d="M21.5244 19.8169L21.5461 19.8039L21.5244 19.8169Z" fill="#C47B2A"/>
<path d="M27.0623 22.3681C27.2377 22.1968 27.363 22.059 27.4507 21.9296C27.5426 21.8001 27.5969 21.679 27.6136 21.5495C27.6177 21.5203 27.6177 21.4911 27.6177 21.4618C27.6177 21.228 27.4883 21.0609 27.3505 20.9774C27.2628 20.9231 27.1667 20.9022 27.079 20.9022C26.8284 20.9064 26.653 21.0567 26.5695 21.1152C26.3774 21.2614 26.0684 21.5495 25.6048 22.0089C25.1621 22.4474 24.6526 22.9402 24.0763 23.4915C23.5167 24.0261 22.8234 24.6107 22.0257 25.2246C21.9004 25.3207 21.8002 25.3875 21.7167 25.4418C21.796 25.0242 21.9798 24.569 22.2847 24.0803C22.5561 23.646 22.7399 23.3829 22.861 23.2326C22.9779 23.0822 23.0364 23.0363 23.0364 23.0363C23.1283 22.9736 23.2452 22.8859 23.3412 22.769C23.4373 22.6521 23.5208 22.4975 23.5292 22.3096V22.2762C23.5292 22.1217 23.4832 21.9755 23.3955 21.8586C23.3078 21.7416 23.1784 21.6539 23.0322 21.6122C23.0071 21.6038 22.9153 21.5746 22.6647 21.4744L23.074 21.1027C23.17 21.0108 23.287 20.8939 23.383 20.7519C23.4791 20.6099 23.5542 20.4345 23.5542 20.2382L23.5501 20.1588C23.5375 20.0168 23.454 19.7537 23.1575 19.5741C22.9946 19.4781 22.815 19.428 22.6188 19.4322C22.293 19.4322 21.938 19.5616 21.5371 19.7997C20.9399 20.1547 20.5974 20.7477 20.5599 21.4702C20.5097 21.5328 20.397 21.6623 20.1589 21.9045C19.8165 22.2553 19.4949 22.5852 19.1942 22.8985C19.0606 23.0405 18.9436 23.1616 18.8559 23.2869C18.7682 23.4121 18.7014 23.5416 18.7014 23.6919C18.7014 23.7671 18.7181 23.8423 18.7515 23.9133L18.7557 23.9175L18.8852 24.1555L18.9311 24.2432L19.2694 24.2265C19.5033 24.214 19.7121 24.0929 19.9543 23.8757C20.1088 23.7379 20.61 23.2827 21.4202 22.5393C21.4494 22.5477 21.487 22.5602 21.5371 22.5769C20.6559 23.6878 20.1255 24.6024 19.9334 25.3708C19.8582 25.6757 19.8207 25.9346 19.8207 26.1685C19.8207 26.4358 19.8749 26.6696 19.9919 26.8576C20.1213 27.0664 20.326 27.2125 20.564 27.2627C20.6476 27.2835 20.7353 27.2919 20.8271 27.2919C21.3074 27.2877 21.8461 27.033 22.4851 26.5485C23.1533 26.0432 24.0262 25.2706 25.0828 24.2557C26.1519 23.2493 26.8076 22.6186 27.0623 22.3681Z" fill="#C47B2A"/>
<path d="M36.3502 21.5412C36.417 21.4618 36.463 21.4076 36.4922 21.3783L36.5214 21.3449L36.5298 21.3366C36.6133 21.2781 36.6927 21.2071 36.7553 21.1027C36.8221 20.9941 36.8639 20.8521 36.8639 20.6934C36.8639 20.4804 36.7971 20.234 36.6384 19.9333C36.6008 19.8582 36.5214 19.712 36.4003 19.5825C36.2792 19.4531 36.1038 19.3194 35.8658 19.3194H35.8532H35.8491H35.8449C35.7697 19.3194 35.6653 19.3403 35.5525 19.4029C35.4481 19.4614 35.3437 19.5658 35.2602 19.7203C34.7925 20.376 33.8236 21.4493 32.3869 22.8943C31.0297 24.2599 30.0566 25.162 29.5053 25.5755C29.5721 25.0701 29.9522 24.2766 30.6413 23.2576C31.3638 22.1885 32.0695 21.253 32.7377 20.4762L32.8714 20.3217L32.9299 20.2549L32.838 19.9793C32.8254 19.9333 32.7962 19.879 32.7545 19.8164C32.7085 19.7496 32.6459 19.6661 32.5331 19.5324C32.4078 19.3779 32.2241 19.2902 32.0236 19.286H32.0111H32.0069C31.8357 19.286 31.6644 19.3445 31.4932 19.4572C31.322 19.57 31.1466 19.7287 30.9461 19.95C30.0566 20.8939 29.2798 22.0215 28.6367 23.3078C28.2232 24.1347 28.0144 24.8822 28.0144 25.5379C28.0144 25.9722 28.1063 26.3648 28.2942 26.7072C28.432 27.0539 28.6826 27.2126 28.8622 27.2669C28.9499 27.2961 29.0376 27.3086 29.1295 27.3086C29.38 27.3086 29.6348 27.2084 29.9104 27.0288H29.9146H29.9188C30.4784 26.6362 31.1132 26.0892 31.819 25.3959C31.2218 26.3439 30.6162 27.2836 29.9898 28.2065C28.6241 30.2195 27.3337 32.2032 26.1309 34.1285L26.1267 34.1368L26.1225 34.1452C26.0181 34.3623 25.968 34.5962 25.968 34.8384C25.968 35.1767 26.0641 35.5317 26.252 35.9076C26.3439 36.0955 26.4441 36.2876 26.5736 36.4421C26.6989 36.5966 26.8743 36.7219 27.0998 36.7219H27.104H27.1457H27.1499H27.1541C27.2167 36.7177 27.317 36.6969 27.4214 36.6259C27.5258 36.5591 27.626 36.4379 27.6803 36.2584C28.3401 34.308 29.4427 32.0362 30.9587 29.5179C32.4872 26.9787 34.0574 24.6108 35.6194 22.4809C35.9869 21.9839 36.2124 21.7041 36.3502 21.5412Z" fill="#C47B2A"/>
<path d="M42.5938 24.2182L42.4393 24.1931L42.5938 24.2182C42.598 24.1931 42.6021 24.1639 42.6021 24.1263C42.6021 24.047 42.5854 23.9467 42.5311 23.8381C42.4768 23.7296 42.3808 23.6252 42.2388 23.5375L42.2304 23.5333L42.1511 23.4957L42.1427 23.4915L42.1344 23.4873C42.1093 23.479 42.0592 23.4623 41.9924 23.4539C41.9214 23.4456 41.8253 23.4414 41.675 23.4414C41.5121 23.4414 41.2783 23.4498 40.9525 23.4665C40.9274 23.2618 40.8899 23.0488 40.8356 22.8317C40.7562 22.5184 40.7019 22.2386 40.6685 21.9881C40.656 21.9087 40.6518 21.8294 40.6518 21.7542C40.6518 21.5078 40.7145 21.2906 40.8439 21.0776C40.9734 20.8646 41.1697 20.66 41.4453 20.4679C42.0801 20.0169 42.6272 19.7955 43.0657 19.7955C43.1033 19.7955 43.1367 19.7955 43.1701 19.7997H43.1743H43.1785H43.2077C43.4374 19.7997 43.642 19.7371 43.7965 19.5909C43.901 19.4948 44.0221 19.3069 44.0179 19.0354C44.0179 18.7306 43.855 18.5468 43.7548 18.4716C43.6086 18.3589 43.4457 18.3297 43.3121 18.3297C43.1659 18.3297 43.049 18.3631 42.9947 18.3798C42.0801 18.6345 41.1864 19.0187 40.3428 19.5199C39.8625 19.8039 39.495 20.1839 39.2528 20.6475C39.0105 21.111 38.8894 21.6623 38.8894 22.2804V22.318C38.8894 22.6312 38.9312 22.9653 39.0147 23.3119C39.0565 23.4957 39.0815 23.6753 39.0982 23.8423C38.5344 24.0136 37.9414 24.2725 37.3359 24.6233C36.5841 25.0576 35.966 25.6715 35.5067 26.4441H35.4983L35.4649 26.511L35.4607 26.5193L35.4565 26.5277C35.3271 26.8785 35.2603 27.1959 35.2603 27.4924C35.2603 27.839 35.3563 28.1481 35.5484 28.4028C35.8115 28.7494 36.2208 28.9207 36.7094 28.9207C36.9099 28.9207 37.127 28.8914 37.3609 28.8413C38.1001 28.6701 38.8268 28.1898 39.591 27.3921C40.301 26.6529 40.7479 25.7718 40.9274 24.7695C41.0319 24.7528 41.1404 24.7444 41.2657 24.7444H42.0049C42.1511 24.7444 42.2889 24.6901 42.3933 24.5982C42.5061 24.4938 42.5729 24.3644 42.5938 24.2182ZM37.0226 27.4548C36.9099 27.5007 36.7721 27.5383 36.6885 27.5341C36.6718 27.5341 36.6593 27.53 36.651 27.53C36.6677 27.4381 36.7345 27.2293 36.9809 26.8534C37.2106 26.5068 37.6115 26.1434 38.1753 25.7926C38.4342 25.6298 38.6764 25.4961 38.8978 25.3834C38.7349 25.8261 38.5177 26.2019 38.2463 26.5068C37.7994 26.9996 37.3818 27.317 37.0226 27.4548Z" fill="#C47B2A"/>
<path d="M52.454 17.3065C53.1556 17.3315 53.6567 17.3691 53.9157 17.415C53.9825 17.4276 54.0535 17.4359 54.1161 17.4359C54.2957 17.4359 54.4669 17.3816 54.6048 17.2814C54.7426 17.1812 54.847 17.0308 54.9096 16.8554C54.9472 16.7468 54.9639 16.6424 54.9639 16.5506C54.9639 16.3835 54.9054 16.254 54.847 16.1663C54.7551 16.0327 54.5546 15.874 54.2289 15.8782H54.2247L51.4141 15.9158L53.899 12.8629V12.8587C54.0243 12.6917 54.1495 12.4411 54.1454 12.107C54.1454 11.94 54.1161 11.7562 54.041 11.5557C53.9908 11.4179 53.9324 11.2718 53.8363 11.1423C53.7444 11.0128 53.6066 10.9001 53.4229 10.8667C53.3853 10.8583 53.3477 10.8583 53.3143 10.8583C53.1472 10.8583 52.9927 10.9293 52.8883 11.0462L52.8424 11.0922C52.7755 11.1674 52.6377 11.3469 52.1408 12.036C51.6521 12.7167 50.8211 13.8903 49.3928 15.9325C49.0921 15.9366 48.7997 15.9366 48.5241 15.9366C48.2067 15.9366 47.9102 15.9325 47.6262 15.9283C46.9538 15.9199 46.6782 15.8824 46.5487 15.8573H46.5446H46.5404C46.4861 15.8489 46.4318 15.8448 46.3775 15.8448C46.1603 15.8448 45.9599 15.9158 45.8221 16.0661C45.726 16.1663 45.6258 16.3376 45.6258 16.584C45.6258 16.6383 45.63 16.6926 45.6383 16.751C45.6675 16.9306 45.7469 17.1144 45.8972 17.2563C46.0434 17.3983 46.2606 17.4902 46.5279 17.4902C46.5821 17.4902 46.6406 17.486 46.6991 17.4777H46.7033C47.1042 17.4192 47.6805 17.3691 48.4281 17.3315C47.5009 18.6846 46.5654 20.0753 45.6383 21.4744C44.5149 23.1699 43.6504 24.4646 42.9864 25.4293C42.8569 25.6172 42.6439 25.9263 42.4643 26.2729C42.2848 26.6195 42.1302 27.0079 42.1302 27.3796C42.1261 27.6636 42.2347 27.9518 42.4936 28.1481C42.6272 28.2525 42.7567 28.3402 42.8861 28.407C43.0156 28.4738 43.1493 28.5156 43.2871 28.5156C43.3497 28.5156 43.4124 28.5072 43.475 28.4863C43.6588 28.4279 43.8049 28.2859 43.8634 28.1021C44.4857 26.2687 45.442 24.3602 46.6991 22.4307C47.9394 20.5347 49.1631 18.8016 50.3491 17.2689C51.08 17.2689 51.7899 17.2814 52.454 17.3065Z" fill="#C47B2A"/>
<path d="M58.167 22.1969C58.3633 22.0173 58.4802 21.796 58.4886 21.5496L58.3341 21.5412L58.4886 21.5496V21.5161C58.4886 21.2447 58.3424 21.0818 58.2505 21.015C58.1837 20.9649 58.0668 20.9022 57.9081 20.9022C57.8329 20.9022 57.7536 20.9148 57.67 20.9482L57.5907 20.9774L57.5573 20.9899L57.4738 21.0776C57.2441 21.324 56.697 21.8544 55.8617 22.6437C55.2478 23.2242 54.7634 23.6586 54.4209 23.9384C54.4752 23.7797 54.542 23.6043 54.6255 23.408C54.8051 22.9862 55.039 22.5435 55.3021 22.1301C55.4441 21.9505 55.4942 21.7667 55.4942 21.6247C55.4942 21.5913 55.49 21.5621 55.49 21.5329C55.4775 21.4201 55.4232 21.2739 55.2979 21.1361C55.4733 20.6308 55.5652 20.2173 55.5652 19.8749C55.5652 19.5742 55.49 19.3153 55.323 19.1273C55.1977 18.9812 54.9638 18.8266 54.6214 18.8266C54.517 18.8266 54.4042 18.8392 54.2831 18.8684C53.427 19.0689 52.5165 19.6326 51.485 20.5765C50.4827 21.4953 49.6516 22.5853 49.0126 23.8089C48.6827 24.4395 48.5491 24.9824 48.5491 25.4502C48.5491 26.2562 48.9542 26.8075 49.3718 27.1416L49.376 27.1458C49.4929 27.246 49.6307 27.2961 49.7644 27.2961C49.9565 27.2961 50.1277 27.2126 50.2739 27.1207C50.42 27.0288 50.5495 26.9161 50.6456 26.8367C50.9838 26.5485 51.343 26.2019 51.7147 25.8135C51.9569 25.5588 52.195 25.2998 52.4288 25.0451C52.4288 25.233 52.4455 25.4126 52.4748 25.5838C52.5124 25.801 52.5959 25.968 52.6961 26.0808C52.7963 26.1977 52.9174 26.2646 53.0177 26.298C53.097 26.3272 53.1847 26.3397 53.2724 26.3397C53.4604 26.3397 53.6525 26.2771 53.8529 26.1643C54.0534 26.0516 54.2664 25.8845 54.5086 25.6632C54.8761 25.3291 55.4107 24.8363 56.1165 24.1806C56.8264 23.5208 57.5239 22.8526 58.167 22.1969ZM53.5147 20.6308C53.832 20.3593 53.9866 20.3384 54.0158 20.3426H54.0242H54.0325L54.0659 20.3718C54.0659 20.3802 54.0701 20.3886 54.0701 20.4136C54.0701 20.5097 54.0158 20.7811 53.6859 21.3032C53.2432 22.0089 52.7045 22.7273 52.078 23.4289C51.4933 24.0887 50.9295 24.6442 50.3992 25.0952C50.4535 24.9741 50.5119 24.8405 50.5913 24.6859C50.963 23.93 51.4182 23.1658 51.9486 22.4182C52.4622 21.679 52.9926 21.0776 53.5147 20.6308Z" fill="#C47B2A"/>
<path d="M69.3553 10.7581C69.3553 10.4908 69.2759 10.2862 69.1632 10.1442C69.0462 10.0022 68.9042 9.927 68.7873 9.88523C68.6954 9.85182 68.6036 9.83929 68.5117 9.83929C68.3154 9.83929 68.1233 9.90611 67.9145 10.0105C67.7057 10.1149 67.4718 10.2653 67.1961 10.449C66.862 10.6745 66.1312 11.2759 65.2375 12.2031C64.3438 13.126 63.2872 14.3622 62.3224 15.8448C61.6542 16.8721 60.9986 17.7993 60.3345 18.9143C59.6956 19.9834 59.2028 21.0484 58.7267 21.9254C58.4302 22.4767 58.1128 23.266 57.7494 24.3518C57.5782 24.8655 57.4905 25.3207 57.4863 25.7258C57.4863 26.2771 57.6617 26.7407 58.0209 27.0622L58.0251 27.0664L58.0292 27.0706C58.2339 27.2334 58.4761 27.2961 58.71 27.2961C59.0858 27.2961 59.4534 27.1457 59.7749 26.9745C60.0923 26.8033 60.3596 26.607 60.5099 26.4984C61.3034 25.8887 62.1345 25.1203 62.9823 24.214C63.805 23.337 64.469 22.6604 64.9451 22.2136C65.1874 22.0006 65.2709 21.7667 65.2709 21.5788C65.2709 21.4827 65.25 21.4034 65.2291 21.3407C65.1623 21.1486 65.0328 20.9941 64.8533 20.9273C64.7906 20.9022 64.7238 20.8897 64.657 20.8897C64.5609 20.8897 64.4691 20.9148 64.3813 20.9607C64.3605 20.9732 64.3229 20.9941 64.2769 21.0359C64.1391 21.157 63.8008 21.4994 62.5271 22.84C61.4496 23.976 60.5099 24.8196 59.7415 25.3541C59.5786 25.4669 59.4575 25.5337 59.3698 25.5796C59.3698 25.5504 59.374 25.517 59.3782 25.4794C59.4199 25.1745 59.4826 24.8655 59.5703 24.569C59.658 24.2683 59.7958 23.9008 59.9754 23.4832C60.1383 23.1073 60.3972 22.7356 60.7396 22.3848C61.1197 21.9964 61.8547 21.3407 62.7693 20.3718C63.6756 19.4113 64.753 18.4132 65.8263 17.1102C66.6741 16.0536 67.3632 15.022 68.0398 13.8652C68.6495 12.8295 69.0254 12.082 69.2342 11.4305C69.3219 11.1632 69.3553 10.946 69.3553 10.7581ZM67.7558 11.5975C67.2755 12.5497 66.3233 14.2954 64.9619 15.9826C64.16 16.9765 63.3039 17.9454 62.3559 18.8809C62.2222 19.0104 61.8296 19.4322 61.4371 19.854C61.387 19.9083 61.3368 19.9584 61.2909 20.0127C61.6041 19.4447 62.0134 18.7682 62.4269 18.1125C63.1201 17.0141 63.8301 15.9742 64.0848 15.6485C64.8867 14.6295 65.7595 13.694 66.3484 13.0049C66.6532 12.6457 67.0876 12.2156 67.476 11.8564C67.572 11.7604 67.6681 11.6769 67.7558 11.5975Z" fill="#C47B2A"/>
<path d="M109.873 22.2052C110.116 21.9922 110.199 21.7584 110.199 21.5704C110.199 21.4744 110.178 21.395 110.157 21.3324C110.09 21.1403 109.961 20.9858 109.781 20.9189C109.719 20.8939 109.652 20.8813 109.585 20.8813C109.489 20.8813 109.397 20.9064 109.31 20.9523C109.289 20.9649 109.251 20.9858 109.209 21.0275C109.071 21.1486 108.733 21.4911 107.459 22.8317C106.382 23.9676 105.442 24.8112 104.674 25.3458C104.511 25.4585 104.39 25.5254 104.302 25.5713C104.302 25.5421 104.302 25.5086 104.311 25.4711C104.352 25.1662 104.415 24.8572 104.503 24.5606C104.59 24.2599 104.728 23.8924 104.908 23.4748C105.071 23.0989 105.33 22.7273 105.672 22.3765C106.052 21.9881 106.787 21.3324 107.702 20.3635C108.608 19.4029 109.685 18.4048 110.759 17.1018C111.606 16.0452 112.296 15.0137 112.972 13.8569C113.582 12.8211 113.958 12.0736 114.167 11.4221C114.25 11.1632 114.288 10.946 114.288 10.7581C114.288 10.4908 114.208 10.2862 114.096 10.1442C113.979 10.0022 113.837 9.927 113.72 9.88523C113.628 9.85182 113.536 9.83929 113.444 9.83929C113.248 9.83929 113.056 9.90611 112.847 10.0105C112.638 10.1149 112.404 10.2653 112.128 10.449C111.794 10.6745 111.068 11.2759 110.17 12.2031C109.276 13.126 108.22 14.3664 107.255 15.8448C106.587 16.8721 105.935 17.7993 105.267 18.9143C104.628 19.9834 104.135 21.0484 103.659 21.9254C103.363 22.4767 103.045 23.266 102.682 24.3518C102.511 24.8655 102.423 25.3207 102.423 25.7258C102.423 26.2771 102.598 26.7407 102.957 27.0622L102.962 27.0664L102.966 27.0706C103.17 27.2334 103.413 27.2961 103.646 27.2961C104.022 27.2961 104.39 27.1457 104.711 26.9745C105.029 26.8033 105.296 26.607 105.446 26.4984C106.24 25.8887 107.071 25.1203 107.919 24.214C108.729 23.3286 109.397 22.6521 109.873 22.2052ZM106.002 20.3635C106.06 20.2549 106.123 20.1463 106.194 20.0336C107.067 18.551 108.474 16.5255 108.842 15.9951C109.681 14.784 110.763 13.5979 111.364 12.9297C111.774 12.4703 112.174 12.107 112.488 11.8439C111.982 12.7877 110.984 14.5292 109.894 15.9826C109.13 17.0016 108.111 18.1417 107.205 19.1273C106.979 19.3695 106.557 19.8039 106.165 20.2048C106.106 20.2549 106.052 20.3092 106.002 20.3635Z" fill="#C47B2A"/>
<path d="M100.711 18.7807C100.414 18.5218 100.009 18.3756 99.5247 18.3422C99.4662 18.338 99.4077 18.338 99.3493 18.338C98.4973 18.338 97.5827 18.7347 96.547 19.5157C96.4342 19.6034 96.3257 19.6953 96.2171 19.7872C96.3674 19.6243 96.4259 19.4531 96.4259 19.3152C96.4259 19.2234 96.405 19.144 96.38 19.0897C96.3006 18.8934 96.1294 18.7807 95.9749 18.7306C95.8162 18.6804 95.6575 18.6721 95.5363 18.6721C95.5029 18.6721 95.4779 18.6721 95.4528 18.6721L93.3062 18.693C93.9619 17.6823 94.747 16.5046 95.6449 15.1766C96.7475 13.5478 97.6287 12.3492 98.2634 11.6184C98.6393 11.1799 98.9108 10.8875 99.0569 10.7539H99.0611C99.2156 10.6077 99.3576 10.3739 99.3576 10.0565C99.3576 9.82259 99.2825 9.55531 99.1029 9.24209L98.9692 9.32144L99.1029 9.24209C99.0235 9.10427 98.9233 8.94975 98.7938 8.82446C98.6644 8.69917 98.4931 8.59477 98.2802 8.59059H98.2718C98.1966 8.59059 98.0922 8.60312 97.9878 8.65741C97.8834 8.7117 97.779 8.80358 97.6955 8.9414C97.0732 10.0105 96.0918 11.6017 94.7804 13.6773C93.515 15.6777 92.4209 17.3649 91.5146 18.7013L87.4762 18.7222C88.9587 16.4378 90.3035 14.3831 91.4728 12.6082C92.755 10.6662 93.6612 9.39661 94.1415 8.86622C94.3294 8.66576 94.5132 8.35254 94.5132 7.92239C94.5132 7.72193 94.4714 7.50058 94.3795 7.25418C94.296 7.04119 94.1874 6.89503 94.0621 6.79897C93.941 6.70292 93.8074 6.66533 93.703 6.65698L93.6403 6.6528C93.3981 6.6528 93.1976 6.77391 93.0389 6.92008C92.8802 7.07043 92.7508 7.25418 92.6464 7.42541C92.0617 8.36507 91.122 9.90611 89.8608 12.0151C88.6288 14.074 87.2214 16.3292 85.6929 18.7222C84.0349 18.7264 82.4563 18.7306 80.9612 18.7306C80.1677 18.7306 79.3951 18.7306 78.6433 18.7264C76.4592 18.7222 74.9682 18.693 74.2249 18.6429H74.2207H74.2165C74.0829 18.6345 73.9576 18.6303 73.8448 18.6303C73.5734 18.6303 73.3562 18.6554 73.1766 18.7139C72.997 18.7723 72.8509 18.8726 72.7548 19.0104C72.7005 19.0855 72.6337 19.2192 72.6337 19.3988C72.6337 19.4906 72.6546 19.5951 72.7005 19.7036C72.8258 19.996 73.0806 20.1672 73.3604 20.2549C73.6402 20.3468 73.9576 20.3718 74.2583 20.3718C74.4003 20.3718 74.5339 20.3677 74.6634 20.3593C75.9747 20.3008 77.616 20.2466 79.5454 20.209C81.2285 20.1756 82.9783 20.1547 84.7574 20.1421C83.3584 22.2386 82.1932 23.8465 81.2995 24.9156C80.1092 26.3105 78.9232 27.413 77.7789 28.1982C76.8684 28.8204 75.9998 29.1253 75.1896 29.1253C75.0309 29.1253 74.8722 29.1128 74.7177 29.0919C73.6903 28.9374 72.7506 28.3485 71.9196 27.317C71.0467 26.2353 70.4704 25.2664 70.1989 24.4604C70.153 24.3226 70.0945 24.1555 69.9901 24.0052C69.8857 23.8548 69.7312 23.717 69.5099 23.6794C69.4764 23.6753 69.443 23.6711 69.4013 23.6711C69.2133 23.6669 68.9711 23.763 68.7748 24.0302C68.5493 24.3351 68.4324 24.6692 68.4324 25.02C68.4324 25.1119 68.4407 25.2038 68.4574 25.2957C68.7999 27.2042 69.8314 28.7995 71.5061 30.0148C72.5627 30.7875 73.6652 31.18 74.7887 31.18C75.4819 31.18 76.1793 31.0297 76.881 30.7332C77.8081 30.3364 78.7603 29.6933 79.7083 28.8246C80.6396 27.9768 81.5751 26.9829 82.498 25.8678C83.0827 25.1453 83.6757 24.3727 84.2562 23.5709C84.8326 22.7732 85.6135 21.608 86.5824 20.1171L90.5875 20.138C89.3638 22.0632 88.3615 23.6252 87.5889 24.8237C86.7369 26.1393 86.1189 27.0413 85.7514 27.5049C85.1792 28.2399 84.8743 28.9374 84.8743 29.5889C84.8743 29.8102 84.9077 30.0274 84.9787 30.2362C85.0122 30.3364 85.079 30.5285 85.1959 30.7081C85.2544 30.7958 85.3295 30.8835 85.4298 30.9545C85.5258 31.0213 85.6469 31.0714 85.7848 31.0756H85.8098C85.9393 31.0756 86.052 31.0338 86.1481 30.9754C86.2901 30.8835 86.3903 30.7582 86.4655 30.6371C86.5407 30.516 86.5908 30.3991 86.62 30.3281L86.6242 30.3197L86.6492 30.2278L86.6534 30.2195V30.2111C86.6576 30.1777 86.7077 29.9981 86.9291 29.5387C87.1504 29.0752 87.5471 28.3235 88.2404 27.1082C89.2636 25.3124 90.6626 22.9737 92.3958 20.1547L94.864 20.2006C94.9391 20.2048 95.0101 20.209 95.077 20.209C95.457 20.209 95.7827 20.1213 96.0375 19.9375C95.5614 20.3593 95.1187 20.8354 94.7178 21.3574C94.1791 22.0549 93.7698 22.7022 93.5025 23.2952C93.0765 24.0971 92.8635 24.949 92.8635 25.8219V25.8803C92.8677 26.3815 92.9846 26.82 93.2185 27.175C93.4482 27.53 93.7948 27.7931 94.2292 27.9559C94.5048 28.0603 94.793 28.1105 95.0853 28.1105C95.6783 28.1105 96.2922 27.8975 96.9145 27.4924C97.7706 26.9286 98.5725 26.1351 99.295 25.137C100.009 24.1514 100.544 23.2075 100.874 22.3305C101.145 21.6164 101.283 20.944 101.283 20.3217C101.283 20.1588 101.275 20.0002 101.254 19.8415C101.191 19.4113 101.007 19.0396 100.711 18.7807ZM94.5967 25.5796C94.6886 24.7319 95.1814 23.6794 96.0793 22.4725C96.9897 21.2489 97.7498 20.4554 98.3094 20.1296C98.6978 19.8999 99.0361 19.7913 99.3117 19.7913C99.4077 19.7913 99.4954 19.8039 99.579 19.8289C99.6333 19.8456 99.6792 19.8582 99.7335 19.9292C99.7878 20.0002 99.8546 20.1505 99.8546 20.4637C99.8546 20.5264 99.8504 20.589 99.8463 20.6642C99.8003 21.3282 99.4495 22.2345 98.798 23.3286C98.1423 24.4353 97.4157 25.3082 96.6472 25.9221C95.9999 26.44 95.4528 26.6864 95.0394 26.6822C94.9893 26.6822 94.9391 26.678 94.8932 26.6738C94.8264 26.6655 94.7721 26.6571 94.7094 26.5903C94.6468 26.5235 94.5716 26.3606 94.5716 26.0014C94.5675 25.8845 94.5758 25.7425 94.5967 25.5796Z" fill="#C47B2A"/>
<path d="M115.933 22.2052C116.196 21.9713 116.288 21.7249 116.288 21.5245C116.288 21.4618 116.28 21.3992 116.267 21.3491C116.217 21.1528 116.079 20.9899 115.892 20.9231C115.829 20.9022 115.762 20.8897 115.695 20.8897C115.537 20.8897 115.382 20.9523 115.24 21.0609L115.236 21.0651L115.182 21.1152L115.177 21.1194L115.173 21.1236C114.835 21.4911 114.079 22.2094 112.943 23.2493C112.07 24.047 111.389 24.6275 110.918 24.9824C111.089 24.5481 111.373 24.0177 111.778 23.408C112.484 22.3347 112.826 22.0632 112.918 22.0215H112.922H112.926H112.931C113.014 21.9755 113.131 21.8962 113.231 21.7667C113.331 21.6372 113.411 21.4535 113.411 21.2238C113.411 21.0651 113.373 20.8855 113.29 20.6851C113.286 20.6809 113.281 20.6684 113.281 20.66C113.528 20.66 113.774 20.5514 114.033 20.3593C114.296 20.163 114.58 19.8749 114.902 19.4781C115.144 19.1816 115.324 18.8726 115.432 18.5593C115.482 18.409 115.507 18.2754 115.507 18.1542C115.507 17.9329 115.428 17.7617 115.336 17.6447C115.24 17.5278 115.136 17.4652 115.077 17.4359L115.069 17.4317L115.006 17.4067L115.002 17.4025H114.998C114.906 17.3733 114.814 17.3607 114.726 17.3607C114.526 17.3607 114.338 17.4276 114.175 17.5236C113.686 17.816 113.34 18.3839 113.194 18.6178C112.814 19.2484 112.626 19.6493 112.622 19.9918C112.622 20.0294 112.63 20.067 112.634 20.1004C112.63 20.1004 112.63 20.1004 112.626 20.1004H112.588C112.454 20.1004 112.325 20.1421 112.212 20.2215C112.104 20.2967 112.012 20.4052 111.937 20.5389C111.477 21.2614 110.88 22.1885 110.145 23.3203C109.364 24.5189 108.971 25.4836 108.971 26.3021V26.3355V26.3397V26.3439C108.988 26.5444 109.03 26.7198 109.105 26.8659C109.18 27.0121 109.297 27.129 109.439 27.2C109.539 27.2501 109.652 27.2752 109.765 27.2752C109.974 27.2752 110.183 27.1959 110.396 27.0539C110.817 26.7741 111.602 26.1309 112.818 25.0743C113.991 24.0428 115.048 23.0697 115.933 22.2052Z" fill="#C47B2A"/>
<path d="M126.403 22.1301L126.407 22.1217C126.47 22.0424 126.666 21.8168 126.67 21.5078C126.67 21.4326 126.658 21.3491 126.625 21.2697C126.554 21.0818 126.391 20.9482 126.199 20.9148C126.169 20.9106 126.136 20.9064 126.107 20.9064C125.944 20.9064 125.81 20.9774 125.714 21.0484C125.622 21.1194 125.56 21.1946 125.522 21.2405C125.159 21.608 124.595 22.1509 123.847 22.8567C123.304 23.3704 122.837 23.7797 122.461 24.072C122.749 23.362 123.221 22.4683 123.864 21.4076C124.578 20.2424 125.447 18.9937 126.441 17.699C127.447 16.3877 128.228 15.3979 128.759 14.7589C129.281 14.1241 129.682 13.6856 129.94 13.4601C130.245 13.1887 130.437 13.0049 130.559 12.8587V12.8546V12.8504C130.68 12.6917 130.792 12.4578 130.792 12.1571C130.792 11.9692 130.746 11.7562 130.638 11.5265C130.584 11.4096 130.508 11.2759 130.408 11.159C130.304 11.0421 130.162 10.9418 129.978 10.9168L129.899 10.9126C129.707 10.9126 129.523 11.0087 129.385 11.1757L129.381 11.1799L129.377 11.1841C128.788 12.011 128.195 12.842 127.598 13.6731C127 14.5042 126.437 15.281 125.91 16.0035C125.38 16.7301 124.891 17.4109 124.449 18.0415C124.106 18.5301 123.764 19.0146 123.417 19.499C123.137 19.3654 122.799 19.2944 122.398 19.2818H122.394H122.39C121.17 19.3278 119.988 19.8122 118.886 20.7059C117.813 21.5746 116.973 22.5769 116.409 23.6794C116.029 24.3936 115.829 25.0075 115.829 25.5462C115.829 25.8135 115.879 26.0599 115.979 26.2854C116.217 26.8158 116.727 27.1583 117.433 27.317C117.483 27.3295 117.537 27.3337 117.587 27.3337C117.754 27.3337 117.925 27.2752 118.105 27.1666C118.289 27.058 118.489 26.9035 118.723 26.6905C119.145 26.3105 119.587 25.8803 120.043 25.4084C120.193 25.2539 120.335 25.1036 120.477 24.9574C120.452 25.1537 120.435 25.3416 120.435 25.5295V25.6131C120.439 25.8595 120.498 26.0474 120.59 26.1894C120.682 26.3272 120.799 26.4107 120.903 26.4567C120.999 26.4984 121.103 26.5193 121.212 26.5193C121.413 26.5193 121.621 26.4483 121.851 26.3147C122.081 26.181 122.335 25.9889 122.628 25.7258C122.995 25.3917 123.484 24.9365 124.098 24.356C124.712 23.7755 125.468 23.0447 126.399 22.1301H126.403ZM117.712 25.5713C117.721 25.4669 117.737 25.3541 117.762 25.2288C117.967 24.2391 118.543 23.2368 119.496 22.2512C120.427 21.2864 121.4 20.7811 122.39 20.7226C122.415 20.7226 122.432 20.7226 122.452 20.7185C121.905 21.466 121.129 22.3514 120.139 23.3537C119.12 24.3936 118.297 25.137 117.712 25.5713Z" fill="#C47B2A"/>
<path d="M135.048 22.1969C135.24 22.0173 135.361 21.796 135.369 21.5496V21.5161C135.369 21.2447 135.223 21.0818 135.131 21.015C135.065 20.9649 134.948 20.9022 134.789 20.9022C134.714 20.9022 134.634 20.9148 134.551 20.9482L134.472 20.9774L134.438 20.9899L134.355 21.0776C134.125 21.324 133.578 21.8544 132.743 22.6437C132.129 23.2242 131.644 23.6586 131.302 23.9384C131.356 23.7797 131.423 23.6043 131.506 23.408C131.682 22.9862 131.92 22.5435 132.183 22.1301C132.325 21.9505 132.375 21.7667 132.375 21.6247C132.375 21.5913 132.371 21.5621 132.371 21.5328C132.358 21.4201 132.304 21.2739 132.179 21.1319C132.354 20.6266 132.446 20.2131 132.446 19.8707C132.446 19.57 132.371 19.3111 132.204 19.1231C132.079 18.977 131.845 18.8224 131.502 18.8224C131.398 18.8224 131.285 18.835 131.164 18.8642C130.308 19.0647 129.397 19.6285 128.366 20.5723C127.364 21.4911 126.532 22.5811 125.889 23.8047C125.559 24.4354 125.426 24.9783 125.426 25.446C125.426 26.252 125.831 26.8033 126.249 27.1374L126.253 27.1416C126.37 27.2418 126.507 27.2919 126.641 27.2919C126.833 27.2919 127.004 27.2084 127.151 27.1165C127.297 27.0246 127.426 26.9119 127.522 26.8325C127.856 26.5444 128.22 26.2019 128.591 25.8093C128.834 25.5546 129.072 25.2957 129.306 25.0409C129.306 25.2288 129.322 25.4084 129.351 25.5796C129.389 25.7968 129.473 25.9639 129.573 26.0766C129.673 26.1936 129.794 26.2604 129.894 26.2938C129.978 26.323 130.061 26.3356 130.149 26.3356C130.337 26.3356 130.529 26.2729 130.73 26.1601C130.93 26.0474 131.143 25.8803 131.385 25.659C131.749 25.3249 132.287 24.8321 132.993 24.1764C133.707 23.5207 134.401 22.8525 135.048 22.1969ZM130.391 20.6308C130.709 20.3593 130.867 20.3384 130.893 20.3426H130.901H130.909L130.943 20.3718C130.943 20.3802 130.947 20.3885 130.947 20.4136C130.947 20.5097 130.893 20.7811 130.563 21.3032C130.12 22.0089 129.581 22.7273 128.955 23.4289C128.37 24.0887 127.806 24.6442 127.276 25.0952C127.33 24.9741 127.389 24.8404 127.468 24.6818C127.84 23.9258 128.295 23.1616 128.825 22.414C129.339 21.679 129.869 21.0776 130.391 20.6308Z" fill="#C47B2A"/>
<path d="M142.691 21.5412C142.757 21.4618 142.803 21.4075 142.833 21.3783L142.862 21.3449L142.87 21.3365C142.954 21.2781 143.033 21.2071 143.096 21.1027C143.162 20.9941 143.204 20.8521 143.204 20.6934C143.204 20.4804 143.137 20.234 142.979 19.9333C142.941 19.8623 142.866 19.7162 142.749 19.5825C142.632 19.4489 142.461 19.3194 142.227 19.3152H142.189H142.181C142.106 19.3194 142.006 19.3361 141.897 19.3946C141.793 19.4531 141.688 19.5575 141.605 19.712C141.137 20.3677 140.168 21.441 138.731 22.8859C137.374 24.2516 136.401 25.1537 135.85 25.5671C135.917 25.0618 136.297 24.2683 136.986 23.2493C137.708 22.1802 138.414 21.2447 139.082 20.4679L139.216 20.3134L139.274 20.2465L139.182 19.9709C139.17 19.925 139.141 19.8707 139.099 19.808C139.053 19.7412 138.99 19.6619 138.878 19.524C138.752 19.3695 138.564 19.2818 138.368 19.2776H138.356H138.351C138.18 19.2776 138.009 19.3361 137.838 19.4489C137.666 19.5616 137.491 19.7203 137.291 19.9417C136.401 20.8855 135.624 22.0131 134.981 23.2994C134.568 24.1263 134.359 24.8697 134.359 25.5295C134.359 25.9639 134.451 26.3564 134.639 26.6989C134.776 27.0455 135.027 27.2042 135.207 27.2585C135.294 27.2877 135.382 27.3003 135.474 27.3003C135.724 27.3003 135.979 27.2 136.259 27.0204H136.263H136.267C136.827 26.6279 137.462 26.0808 138.168 25.3875C137.57 26.3355 136.965 27.2752 136.338 28.1982C134.973 30.2111 133.682 32.1948 132.48 34.1201L132.475 34.1285L132.471 34.1368C132.367 34.354 132.317 34.5878 132.317 34.8301C132.317 35.1683 132.413 35.5233 132.601 35.8992C132.693 36.0871 132.793 36.2792 132.922 36.4338C133.048 36.5883 133.223 36.7136 133.448 36.7136H133.453H133.494H133.499H133.503C133.565 36.7094 133.666 36.6885 133.77 36.6175C133.874 36.5507 133.975 36.4296 134.029 36.25C134.689 34.2997 135.791 32.0278 137.307 29.5095C138.836 26.9703 140.406 24.6024 141.968 22.4725C142.331 21.9839 142.557 21.7041 142.691 21.5412Z" fill="#C47B2A"/>
<path d="M150.099 18.4633L150.003 18.5886L150.099 18.4633C149.953 18.3505 149.79 18.3213 149.652 18.3213C149.506 18.3213 149.389 18.3547 149.335 18.3714C148.42 18.6262 147.527 19.0104 146.683 19.5115C146.203 19.7955 145.835 20.1756 145.593 20.6391C145.351 21.1069 145.23 21.654 145.23 22.272V22.3096C145.23 22.6228 145.272 22.9569 145.355 23.3036C145.397 23.4873 145.422 23.6669 145.439 23.834C144.875 24.0052 144.282 24.2641 143.672 24.6149C142.92 25.0493 142.302 25.6632 141.843 26.4358L141.839 26.44L141.805 26.5068L141.801 26.5151L141.797 26.5235C141.667 26.8743 141.601 27.1917 141.601 27.4882C141.601 27.8348 141.697 28.1439 141.889 28.3986C142.152 28.7453 142.561 28.9165 143.05 28.9165C143.25 28.9165 143.467 28.8872 143.701 28.8371C144.44 28.6659 145.167 28.1856 145.931 27.388C146.641 26.6488 147.088 25.7676 147.268 24.7653C147.372 24.7486 147.481 24.7402 147.606 24.7402H148.345C148.491 24.7402 148.629 24.6859 148.734 24.594C148.838 24.5022 148.905 24.3685 148.926 24.2224C148.93 24.1973 148.934 24.1681 148.934 24.1305C148.934 24.0511 148.917 23.9509 148.863 23.8423C148.809 23.7337 148.713 23.6293 148.571 23.5416L148.562 23.5374L148.483 23.4999L148.475 23.4957L148.466 23.4915C148.441 23.4832 148.391 23.4664 148.324 23.4581C148.253 23.4497 148.157 23.4456 148.007 23.4456C147.844 23.4456 147.61 23.4539 147.284 23.4706C147.259 23.266 147.222 23.053 147.168 22.8317C147.088 22.5184 147.034 22.2386 147 21.9881C146.988 21.9087 146.984 21.8294 146.984 21.7542C146.984 21.5078 147.046 21.2906 147.176 21.0776C147.305 20.8646 147.502 20.66 147.777 20.4679C148.412 20.0169 148.959 19.7955 149.398 19.7955C149.435 19.7955 149.469 19.7955 149.502 19.7997H149.506H149.51H149.535C149.761 19.7997 149.97 19.737 150.124 19.5909C150.229 19.4906 150.35 19.3069 150.346 19.0354C150.367 18.7222 150.2 18.5385 150.099 18.4633ZM143.321 26.8534C143.551 26.5068 143.952 26.1434 144.516 25.7926C144.775 25.6298 145.017 25.4961 145.238 25.3834C145.075 25.826 144.858 26.2019 144.587 26.5068C144.14 26.9996 143.726 27.317 143.367 27.4548C143.254 27.5007 143.117 27.5383 143.033 27.5341C143.016 27.5341 143.004 27.53 142.995 27.53C143.008 27.4423 143.075 27.2334 143.321 26.8534Z" fill="#C47B2A"/>
<path fill-rule="evenodd" clip-rule="evenodd" d="M160.832 2.38047C161.63 1.75821 164.921 0.496976 166.027 0C166.441 0.826901 168.5 4.61895 168.571 5.27045C168.6 5.55444 168.5 5.6839 168.262 5.80084C167.886 5.98459 167.355 5.96371 166.758 5.94283C165.781 5.90524 164.637 5.86348 163.664 6.67367C163.421 5.42497 162.511 4.72753 161.73 4.13033C161.254 3.76699 160.828 3.44124 160.657 3.0612C160.527 2.78975 160.594 2.5684 160.832 2.38047Z" fill="url(#paint0_linear_59_4373)"/>
<path fill-rule="evenodd" clip-rule="evenodd" d="M160.548 2.65195C160.536 2.68536 160.523 2.71877 160.511 2.75218C160.477 2.88164 160.494 3.04034 160.582 3.22827C161.066 4.26399 163.275 4.83196 163.58 6.89086C165.109 5.49598 167.176 6.46488 168.203 5.97208C168.333 5.90944 168.454 5.82591 168.533 5.70062C168.563 5.65051 168.575 5.61292 168.596 5.55863C168.583 5.61292 168.579 5.64215 168.554 5.69227C168.487 5.83844 168.37 5.98461 168.203 6.16836C166.525 8.00175 163.781 8.87458 162.365 10.3321C162.252 9.06252 160.598 5.69645 160.465 3.38279C160.452 3.13222 160.452 2.94429 160.494 2.78976C160.507 2.73547 160.523 2.70206 160.548 2.65195Z" fill="url(#paint1_linear_59_4373)"/>
<path fill-rule="evenodd" clip-rule="evenodd" d="M160.832 2.38047C161.63 1.75821 164.921 0.496976 166.027 0C166.441 0.826901 168.5 4.61895 168.571 5.27045C168.6 5.55444 168.5 5.6839 168.262 5.80084C167.886 5.98459 167.355 5.96371 166.758 5.94283C165.781 5.90524 164.637 5.86348 163.664 6.67367C163.421 5.42497 162.511 4.72753 161.73 4.13033C161.254 3.76699 160.828 3.44124 160.657 3.0612C160.527 2.78975 160.594 2.5684 160.832 2.38047Z" fill="url(#paint2_linear_59_4373)"/>
<path fill-rule="evenodd" clip-rule="evenodd" d="M160.548 2.65195C160.536 2.68536 160.523 2.71877 160.511 2.75218C160.477 2.88164 160.494 3.04034 160.582 3.22827C161.066 4.26399 163.275 4.83196 163.58 6.89086C165.109 5.49598 167.176 6.46488 168.203 5.97208C168.333 5.90944 168.454 5.82591 168.533 5.70062C168.563 5.65051 168.575 5.61292 168.596 5.55863C168.583 5.61292 168.579 5.64215 168.554 5.69227C168.487 5.83844 168.37 5.98461 168.203 6.16836C166.525 8.00175 163.781 8.87458 162.365 10.3321C162.252 9.06252 160.598 5.69645 160.465 3.38279C160.452 3.13222 160.452 2.94429 160.494 2.78976C160.507 2.73547 160.523 2.70206 160.548 2.65195Z" fill="url(#paint3_linear_59_4373)"/>
<path fill-rule="evenodd" clip-rule="evenodd" d="M170.154 7.53818C170.989 8.11033 173.194 10.875 174 11.7854C173.349 12.4369 170.404 15.5817 169.811 15.849C169.552 15.9659 169.398 15.9074 169.214 15.7153C168.926 15.4104 168.78 14.8926 168.617 14.3163C168.35 13.3682 168.036 12.2574 166.971 11.5766C168.074 10.9585 168.454 9.87271 168.776 8.93723C168.972 8.36926 169.147 7.85975 169.452 7.57577C169.673 7.37113 169.899 7.36695 170.154 7.53818Z" fill="#447CBF"/>
<path fill-rule="evenodd" clip-rule="evenodd" d="M169.807 7.35025C169.769 7.34607 169.736 7.34607 169.698 7.34607C169.565 7.35442 169.423 7.42125 169.272 7.56324C168.446 8.34838 168.588 10.6411 166.746 11.5683C168.533 12.604 168.258 14.8842 169.039 15.7195C169.135 15.8239 169.256 15.9158 169.398 15.9492C169.456 15.9617 169.494 15.9617 169.552 15.9617C169.498 15.9659 169.469 15.9701 169.414 15.9617C169.256 15.9408 169.085 15.874 168.855 15.7738C166.608 14.7297 164.933 12.3659 163.125 11.4597C164.286 10.9585 166.955 8.33585 169.097 7.49224C169.331 7.40454 169.511 7.34607 169.665 7.33772C169.719 7.33354 169.753 7.3419 169.807 7.35025Z" fill="#447CBF"/>
<path fill-rule="evenodd" clip-rule="evenodd" d="M170.154 7.53818C170.989 8.11033 173.194 10.875 174 11.7854C173.349 12.4369 170.404 15.5817 169.811 15.849C169.552 15.9659 169.398 15.9074 169.214 15.7153C168.926 15.4104 168.78 14.8926 168.617 14.3163C168.35 13.3682 168.036 12.2574 166.971 11.5766C168.074 10.9585 168.454 9.87271 168.776 8.93723C168.972 8.36926 169.147 7.85975 169.452 7.57577C169.673 7.37113 169.899 7.36695 170.154 7.53818Z" fill="url(#paint4_linear_59_4373)"/>
<path fill-rule="evenodd" clip-rule="evenodd" d="M169.807 7.35025C169.769 7.34607 169.736 7.34607 169.698 7.34607C169.565 7.35442 169.423 7.42125 169.272 7.56324C168.446 8.34838 168.588 10.6411 166.746 11.5683C168.533 12.604 168.258 14.8842 169.039 15.7195C169.135 15.8239 169.256 15.9158 169.398 15.9492C169.456 15.9617 169.494 15.9617 169.552 15.9617C169.498 15.9659 169.469 15.9701 169.414 15.9617C169.256 15.9408 169.085 15.874 168.855 15.7738C166.608 14.7297 164.933 12.3659 163.125 11.4597C164.286 10.9585 166.955 8.33585 169.097 7.49224C169.331 7.40454 169.511 7.34607 169.665 7.33772C169.719 7.33354 169.753 7.3419 169.807 7.35025Z" fill="url(#paint5_linear_59_4373)"/>
<path fill-rule="evenodd" clip-rule="evenodd" d="M168.187 18.0582C167.907 19.0354 165.99 22.0131 165.389 23.0697C164.57 22.6479 160.686 20.8145 160.248 20.3301C160.056 20.1171 160.064 19.9542 160.189 19.7162C160.385 19.3445 160.828 19.0438 161.321 18.7097C162.131 18.1584 163.079 17.5111 163.388 16.2791C164.315 17.1436 165.46 17.1645 166.437 17.1812C167.034 17.1895 167.564 17.202 167.932 17.4025C168.195 17.5445 168.27 17.7617 168.187 18.0582Z" fill="#9C3A95"/>
<path fill-rule="evenodd" clip-rule="evenodd" d="M168.258 17.6656C168.249 17.6322 168.241 17.5946 168.228 17.5612C168.178 17.4359 168.074 17.319 167.89 17.2187C166.892 16.6716 164.775 17.5278 163.325 16.0494C162.908 18.0874 160.674 18.5301 160.131 19.5407C160.064 19.666 160.014 19.808 160.026 19.9542C160.03 20.0127 160.043 20.0502 160.06 20.1045C160.039 20.0544 160.026 20.0294 160.014 19.9709C159.984 19.8164 159.993 19.6243 160.018 19.3779C160.298 16.9013 162.002 14.5585 162.294 12.5413C163.129 13.4977 166.433 15.2308 167.898 17.0183C168.053 17.2146 168.166 17.3649 168.224 17.5153C168.245 17.5779 168.249 17.6113 168.258 17.6656Z" fill="#9C3A95"/>
<path fill-rule="evenodd" clip-rule="evenodd" d="M168.187 18.0582C167.907 19.0354 165.99 22.0131 165.389 23.0697C164.57 22.6479 160.686 20.8145 160.248 20.3301C160.056 20.1171 160.064 19.9542 160.189 19.7162C160.385 19.3445 160.828 19.0438 161.321 18.7097C162.131 18.1584 163.079 17.5111 163.388 16.2791C164.315 17.1436 165.46 17.1645 166.437 17.1812C167.034 17.1895 167.564 17.202 167.932 17.4025C168.195 17.5445 168.27 17.7617 168.187 18.0582Z" fill="url(#paint6_linear_59_4373)"/>
<path fill-rule="evenodd" clip-rule="evenodd" d="M168.258 17.6656C168.249 17.6322 168.241 17.5946 168.228 17.5612C168.178 17.4359 168.074 17.319 167.89 17.2187C166.892 16.6716 164.775 17.5278 163.325 16.0494C162.908 18.0874 160.674 18.5301 160.131 19.5407C160.064 19.666 160.014 19.808 160.026 19.9542C160.03 20.0127 160.043 20.0502 160.06 20.1045C160.039 20.0544 160.026 20.0294 160.014 19.9709C159.984 19.8164 159.993 19.6243 160.018 19.3779C160.298 16.9013 162.002 14.5585 162.294 12.5413C163.129 13.4977 166.433 15.2308 167.898 17.0183C168.053 17.2146 168.166 17.3649 168.224 17.5153C168.245 17.5779 168.249 17.6113 168.258 17.6656Z" fill="url(#paint7_linear_59_4373)"/>
<path fill-rule="evenodd" clip-rule="evenodd" d="M157.717 19.4823C156.71 19.5282 153.298 18.647 152.112 18.4048C152.246 17.4902 152.735 13.1928 153.052 12.6207C153.19 12.3701 153.348 12.3241 153.607 12.3701C154.017 12.4369 154.443 12.7668 154.915 13.1302C155.691 13.7316 156.602 14.429 157.859 14.3288C157.341 15.4898 157.688 16.5881 157.984 17.5278C158.164 18.0999 158.327 18.6136 158.251 19.0271C158.201 19.3277 158.022 19.4697 157.717 19.4823Z" fill="url(#paint8_radial_59_4373)"/>
<path fill-rule="evenodd" clip-rule="evenodd" d="M158.105 19.428C158.134 19.4071 158.164 19.3904 158.193 19.3654C158.293 19.2777 158.368 19.1398 158.406 18.9352C158.602 17.8034 157.124 16.0578 158.051 14.1993C156.004 14.4499 154.873 12.4578 153.749 12.2615C153.611 12.2365 153.457 12.2365 153.327 12.2949C153.273 12.3158 153.24 12.3409 153.194 12.3785C153.236 12.3409 153.256 12.32 153.307 12.2949C153.444 12.2156 153.624 12.1655 153.866 12.107C156.284 11.585 159.028 12.4662 161.02 12.1028C160.385 13.2054 159.813 16.9139 158.598 18.8851C158.464 19.0981 158.356 19.2526 158.235 19.3528C158.184 19.3862 158.155 19.3988 158.105 19.428Z" fill="url(#paint9_radial_59_4373)"/>
<path fill-rule="evenodd" clip-rule="evenodd" d="M157.717 19.4823C156.71 19.5282 153.298 18.647 152.112 18.4048C152.246 17.4902 152.735 13.1928 153.052 12.6207C153.19 12.3701 153.348 12.3241 153.607 12.3701C154.017 12.4369 154.443 12.7668 154.915 13.1302C155.691 13.7316 156.602 14.429 157.859 14.3288C157.341 15.4898 157.688 16.5881 157.984 17.5278C158.164 18.0999 158.327 18.6136 158.251 19.0271C158.201 19.3277 158.022 19.4697 157.717 19.4823Z" fill="url(#paint10_linear_59_4373)"/>
<path fill-rule="evenodd" clip-rule="evenodd" d="M158.105 19.428C158.134 19.4071 158.164 19.3904 158.193 19.3654C158.293 19.2777 158.368 19.1398 158.406 18.9352C158.602 17.8034 157.124 16.0578 158.051 14.1993C156.004 14.4499 154.873 12.4578 153.749 12.2615C153.611 12.2365 153.457 12.2365 153.327 12.2949C153.273 12.3158 153.24 12.3409 153.194 12.3785C153.236 12.3409 153.256 12.32 153.307 12.2949C153.444 12.2156 153.624 12.1655 153.866 12.107C156.284 11.585 159.028 12.4662 161.02 12.1028C160.385 13.2054 159.813 16.9139 158.598 18.8851C158.464 19.0981 158.356 19.2526 158.235 19.3528C158.184 19.3862 158.155 19.3988 158.105 19.428Z" fill="url(#paint11_linear_59_4373)"/>
<path fill-rule="evenodd" clip-rule="evenodd" d="M153.06 9.70565C152.722 8.74928 152.563 5.20363 152.446 3.98834C153.357 3.85052 157.575 3.06538 158.21 3.2032C158.489 3.26167 158.577 3.39949 158.61 3.66677C158.665 4.08439 158.481 4.58555 158.272 5.14934C157.93 6.07647 157.533 7.15395 157.992 8.34001C156.739 8.18131 155.8 8.83281 154.994 9.39243C154.505 9.73488 154.063 10.0398 153.649 10.0857C153.353 10.1275 153.165 9.99381 153.06 9.70565Z" fill="#FAAF43"/>
<path fill-rule="evenodd" clip-rule="evenodd" d="M153.231 10.0606C153.261 10.0857 153.286 10.1066 153.315 10.1274C153.428 10.1984 153.582 10.2319 153.787 10.2068C154.914 10.0648 156.142 8.13119 158.176 8.482C157.341 6.58179 158.903 4.90711 158.761 3.77117C158.744 3.62917 158.702 3.483 158.606 3.37025C158.569 3.32431 158.535 3.29925 158.489 3.26584C158.535 3.29507 158.56 3.3076 158.602 3.34936C158.719 3.45795 158.819 3.61665 158.94 3.83381C160.143 6.01382 160.106 8.91633 161.033 10.7288C159.801 10.4407 156.113 10.9669 153.887 10.3738C153.649 10.307 153.469 10.2486 153.336 10.1609C153.294 10.1274 153.269 10.1024 153.231 10.0606Z" fill="#FAAF43"/>
<path fill-rule="evenodd" clip-rule="evenodd" d="M153.06 9.70565C152.722 8.74928 152.563 5.20363 152.446 3.98834C153.357 3.85052 157.575 3.06538 158.21 3.2032C158.489 3.26167 158.577 3.39949 158.61 3.66677C158.665 4.08439 158.481 4.58555 158.272 5.14934C157.93 6.07647 157.533 7.15395 157.992 8.34001C156.739 8.18131 155.8 8.83281 154.994 9.39243C154.505 9.73488 154.063 10.0398 153.649 10.0857C153.353 10.1275 153.165 9.99381 153.06 9.70565Z" fill="url(#paint12_linear_59_4373)"/>
<path fill-rule="evenodd" clip-rule="evenodd" d="M153.231 10.0606C153.261 10.0857 153.286 10.1066 153.315 10.1274C153.428 10.1984 153.582 10.2319 153.787 10.2068C154.914 10.0648 156.142 8.13119 158.176 8.482C157.341 6.58179 158.903 4.90711 158.761 3.77117C158.744 3.62917 158.702 3.483 158.606 3.37025C158.569 3.32431 158.535 3.29925 158.489 3.26584C158.535 3.29507 158.56 3.3076 158.602 3.34936C158.719 3.45795 158.819 3.61665 158.94 3.83381C160.143 6.01382 160.106 8.91633 161.033 10.7288C159.801 10.4407 156.113 10.9669 153.887 10.3738C153.649 10.307 153.469 10.2486 153.336 10.1609C153.294 10.1274 153.269 10.1024 153.231 10.0606Z" fill="url(#paint13_linear_59_4373)"/>
<defs>
<linearGradient id="paint0_linear_59_4373" x1="163.523" y1="10.5192" x2="164.46" y2="4.8452" gradientUnits="userSpaceOnUse">
<stop stop-color="white"/>
<stop offset="1"/>
</linearGradient>
<linearGradient id="paint1_linear_59_4373" x1="163.497" y1="10.5196" x2="164.434" y2="4.84558" gradientUnits="userSpaceOnUse">
<stop stop-color="white"/>
<stop offset="1"/>
</linearGradient>
<linearGradient id="paint2_linear_59_4373" x1="163.645" y1="6.84149" x2="165.959" y2="0.0647994" gradientUnits="userSpaceOnUse">
<stop stop-color="#11793D"/>
<stop offset="0.1396" stop-color="#11793D"/>
<stop offset="0.2246" stop-color="#2E843F"/>
<stop offset="0.456" stop-color="#5CA142"/>
<stop offset="0.6428" stop-color="#76B742"/>
<stop offset="0.7605" stop-color="#80C343"/>
<stop offset="1" stop-color="#80C343"/>
</linearGradient>
<linearGradient id="paint3_linear_59_4373" x1="162.291" y1="10.1263" x2="164.549" y2="4.1768" gradientUnits="userSpaceOnUse">
<stop stop-color="#11793D"/>
<stop offset="0.2008" stop-color="#11793D"/>
<stop offset="0.2531" stop-color="#19803F"/>
<stop offset="0.4228" stop-color="#2A9444"/>
<stop offset="0.5958" stop-color="#36A447"/>
<stop offset="0.7725" stop-color="#3DAF48"/>
<stop offset="0.9584" stop-color="#3FB449"/>
<stop offset="1" stop-color="#3FB449"/>
</linearGradient>
<linearGradient id="paint4_linear_59_4373" x1="166.972" y1="11.6618" x2="174.001" y2="11.6618" gradientUnits="userSpaceOnUse">
<stop stop-color="#1F427B"/>
<stop offset="0.0504" stop-color="#234981"/>
<stop offset="0.2553" stop-color="#375F99"/>
<stop offset="0.4429" stop-color="#4571AD"/>
<stop offset="0.6054" stop-color="#4D7DBC"/>
<stop offset="0.7246" stop-color="#5082C3"/>
<stop offset="1" stop-color="#5082C3"/>
</linearGradient>
<linearGradient id="paint5_linear_59_4373" x1="163.12" y1="11.653" x2="169.807" y2="11.653" gradientUnits="userSpaceOnUse">
<stop stop-color="#1F427B"/>
<stop offset="0.8396" stop-color="#447BBF"/>
<stop offset="1" stop-color="#447BBF"/>
</linearGradient>
<linearGradient id="paint6_linear_59_4373" x1="163.377" y1="16.0958" x2="165.14" y2="22.4309" gradientUnits="userSpaceOnUse">
<stop stop-color="#6A1D5F"/>
<stop offset="0.2736" stop-color="#8A3574"/>
<stop offset="0.5868" stop-color="#AD4F8C"/>
<stop offset="0.8343" stop-color="#C6619E"/>
<stop offset="0.9835" stop-color="#D269A9"/>
<stop offset="1" stop-color="#D269A9"/>
</linearGradient>
<linearGradient id="paint7_linear_59_4373" x1="162.174" y1="12.4181" x2="164.102" y2="18.699" gradientUnits="userSpaceOnUse">
<stop stop-color="#5E1F5C"/>
<stop offset="0.2061" stop-color="#71276C"/>
<stop offset="0.4824" stop-color="#873080"/>
<stop offset="0.7194" stop-color="#95378D"/>
<stop offset="0.8877" stop-color="#9B3A95"/>
<stop offset="1" stop-color="#9B3A95"/>
</linearGradient>
<radialGradient id="paint8_radial_59_4373" cx="0" cy="0" r="1" gradientUnits="userSpaceOnUse" gradientTransform="translate(155.193 15.9202) scale(3.33149 3.3315)">
<stop stop-color="#5E1F5C"/>
<stop offset="0.1997" stop-color="#652262"/>
<stop offset="0.5357" stop-color="#772972"/>
<stop offset="0.9644" stop-color="#973890"/>
<stop offset="1" stop-color="#9B3A95"/>
</radialGradient>
<radialGradient id="paint9_radial_59_4373" cx="0" cy="0" r="1" gradientUnits="userSpaceOnUse" gradientTransform="translate(157.105 15.6785) scale(3.83012 3.83012)">
<stop stop-color="#5E1F5C"/>
<stop offset="0.1997" stop-color="#652262"/>
<stop offset="0.5357" stop-color="#772972"/>
<stop offset="0.9644" stop-color="#973890"/>
<stop offset="1" stop-color="#9B3A95"/>
</radialGradient>
<linearGradient id="paint10_linear_59_4373" x1="157.797" y1="14.3747" x2="152.344" y2="18.2308" gradientUnits="userSpaceOnUse">
<stop stop-color="#991C21"/>
<stop offset="0.1155" stop-color="#AB2528"/>
<stop offset="0.3497" stop-color="#CC3536"/>
<stop offset="0.5577" stop-color="#E34040"/>
<stop offset="0.717" stop-color="#EF4444"/>
<stop offset="1" stop-color="#EF4444"/>
</linearGradient>
<linearGradient id="paint11_linear_59_4373" x1="160.898" y1="11.8836" x2="155.719" y2="15.8505" gradientUnits="userSpaceOnUse">
<stop stop-color="#991C21"/>
<stop offset="0.0447" stop-color="#991C21"/>
<stop offset="0.2575" stop-color="#B6242D"/>
<stop offset="0.4977" stop-color="#D12C38"/>
<stop offset="0.7313" stop-color="#E43140"/>
<stop offset="0.9491" stop-color="#ED3343"/>
<stop offset="1" stop-color="#ED3343"/>
</linearGradient>
<linearGradient id="paint12_linear_59_4373" x1="157.99" y1="8.30667" x2="152.647" y2="4.17509" gradientUnits="userSpaceOnUse">
<stop stop-color="#AA4E25"/>
<stop offset="0.2099" stop-color="#BC692B"/>
<stop offset="0.6501" stop-color="#E5A33D"/>
<stop offset="0.8557" stop-color="#FDC147"/>
<stop offset="1" stop-color="#FDC147"/>
</linearGradient>
<linearGradient id="paint13_linear_59_4373" x1="161.047" y1="10.7671" x2="156.309" y2="7.02062" gradientUnits="userSpaceOnUse">
<stop stop-color="#AA4E25"/>
<stop offset="0.379" stop-color="#CC7A30"/>
<stop offset="0.7008" stop-color="#E99D3D"/>
<stop offset="0.8677" stop-color="#FAAF43"/>
<stop offset="1" stop-color="#FAAF43"/>
</linearGradient>
</defs>
</svg>
