<svg width="160" height="160" viewBox="0 0 160 160" fill="none" xmlns="http://www.w3.org/2000/svg">
<path opacity="0.2" d="M74.0035 127.514C103.552 127.514 127.505 103.561 127.505 74.0125C127.505 44.4644 103.552 20.511 74.0035 20.511C44.4554 20.511 20.502 44.4644 20.502 74.0125C20.502 103.561 44.4554 127.514 74.0035 127.514Z" fill="#D1A53D"/>
<path opacity="0.2" d="M15.2446 154.238C15.2446 155.654 16.9293 156.909 17.7376 158.219H74.5455C75.354 156.909 77.0385 155.654 77.0385 154.238C77.0385 152.481 74.4416 150.971 74.1486 149.298C73.8471 147.577 75.7672 145.273 75.1828 143.668C74.588 142.034 71.631 141.505 70.7716 140.02C69.9041 138.521 70.918 135.696 69.8105 134.378C68.6997 133.055 65.741 133.566 64.4186 132.455C63.1001 131.348 63.0923 128.344 61.5931 127.477C60.1077 126.617 57.5031 128.106 55.8693 127.511C54.2642 126.927 53.2277 124.107 51.5067 123.806C49.8331 123.513 47.8991 125.804 46.1414 125.804C44.3839 125.804 42.4499 123.513 40.7763 123.806C39.0553 124.107 38.019 126.927 36.4138 127.511C34.78 128.106 32.1754 126.617 30.6901 127.477C29.191 128.344 29.1832 131.348 27.8645 132.455C26.5423 133.566 23.5834 133.055 22.4727 134.377C21.3653 135.696 22.3789 138.521 21.5114 140.02C20.652 141.505 17.6949 142.034 17.1001 143.668C16.5158 145.273 18.4358 147.577 18.1344 149.298C17.8417 150.971 15.2446 152.481 15.2446 154.238Z" fill="#D1A53D"/>
<path opacity="0.2" d="M34.4616 146.064C36.3432 146.064 37.8685 144.538 37.8685 142.657C37.8685 140.775 36.3432 139.25 34.4616 139.25C32.58 139.25 31.0547 140.775 31.0547 142.657C31.0547 144.538 32.58 146.064 34.4616 146.064Z" fill="#B0872F"/>
<path opacity="0.2" d="M43.1918 138.219C44.6434 138.219 45.8202 137.043 45.8202 135.591C45.8202 134.139 44.6434 132.963 43.1918 132.963C41.7402 132.963 40.5635 134.139 40.5635 135.591C40.5635 137.043 41.7402 138.219 43.1918 138.219Z" fill="#B0872F"/>
<path d="M49.8654 147.42C51.3075 147.42 52.4765 146.251 52.4765 144.809C52.4765 143.367 51.3075 142.198 49.8654 142.198C48.4234 142.198 47.2544 143.367 47.2544 144.809C47.2544 146.251 48.4234 147.42 49.8654 147.42Z" fill="#4D967A"/>
<path opacity="0.2" d="M61.0781 141.363C61.7884 141.363 62.3642 140.787 62.3642 140.077C62.3642 139.366 61.7884 138.791 61.0781 138.791C60.3678 138.791 59.792 139.366 59.792 140.077C59.792 140.787 60.3678 141.363 61.0781 141.363Z" fill="#B0872F"/>
<path d="M39.3597 151.87C39.7064 151.87 39.9874 151.589 39.9874 151.242C39.9874 150.895 39.7064 150.614 39.3597 150.614C39.013 150.614 38.7319 150.895 38.7319 151.242C38.7319 151.589 39.013 151.87 39.3597 151.87Z" fill="#4D967A"/>
<path opacity="0.2" d="M34.6213 134.179C34.9571 134.179 35.2294 133.906 35.2294 133.57C35.2294 133.235 34.9571 132.962 34.6213 132.962C34.2854 132.962 34.0132 133.235 34.0132 133.57C34.0132 133.906 34.2854 134.179 34.6213 134.179Z" fill="#B0872F"/>
<path opacity="0.2" d="M22.5536 152.289C23.2655 152.289 23.8426 151.712 23.8426 151C23.8426 150.288 23.2655 149.711 22.5536 149.711C21.8417 149.711 21.2646 150.288 21.2646 151C21.2646 151.712 21.8417 152.289 22.5536 152.289Z" fill="#B0872F"/>
<path opacity="0.2" d="M69.1208 153.835C70.1147 153.835 70.9204 153.029 70.9204 152.035C70.9204 151.041 70.1147 150.236 69.1208 150.236C68.127 150.236 67.3213 151.041 67.3213 152.035C67.3213 153.029 68.127 153.835 69.1208 153.835Z" fill="#B0872F"/>
<path opacity="0.2" d="M99.792 155.364C99.792 156.405 101.031 157.328 101.625 158.291H143.406C144 157.328 145.24 156.405 145.24 155.364C145.24 154.071 143.33 152.961 143.114 151.73C142.892 150.464 144.304 148.77 143.875 147.59C143.437 146.388 141.262 145.999 140.63 144.907C139.992 143.804 140.738 141.726 139.923 140.756C139.106 139.784 136.93 140.16 135.958 139.343C134.988 138.528 134.982 136.319 133.88 135.681C132.787 135.049 130.872 136.144 129.67 135.707C128.49 135.277 127.727 133.203 126.462 132.981C125.231 132.766 123.808 134.451 122.516 134.451C121.223 134.451 119.801 132.766 118.57 132.981C117.304 133.203 116.542 135.277 115.361 135.706C114.16 136.144 112.244 135.049 111.152 135.681C110.049 136.319 110.043 138.528 109.074 139.343C108.101 140.159 105.925 139.784 105.108 140.756C104.294 141.726 105.039 143.804 104.401 144.906C103.769 145.999 101.594 146.388 101.157 147.589C100.727 148.77 102.139 150.464 101.917 151.73C101.702 152.961 99.792 154.071 99.792 155.364Z" fill="#D1A53D"/>
<path opacity="0.2" d="M91.5054 156.517C91.5054 157.148 92.2565 157.707 92.6168 158.291H117.943C118.304 157.707 119.055 157.148 119.055 156.517C119.055 155.733 117.897 155.06 117.766 154.314C117.632 153.547 118.488 152.52 118.227 151.804C117.962 151.076 116.644 150.84 116.261 150.178C115.874 149.509 116.326 148.25 115.832 147.662C115.337 147.072 114.018 147.3 113.428 146.805C112.841 146.311 112.837 144.972 112.169 144.585C111.507 144.202 110.345 144.866 109.617 144.601C108.901 144.34 108.439 143.083 107.672 142.949C106.926 142.818 106.064 143.84 105.28 143.84C104.496 143.84 103.634 142.818 102.888 142.949C102.121 143.083 101.658 144.34 100.943 144.601C100.215 144.866 99.0535 144.202 98.3911 144.585C97.7227 144.972 97.7193 146.311 97.1316 146.805C96.542 147.3 95.2228 147.072 94.7277 147.662C94.2338 148.25 94.6858 149.509 94.2992 150.177C93.916 150.84 92.5976 151.076 92.3323 151.804C92.0719 152.52 92.928 153.547 92.7935 154.314C92.663 155.06 91.5054 155.733 91.5054 156.517Z" fill="#8B672A"/>
<path opacity="0.2" d="M132.587 148.4C133.7 148.4 134.603 147.497 134.603 146.384C134.603 145.27 133.7 144.367 132.587 144.367C131.473 144.367 130.57 145.27 130.57 146.384C130.57 147.497 131.473 148.4 132.587 148.4Z" fill="#8B672A"/>
<path opacity="0.2" d="M125.666 143.449C126.272 143.449 126.763 142.959 126.763 142.353C126.763 141.748 126.272 141.257 125.666 141.257C125.061 141.257 124.57 141.748 124.57 142.353C124.57 142.959 125.061 143.449 125.666 143.449Z" fill="#8B672A"/>
<path opacity="0.2" d="M129.111 138.466C129.392 138.466 129.619 138.239 129.619 137.958C129.619 137.677 129.392 137.45 129.111 137.45C128.83 137.45 128.603 137.677 128.603 137.958C128.603 138.239 128.83 138.466 129.111 138.466Z" fill="#8B672A"/>
<path opacity="0.2" d="M117.518 141.078C118.15 141.078 118.662 140.566 118.662 139.934C118.662 139.303 118.15 138.791 117.518 138.791C116.887 138.791 116.375 139.303 116.375 139.934C116.375 140.566 116.887 141.078 117.518 141.078Z" fill="#8B672A"/>
<path opacity="0.2" d="M125.12 150.614C126.166 150.614 127.014 149.766 127.014 148.72C127.014 147.674 126.166 146.826 125.12 146.826C124.074 146.826 123.226 147.674 123.226 148.72C123.226 149.766 124.074 150.614 125.12 150.614Z" fill="#8B672A"/>
<path opacity="0.2" d="M133.889 154.58C134.365 154.58 134.75 154.195 134.75 153.719C134.75 153.244 134.365 152.859 133.889 152.859C133.414 152.859 133.029 153.244 133.029 153.719C133.029 154.195 133.414 154.58 133.889 154.58Z" fill="#8B672A"/>
<path opacity="0.2" d="M139.799 149.154C140.369 149.154 140.832 148.692 140.832 148.121C140.832 147.551 140.369 147.088 139.799 147.088C139.228 147.088 138.766 147.551 138.766 148.121C138.766 148.692 139.228 149.154 139.799 149.154Z" fill="#8B672A"/>
<path opacity="0.2" d="M117.756 146.826C118.067 146.826 118.319 146.574 118.319 146.264C118.319 145.953 118.067 145.701 117.756 145.701C117.446 145.701 117.194 145.953 117.194 146.264C117.194 146.574 117.446 146.826 117.756 146.826Z" fill="#8B672A"/>
<path d="M111.137 154.449C111.811 154.449 112.358 153.902 112.358 153.227C112.358 152.553 111.811 152.006 111.137 152.006C110.462 152.006 109.916 152.553 109.916 153.227C109.916 153.902 110.462 154.449 111.137 154.449Z" fill="#44B294"/>
<path d="M111.194 149.711C111.556 149.711 111.85 149.418 111.85 149.056C111.85 148.694 111.556 148.4 111.194 148.4C110.832 148.4 110.539 148.694 110.539 149.056C110.539 149.418 110.832 149.711 111.194 149.711Z" fill="#44B294"/>
<path d="M105.615 153.227C106.134 153.227 106.554 152.807 106.554 152.289C106.554 151.771 106.134 151.35 105.615 151.35C105.097 151.35 104.677 151.771 104.677 152.289C104.677 152.807 105.097 153.227 105.615 153.227Z" fill="#44B294"/>
<path opacity="0.2" d="M99.058 153.547C99.9723 153.547 100.714 152.806 100.714 151.891C100.714 150.977 99.9723 150.236 99.058 150.236C98.1436 150.236 97.4023 150.977 97.4023 151.891C97.4023 152.806 98.1436 153.547 99.058 153.547Z" fill="#B0872F"/>
<path opacity="0.2" d="M98.135 156.295C98.6449 156.295 99.0582 155.882 99.0582 155.372C99.0582 154.862 98.6449 154.449 98.135 154.449C97.6252 154.449 97.2119 154.862 97.2119 155.372C97.2119 155.882 97.6252 156.295 98.135 156.295Z" fill="#B0872F"/>
<path d="M30.9772 155.229C30.9772 155.229 30.5723 156.538 31.6396 157.155C32.707 157.771 36.0045 158.436 40.7963 159.123C45.5882 159.811 47.4385 159.906 48.1738 159.384C48.9093 158.863 48.8769 157.967 48.8769 157.967L30.9772 155.229Z" fill="#493E48"/>
<path d="M41.7638 151.297C41.7638 151.297 40.3963 151.019 38.2345 151.485C35.7447 152.023 32.3702 153.364 31.6004 154.199C30.1621 155.76 31.4104 156.135 32.9445 156.68C34.4786 157.226 47.9365 159.792 48.8771 157.968C49.8178 156.144 50.1923 152.31 50.1923 152.31L41.7638 151.297Z" fill="black"/>
<path d="M32.3604 112.737C33.5947 118.224 34.8467 123.763 37.2553 128.845C41.9041 125.037 46.8671 121.613 52.0774 118.619C53.1283 117.972 54.0907 117.267 55.149 116.625C55.1821 116.605 55.2169 116.583 55.2346 116.549C55.2595 116.501 55.2447 116.443 55.2292 116.391C54.3871 113.554 53.313 110.774 52.4634 107.924C51.6907 105.332 51.0902 102.77 49.7375 100.396C48.156 101.33 46.607 102.319 45.0941 103.36C43.8383 104.225 42.4637 104.931 41.255 105.821C39.7191 106.951 38.2169 108.132 36.7119 109.303C36.2436 109.667 32.2704 112.338 32.3604 112.737Z" fill="#8B672A"/>
<path d="M53.5031 118.135C50.0117 121.341 46.2864 124.292 42.367 126.958C41.5476 127.515 40.491 128.532 39.5341 128.815C38.3441 129.167 38.2034 128.459 37.769 127.42C36.8081 125.119 35.9564 122.769 35.1872 120.398C34.8085 119.231 34.3848 118.025 34.154 116.82C33.8905 115.443 33.9373 114.07 33.4077 112.722C35.6581 111.308 37.5864 109.39 39.7573 107.842C43.1821 105.401 46.5827 103.037 49.9283 100.474C51.4971 102.426 52.5449 104.747 53.4451 107.066C54.3422 109.376 54.5727 111.658 55.1092 114.072C55.2662 114.778 55.4207 115.531 55.171 116.21C54.9706 116.755 54.536 117.176 54.1115 117.572C53.9096 117.76 53.7067 117.948 53.5031 118.135Z" fill="#D1A53D"/>
<path d="M41.1519 99.6746C41.0277 100.003 40.9127 100.346 40.7896 100.689C40.2782 102.115 39.2781 103.3 38.4123 104.542C37.9158 105.254 37.5218 106.036 37.1761 106.83C36.8476 107.586 36.7943 108.518 36.6548 109.334C36.666 109.268 37.2916 108.889 37.3821 108.81C37.6279 108.594 37.8563 108.363 38.1216 108.17C38.6808 107.762 39.191 107.285 39.7295 106.842C41.411 105.458 43.4565 104.266 45.5817 105.43C46.5593 105.965 46.703 106.997 47.1739 107.918C47.4777 108.512 49.1194 110.1 48.8465 108.368C48.7941 108.037 48.6074 107.745 48.477 107.436C47.5493 105.236 49.5837 101.981 48.2162 99.9607C47.3535 98.6862 45.3796 97.559 43.8386 97.4998C42.2117 97.4374 41.6174 98.4463 41.1519 99.6746Z" fill="#FEBBBA"/>
<path d="M89.6658 91.9177C90.2012 91.9392 90.6916 92.2077 91.1566 92.4736C93.7199 93.9391 96.2092 95.534 98.6116 97.2507C99.8804 98.1572 101.141 99.1128 102.1 100.342C103.06 101.571 103.701 103.118 103.555 104.67C103.398 106.352 102.339 107.845 101.014 108.892C100.401 109.377 99.711 109.79 98.9482 109.965C97.5925 110.276 96.1785 109.806 94.9357 109.181C89.6937 106.543 86.1302 100.86 86.0403 94.9922C86.0023 92.5121 87.4068 91.827 89.6658 91.9177Z" fill="#231F20"/>
<path d="M116.87 154.282C116.143 153.562 114.665 153.224 114.066 152.394C113.746 151.951 113.453 151.466 112.998 151.162C112.65 150.928 112.235 150.821 111.828 150.723C109.679 150.208 107.488 149.858 105.284 149.704C104.784 149.67 104.273 149.646 103.793 149.79C103.476 149.885 103.186 150.049 102.898 150.213C101.842 150.812 101.454 151.508 101.522 152.687C101.598 154.002 101.863 155.296 102.126 156.584C102.135 156.63 102.145 156.676 102.155 156.723C104.303 156.759 106.446 157.027 108.593 157.163C112.001 157.379 115.417 157.262 118.83 157.07C118.927 155.511 117.467 154.875 116.87 154.282Z" fill="black"/>
<path d="M70.2747 55.7655C70.5091 56.494 70.6417 57.2478 70.9277 57.9618C71.2138 58.6758 71.6805 59.3683 72.4135 59.7647C73.1465 60.161 74.1829 60.1835 74.8137 59.6685C75.4636 59.138 75.5011 58.2157 75.1748 57.4902C74.8485 56.7648 75.0763 56.2221 74.5311 55.6068C73.9067 54.9019 73.2712 53.1172 72.8156 52.3183C72.4703 51.7127 71.3153 51.9851 70.5595 51.857C69.5118 51.6794 68.7532 52.7312 69.0096 53.5513C69.1058 53.8591 69.3549 54.0595 69.5535 54.3175C69.8919 54.7572 70.111 55.2571 70.2747 55.7655Z" fill="#F3B0AF"/>
<path d="M104.403 152.935C105.387 152.975 106.34 152.87 107.323 152.743C107.731 152.691 108.11 152.763 108.516 152.654C108.979 152.531 109.407 152.304 109.865 152.168C110.603 151.948 111.41 151.952 112.099 151.609C112.63 151.344 113.563 150.843 113.801 150.319C114.129 149.598 114.089 148.447 114.129 147.665C114.184 146.56 114.265 145.229 113.981 144.149C113.711 143.12 113.395 142.088 113.152 141.039C112.616 138.726 112.099 136.404 111.384 134.138C110.344 130.844 109.309 127.532 108.749 124.116C108.573 123.041 108.443 121.952 108.105 120.916C107.83 120.072 107.421 119.278 106.991 118.501C105.972 116.66 104.855 114.718 103.597 113.047C103.07 112.347 102.802 111.651 102.37 110.919C101.282 109.077 99.9565 107.334 98.7536 105.564C96.3606 102.042 93.9315 98.5433 91.3783 95.1353C90.7882 94.3475 90.2018 93.5561 89.6549 92.7374C89.3849 92.3332 89.1612 91.8756 88.8698 91.489C88.6247 91.1637 88.3428 90.9599 88.2402 90.5314C88.0666 89.8058 88.115 89.0506 88.0506 88.3125C87.9726 87.4187 87.7308 86.5389 87.3405 85.7309C87.0347 85.0973 86.3935 84.3482 85.6457 84.2522C85.0231 84.1722 84.4611 84.0343 83.8224 84.0604C80.6669 84.189 77.5113 84.3174 74.3557 84.446C72.6715 84.5148 70.9739 84.5842 69.3221 84.947C67.8274 85.2753 66.5232 85.5746 65.2142 86.4335C64.1361 87.1408 63.1383 87.9704 62.2461 88.9011C61.8841 89.2787 61.5313 89.6866 61.3594 90.1805C61.1037 90.9162 61.2729 91.7025 61.197 92.46C61.1224 93.2063 60.7356 93.943 60.4615 94.6355C59.4479 97.1964 58.0237 99.6578 56.8334 102.147C55.6091 104.707 54.4106 107.28 53.2666 109.877C53.0035 110.474 52.7433 111.072 52.4864 111.672C52.0388 112.717 51.5002 113.718 50.9629 114.719C50.4528 115.669 49.8526 116.537 49.3659 117.493C48.7029 118.795 48.1547 120.156 47.7295 121.554C47.514 122.263 47.4075 123.017 47.1769 123.717C46.9572 124.383 46.5829 125.028 46.3223 125.69C45.3597 128.135 44.4556 130.603 43.6106 133.091C42.7451 135.64 41.9419 138.21 41.202 140.798C40.832 142.092 40.4779 143.391 40.1397 144.694C39.8133 145.951 39.2303 147.142 38.7369 148.349C38.6209 148.632 38.5042 148.918 38.4472 149.219C38.2287 150.373 38.9198 151.044 39.68 151.742C40.4614 152.461 41.0635 153.06 42.1394 153.239C43.1903 153.414 44.2637 153.313 45.3197 153.248C46.7788 153.156 48.2419 153.132 49.7032 153.174C50.5666 153.199 51.4973 153.229 52.2139 152.747C53.2044 152.08 53.3533 150.898 53.7496 149.866C54.2519 148.557 54.7405 147.244 55.2149 145.925C56.1639 143.288 57.0571 140.63 57.8939 137.955C58.5799 135.761 59.2279 133.556 59.8373 131.339C60.4218 129.214 60.9775 127.077 61.7256 125.001C61.8882 124.55 62.0201 123.996 62.2994 123.602C62.4973 123.322 62.7947 123.103 63.0147 122.836C63.7294 121.97 64.5088 121.16 65.2239 120.295C66.1393 119.187 66.9258 117.979 67.7101 116.775C68.0998 116.176 68.4895 115.578 68.8792 114.98C69.1991 114.488 69.4842 114.266 69.9111 113.903C70.4687 113.428 70.9739 112.893 71.4408 112.329C71.8331 111.855 72.1475 111.298 72.6386 110.923C73.714 110.1 74.6152 109.09 75.7451 108.316C75.9327 108.188 76.1349 108.059 76.3617 108.048C76.795 108.025 77.1176 108.418 77.4084 108.74C78.1263 109.534 78.9955 109.767 79.8458 110.326C81.6146 111.491 83.2885 112.795 84.8952 114.173C85.6126 114.788 86.3309 115.651 87.1655 116.065C88.0931 116.526 88.8347 117.176 89.5788 117.889C90.8834 119.138 92.1881 120.388 93.446 121.684C94.2102 122.472 94.9639 123.286 95.5105 124.238C96.1069 125.277 96.4364 126.444 96.7312 127.605C97.4248 130.34 97.9561 133.113 98.389 135.9C98.8123 138.624 99.2015 141.343 99.6186 144.063C99.8897 145.832 100.116 147.609 100.297 149.39C100.372 150.12 100.427 151.33 100.989 151.885C101.726 152.614 102.973 152.82 103.957 152.906C104.106 152.919 104.255 152.929 104.403 152.935Z" fill="#515959"/>
<path d="M63.0145 122.837C63.7292 121.97 64.5086 121.16 65.2238 120.295C66.1392 119.187 66.9256 117.98 67.7099 116.775C68.0996 116.176 68.4893 115.578 68.879 114.98C69.1989 114.488 69.484 114.266 69.9109 113.903C70.4685 113.428 70.9737 112.893 71.4406 112.329C71.833 111.855 72.1474 111.299 72.6384 110.923C73.6658 110.137 74.5393 109.185 75.5998 108.427C75.2632 108.529 74.8762 108.596 74.4282 108.635C70.9009 108.937 68.1193 106.034 61.3466 116.737C54.5742 127.44 55.5417 122.361 53.3044 135.785C51.5768 146.15 44.1195 149.408 39.2785 147.072C39.097 147.498 38.9117 147.922 38.7374 148.349C38.6214 148.632 38.5047 148.918 38.4477 149.219C38.2292 150.373 38.9203 151.044 39.6805 151.743C40.4619 152.461 41.064 153.06 42.1399 153.239C43.1906 153.414 44.2642 153.313 45.32 153.248C46.7791 153.157 48.2422 153.132 49.7035 153.174C50.567 153.199 51.4977 153.23 52.2142 152.747C53.2047 152.08 53.3537 150.898 53.7499 149.866C54.2523 148.557 54.7408 147.244 55.2152 145.925C56.1643 143.288 57.0575 140.63 57.8942 137.955C58.5803 135.761 59.2282 133.556 59.8376 131.34C60.4222 129.214 60.9778 127.077 61.7259 125.001C61.8885 124.55 62.0205 123.996 62.2997 123.602C62.4971 123.322 62.7945 123.103 63.0145 122.837Z" fill="black"/>
<path d="M113.151 141.039C113.058 140.637 112.965 140.234 112.872 139.831C112.868 139.852 111.467 147.087 106.154 143.162C100.832 139.232 104.952 139.413 100.443 128.226C95.9343 117.04 94.9239 112.504 88.0519 107.304C81.18 102.104 79.7212 100.483 78.3946 98.8745C77.8939 104.477 77.898 107.015 76.4009 108.05C76.8138 108.054 77.126 108.428 77.4077 108.74C78.1256 109.534 78.9948 109.767 79.8451 110.326C81.6139 111.491 83.2878 112.795 84.8945 114.173C85.6119 114.788 86.3302 115.651 87.1648 116.066C88.0924 116.526 88.834 117.176 89.5781 117.889C90.8827 119.138 92.1874 120.388 93.4453 121.684C94.2095 122.472 94.9632 123.286 95.5098 124.238C96.1062 125.277 96.4358 126.444 96.7305 127.606C97.4241 130.34 97.9554 133.113 98.3883 135.9C98.8116 138.624 99.2008 141.343 99.6179 144.063C99.889 145.833 100.116 147.609 100.297 149.39C100.371 150.12 100.426 151.33 100.988 151.885C101.725 152.614 102.972 152.82 103.956 152.906C104.106 152.919 104.254 152.928 104.402 152.934C105.386 152.975 106.339 152.87 107.323 152.743C107.73 152.691 108.109 152.763 108.515 152.654C108.978 152.531 109.406 152.304 109.864 152.168C110.602 151.948 111.409 151.952 112.098 151.609C112.629 151.344 113.562 150.843 113.801 150.319C114.129 149.598 114.088 148.447 114.128 147.665C114.184 146.56 114.264 145.228 113.98 144.149C113.711 143.12 113.395 142.088 113.151 141.039Z" fill="black"/>
<path d="M72.3745 11.148C73.5912 12.7577 74.232 15.1149 74.2793 17.1254C74.3097 18.3508 74.1033 19.6186 73.8756 20.8191C73.8388 21.0136 73.798 21.212 73.6964 21.382C73.6315 21.4906 73.5441 21.5834 73.4574 21.6753C73.2205 21.9267 72.9836 22.1778 72.7466 22.429C72.4678 22.7245 72.1711 23.0317 71.7829 23.1514C71.3835 23.2746 70.9408 23.1756 70.5772 22.9691C70.2137 22.7627 69.9171 22.4579 69.6382 22.1466C69.1267 21.5753 68.6388 20.9459 67.9816 20.5318C67.3221 20.1162 66.5605 19.9642 65.9116 19.4866C65.3723 19.0897 64.6567 18.4631 64.6332 17.7426C64.6258 17.5144 64.6963 17.292 64.7479 17.0696C64.8748 16.5229 64.9375 15.9028 64.6736 15.3869C64.4866 15.0216 64.2593 14.4401 64.7005 14.1331C64.8899 14.0011 65.1601 14.0248 65.3528 14.1522C65.5454 14.2795 65.668 14.4928 65.7324 14.7149C65.9745 15.5513 66.9453 15.7763 67.7363 15.5323C68.8933 15.1756 70.9601 14.5562 71.1407 13.119C71.2069 12.5911 71.0099 12.0652 71.1022 11.5262C71.2427 10.7035 71.8112 10.4027 72.3745 11.148Z" fill="#E08063"/>
<path d="M76.0416 22.871C76.1347 22.4922 76.6961 22.347 76.7287 21.9581C76.743 21.7882 76.6453 21.6311 76.5516 21.4886C76.0271 20.6912 75.5026 19.8937 74.9782 19.0963C74.9076 18.9888 74.8266 18.8737 74.7029 18.8392C74.5998 18.8106 74.4909 18.8451 74.3897 18.8802C73.3097 19.2548 72.3302 19.8893 71.2664 20.2667C70.2604 20.6238 69.2458 20.9773 68.244 21.3743C68.1934 21.3944 68.1414 21.4153 68.1011 21.4521C67.9523 21.5891 68.0468 21.8342 68.1495 22.0086C68.6431 22.8461 69.1367 23.6837 69.6303 24.5213C69.7046 24.6475 69.7871 24.7813 69.9206 24.842C70.0896 24.919 70.2849 24.8566 70.4687 24.8297C70.7499 24.7884 71.043 24.837 71.2966 24.9649C73.0721 24.7232 74.7822 23.9777 76.1493 22.8201C76.0924 22.81 76.0533 22.8234 76.0416 22.871Z" fill="#BE202F"/>
<path d="M45.6434 97.2781C45.2075 97.0624 44.7679 96.8444 44.3871 96.5419C43.8066 96.0808 43.4107 95.4705 43.0727 94.8098C43.0122 95.0953 42.8792 95.2723 42.4927 95.1793C42.1476 95.0963 41.9223 95.5262 41.8312 95.8693C41.7478 96.1833 41.7431 96.5268 41.6483 96.8282C41.5415 97.1678 41.251 97.4158 41.2999 97.8037C41.3453 98.1644 41.6737 98.4134 41.9795 98.6101C43.68 99.7046 45.5797 100.313 47.3229 101.295C47.6586 101.484 48.0043 101.672 48.3839 101.738C49.0683 101.855 49.8084 101.514 50.1638 100.917C50.503 100.348 50.4697 99.5817 50.093 99.0381C49.6979 98.9142 49.2956 98.8105 48.9005 98.6861C47.7713 98.3305 46.7047 97.8032 45.6434 97.2781Z" fill="#BE202F"/>
<path d="M65.615 14.3289C65.5681 15.5412 65.8122 16.7944 66.4951 17.7972C66.5896 17.9359 66.6958 18.0729 66.8406 18.1578C66.9855 18.2425 67.1775 18.2654 67.3187 18.1748C67.4295 18.1035 67.4908 17.9779 67.5424 17.8567C67.9627 16.8709 68.3136 15.1658 67.798 14.1403C67.1949 12.9418 65.6762 12.7481 65.615 14.3289Z" fill="#F49069"/>
<path d="M68.1013 12.9043C68.0336 13.1266 68.0327 13.3628 68.0324 13.5949C68.0311 14.4495 68.0314 15.3161 68.2563 16.1406C68.3488 16.4795 68.4883 16.8221 68.7551 17.0509C68.894 17.1701 69.0843 17.2552 69.259 17.2007C69.4173 17.1513 69.5211 17.0023 69.6029 16.8581C70.3477 15.5471 70.2357 13.7989 69.3298 12.5936C68.8609 11.9701 68.3093 12.2228 68.1013 12.9043Z" fill="#F49069"/>
<path d="M69.6673 13.1106C69.6508 13.7312 69.6458 14.3626 69.8179 14.9591C69.9899 15.5554 70.3655 16.1216 70.9288 16.382C71.0005 16.4151 71.0892 16.4419 71.1543 16.3972C71.2034 16.3634 71.221 16.3005 71.235 16.2428C71.4112 15.5186 71.5504 14.7666 71.4312 14.0309C71.2908 13.1631 69.7171 11.2338 69.6673 13.1106Z" fill="#F49069"/>
<path d="M72.0075 13.6574C72.3096 13.2196 72.1981 12.5334 72.0907 12.0025C72.0344 11.7241 72.0263 10.9025 71.6981 10.7448C71.4068 10.6049 71.0633 11.0667 70.971 11.2269C70.599 11.8734 70.778 12.8049 71.1035 13.5325C71.1479 13.6319 71.1993 13.7349 71.2901 13.8075C71.5246 13.9948 71.8644 13.8647 72.0075 13.6574Z" fill="#F49069"/>
<path d="M77.338 79.493C77.0821 74.7265 76.9933 70.11 75.7287 65.4513C75.2449 63.6686 74.6466 61.9171 73.9373 60.2116C73.7833 59.8414 73.6141 59.4769 73.4771 59.1034C73.3919 58.8708 73.2315 58.5825 73.2354 58.3292C73.2381 58.1493 73.3282 58.0007 73.3035 57.8102C73.287 57.6831 73.2293 57.5553 73.1229 57.4835C73.0387 57.4267 72.8201 57.7268 72.7191 57.7144C72.2801 57.6606 71.2432 57.6565 70.839 57.4797C70.5168 57.3383 70.1297 57.0954 69.7982 56.9738C69.2335 56.7667 69.4215 57.0557 69.0245 57.3842C67.6546 58.518 65.9991 59.291 64.4085 60.0739C62.7512 60.8898 61.0839 61.6981 59.5261 62.6964C58.7963 63.1641 58.1208 63.7409 57.3501 64.1304C56.5961 64.5115 56.2765 64.9976 55.8838 65.7687C54.8648 67.7696 53.8459 69.7706 52.8269 71.7715C52.3491 72.7098 51.9183 73.6968 51.3236 74.5618C50.8373 75.269 50.7268 76.1105 50.3341 76.8767C49.9209 77.6829 49.3279 78.4525 49.0043 79.2929C48.6901 80.1091 48.3952 80.944 48.047 81.7575C47.2532 83.6117 46.4238 85.4512 45.5422 87.2656C45.3191 87.7245 45.0049 88.091 44.7654 88.53C44.4621 89.0858 44.3244 89.7895 44.121 90.389C43.6955 91.6425 43.2748 92.9104 43.1397 94.2342C43.1185 94.442 43.1077 94.6442 43.0728 94.8103C43.4107 95.471 43.8066 96.0813 44.3871 96.5424C44.7679 96.8449 45.2075 97.0629 45.6434 97.2786C46.7048 97.8037 47.7713 98.3311 48.9007 98.6868C49.2958 98.8112 49.6981 98.9148 50.0932 99.0388C50.0752 99.0129 50.0574 98.9869 50.0379 98.9622C50.9047 99.1426 51.1083 98.3874 51.3821 97.7593C51.7372 96.9444 52.1326 96.1363 52.5611 95.3576C53.2509 94.1042 53.9985 92.8763 54.5342 91.5455C54.8339 90.8004 55.0647 90.0282 55.3882 89.2931C55.6784 88.6332 56.041 88.0081 56.4028 87.3848C57.0455 86.2769 57.6862 85.1676 58.3313 84.0611C58.6719 83.4769 59.1149 82.277 59.8537 82.1297C60.2058 82.0596 60.5718 82.242 60.8071 82.513C61.0425 82.784 61.1693 83.1314 61.2705 83.4757C61.8906 85.5849 61.4389 87.6102 61.2948 89.7397C61.289 89.825 61.2829 89.9119 61.2493 89.9902C61.2096 90.0834 61.1353 90.156 61.0739 90.2364C59.8484 91.8395 63.106 92.1181 63.8909 92.3624C65.3365 92.8126 66.8541 93.0594 68.3534 93.246C69.2227 93.3544 70.0985 93.437 70.974 93.4054C72.0794 93.3654 73.169 93.1438 74.2527 92.9232C75.3955 92.6904 76.551 92.4754 77.7053 92.2469C77.7929 87.9975 77.5659 83.74 77.338 79.493Z" fill="#BE202F"/>
<path d="M89.9759 75.0673C89.8845 66.522 89.2198 57.9541 87.454 49.581C86.4709 44.9188 85.1407 40.325 83.4053 35.886C82.4431 33.4251 81.3563 31.0126 80.1351 28.6692C79.5253 27.4991 78.8823 26.3465 78.2051 25.2142C77.8971 24.6993 77.5995 24.1679 77.2796 23.6627C77.2234 23.5741 76.4441 22.8735 76.15 22.8201C74.7831 23.9777 73.0728 24.7232 71.2973 24.9649C71.3074 24.97 71.3177 24.9742 71.3276 24.9795C71.3676 25.0009 71.4091 25.0271 71.4268 25.069C71.4617 25.1514 71.3858 25.24 71.3056 25.2796C71.1159 25.3738 70.8886 25.3371 70.6832 25.3897C70.0408 25.5552 70.7091 26.2591 70.8609 26.577C71.139 27.1592 71.3874 27.755 71.6421 28.3476C72.7023 30.8142 73.584 33.3573 74.2812 35.95C74.9539 38.451 75.2941 41.023 76.0839 43.4846C76.8998 46.0272 77.3193 48.6965 77.3225 51.3669C77.3228 51.6952 77.3146 52.035 77.1754 52.3322C76.7251 53.2942 75.7744 53.5321 74.9596 53.9798C73.9803 54.5178 74.347 55.9493 73.9961 56.9039C73.926 57.0945 73.4351 57.4378 73.2867 57.5767C73.286 57.5773 73.1237 57.4827 73.1229 57.4834C73.5055 58.4625 74.0328 59.1575 74.4712 60.2114C75.1805 61.917 75.7788 63.6684 76.2627 65.4511C77.5271 70.1098 77.6158 74.7263 77.8717 79.4928C78.0978 83.704 78.3234 87.9257 78.2417 92.1387C81.6071 91.4577 84.9447 90.6203 87.9157 88.8489C88.4215 88.5474 88.9701 88.1223 88.9671 87.5335C88.9657 87.3059 88.9067 87.0147 89.1051 86.9037C89.2421 86.8272 89.4131 86.9016 89.5693 86.8856C89.9551 86.8457 90.0571 86.3368 90.0575 85.949C90.0605 82.3199 90.0149 78.7055 89.9759 75.0673Z" fill="#BE202F"/>
<path opacity="0.57" d="M87.4537 49.5811C86.4705 44.9188 85.1404 40.325 83.4049 35.8861C82.4428 33.4252 81.3557 31.0127 80.1347 28.6693C79.5249 27.4994 78.8819 26.3466 78.2047 25.2143C77.8967 24.6994 77.5991 24.1679 77.2792 23.6629C77.2231 23.5743 76.4437 22.8736 76.1496 22.8203C75.1724 23.6478 74.0184 24.2602 72.792 24.633C72.7954 24.633 72.7984 24.633 72.8017 24.633C82.1623 24.5358 79.4868 40.3069 83.6024 48.1896C87.7181 56.0721 84.1236 53.2792 86.3636 63.9069C88.6038 74.5346 86.1553 76.2537 84.0194 74.0124C82.5322 72.4519 79.1517 71.1403 77.234 70.4867C77.279 70.8417 77.3216 71.1968 77.3591 71.5522C79.7981 74.0284 83.8354 78.3969 78.9138 75.472C82.823 82.8371 81.9354 90.8406 78.2418 92.1387C81.6072 91.4576 84.9448 90.6202 87.9158 88.8488C88.4217 88.5473 88.9704 88.1222 88.9672 87.5334C88.9659 87.3058 88.9069 87.0146 89.1052 86.9037C89.2423 86.8272 89.4132 86.9015 89.5694 86.8853C89.9552 86.8456 90.0573 86.3368 90.0576 85.9489C90.0605 82.3198 90.0149 78.7054 89.9759 75.0672C89.8841 66.5223 89.2194 57.9542 87.4537 49.5811Z" fill="#E92D29"/>
<path d="M102.156 156.723C102.218 157 102.309 157.279 102.528 157.453C102.699 157.588 102.922 157.636 103.136 157.677C107.643 158.53 112.298 157.825 116.866 158.244C117.308 158.285 117.768 158.334 118.184 158.18C118.6 158.026 118.953 157.596 118.858 157.163C118.851 157.131 118.841 157.1 118.83 157.069C115.418 157.262 112.001 157.379 108.593 157.163C106.447 157.026 104.303 156.759 102.156 156.723Z" fill="#493E48"/>
<path d="M77.8714 79.4931C77.6155 74.7267 77.5267 70.1102 76.2623 65.4515C75.7785 63.6688 75.1801 61.9173 74.4709 60.2118C74.0324 59.1577 73.5509 58.2638 73.1681 57.2847C73.0437 57.4002 72.8864 57.4647 72.7188 57.4972C73.0864 58.3947 73.5302 59.2343 73.9369 60.2116C74.6464 61.9171 75.2445 63.6686 75.7284 65.4513C76.9928 70.11 77.0815 74.7265 77.3376 79.493C77.5656 83.7399 77.7925 87.9975 77.7049 92.2463C77.8838 92.2109 78.0627 92.1752 78.2414 92.1389C78.3231 87.9259 78.0975 83.7043 77.8714 79.4931Z" fill="white"/>
<path d="M69.8196 94.7414C68.8569 94.7414 67.876 94.7298 66.8688 94.7146C64.5936 94.6804 62.5766 94.5613 60.9309 93.4455C60.8833 93.4134 60.871 93.3487 60.9031 93.3013C60.9354 93.2539 61.0001 93.2416 61.0475 93.2735C62.6455 94.3571 64.6308 94.4732 66.872 94.5069C70.7333 94.565 74.213 94.5718 77.7006 94.0657C81.6944 93.4864 85.0952 92.2746 87.8086 90.4639C87.8562 90.4322 87.9208 90.4451 87.9527 90.4927C87.9845 90.5404 87.9717 90.605 87.924 90.6368C85.1847 92.4646 81.7551 93.6875 77.7303 94.2713C75.1393 94.6474 72.5555 94.7414 69.8196 94.7414Z" fill="#515959"/>
<path d="M77.5078 105.844C77.0378 105.844 76.5662 105.753 76.1309 105.576C76.0107 105.527 75.8878 105.467 75.8038 105.359C75.6695 105.186 75.6819 104.957 75.691 104.79C75.8663 101.579 75.6392 98.3522 75.0157 95.1981C75.0046 95.1418 75.0412 95.0872 75.0974 95.0759C75.1535 95.0646 75.2083 95.1013 75.2196 95.1576C75.8463 98.3286 76.0748 101.573 75.8984 104.801C75.889 104.975 75.8877 105.128 75.9679 105.231C76.019 105.297 76.1012 105.34 76.2091 105.383C76.6698 105.57 77.1733 105.655 77.6699 105.632C78.0974 104.399 78.1324 103.07 78.1663 101.784C78.2092 100.159 78.204 98.831 78.1499 97.604C78.1413 97.4102 78.0982 97.1399 78.0485 96.8268C77.8898 95.8287 77.6726 94.4619 78.3647 94.0215C78.4135 93.9905 78.4773 94.0048 78.5083 94.0532C78.5392 94.1017 78.5249 94.1659 78.4765 94.1968C77.8994 94.564 78.1043 95.8529 78.2539 96.7941C78.3047 97.1133 78.3486 97.389 78.3576 97.5948C78.4121 98.8269 78.4173 100.16 78.3745 101.789C78.3395 103.114 78.3035 104.484 77.843 105.767C77.8291 105.805 77.7934 105.833 77.7523 105.835C77.6707 105.841 77.5893 105.844 77.5078 105.844Z" fill="#515959"/>
<path d="M76.9979 105.078C76.9265 105.078 76.8532 105.065 76.7802 105.039C76.563 104.963 76.372 104.782 76.2819 104.568C76.1385 104.227 76.1859 103.859 76.2316 103.502L76.2336 103.485C76.6077 100.568 76.3989 97.526 75.6301 94.6873C75.6151 94.632 75.6477 94.5748 75.7032 94.5597C75.7587 94.5452 75.8157 94.5773 75.8307 94.633C76.6067 97.4975 76.8175 100.568 76.4399 103.512L76.4377 103.529C76.3955 103.858 76.3518 104.198 76.4734 104.487C76.5406 104.647 76.6881 104.786 76.849 104.843C76.9192 104.868 77.0201 104.886 77.1226 104.848C77.7321 101.463 77.7156 98.0343 77.0736 94.655C77.0586 94.5762 77.0648 94.4558 77.1316 94.3754C77.1707 94.3287 77.2218 94.3047 77.2847 94.303C77.3641 94.3033 77.4236 94.3596 77.4264 94.437C77.4291 94.5106 77.3735 94.6219 77.2802 94.6291C77.9279 98.0471 77.9404 101.515 77.3175 104.938C77.3119 104.969 77.2924 104.996 77.2649 105.011C77.1833 105.055 77.0924 105.078 76.9979 105.078Z" fill="#515959"/>
<path d="M76.4817 107.964C76.467 107.964 76.4521 107.96 76.438 107.954C76.3858 107.93 76.3635 107.868 76.3877 107.816C76.6886 107.169 76.8539 106.449 76.8656 105.736C76.8666 105.679 76.913 105.634 76.9695 105.634C76.97 105.634 76.9707 105.634 76.9712 105.634C77.0285 105.635 77.0743 105.682 77.0734 105.739C77.0611 106.482 76.8892 107.23 76.576 107.904C76.5583 107.941 76.5208 107.964 76.4817 107.964Z" fill="#515959"/>
<path d="M89.332 95.9849C88.6441 95.9849 87.9531 95.907 87.2929 95.6749C85.8441 95.1655 84.7515 93.9839 83.8413 92.9167C83.804 92.873 83.8092 92.8074 83.8529 92.7703C83.8963 92.733 83.962 92.7382 83.9994 92.7817C84.8921 93.8286 85.9618 94.9864 87.3619 95.4788C88.6903 95.9462 90.1745 95.7633 91.484 95.6021C91.5403 95.5953 91.5926 95.6357 91.5996 95.6925C91.6065 95.7495 91.5662 95.8013 91.5092 95.8084C90.8169 95.8938 90.0765 95.9849 89.332 95.9849Z" fill="#515959"/>
<path d="M90.4825 95.216C90.4296 95.216 90.377 95.2146 90.3248 95.2126C88.2676 95.1366 86.2401 94.1575 84.9015 92.5935C84.864 92.5498 84.8693 92.4844 84.9128 92.4469C84.9565 92.4099 85.0217 92.4148 85.0592 92.4583C86.3608 93.979 88.3321 94.931 90.3324 95.0048C90.5888 95.0146 90.8561 95.0079 91.0772 94.8969C91.1285 94.8712 91.191 94.892 91.2165 94.943C91.2424 94.9944 91.2216 95.0568 91.1705 95.0825C90.956 95.1904 90.7172 95.216 90.4825 95.216Z" fill="#515959"/>
<path d="M59.604 99.4575C59.2438 99.4575 58.8659 99.4388 58.4682 99.4012C58.411 99.3958 58.369 99.3452 58.3745 99.288C58.3797 99.231 58.4292 99.1873 58.4877 99.1944C59.7205 99.3102 60.7556 99.2441 61.652 98.992C62.7479 98.6835 63.663 98.074 64.2285 97.2758C64.6421 96.6921 64.8408 96.0462 65.051 95.3623C65.139 95.0758 65.23 94.7798 65.3378 94.4908C65.3578 94.4371 65.4176 94.4099 65.4714 94.4299C65.5252 94.4499 65.5524 94.5098 65.5324 94.5636C65.4269 94.8467 65.3368 95.1399 65.2497 95.4232C65.0439 96.0926 64.8311 96.7851 64.3983 97.3958C63.8054 98.2327 62.8501 98.8704 61.7084 99.192C61.0782 99.3696 60.3832 99.4575 59.604 99.4575Z" fill="#515959"/>
<path d="M59.481 98.8747C59.2093 98.8747 58.938 98.8539 58.6695 98.812C58.6129 98.8029 58.574 98.7498 58.5828 98.6931C58.5917 98.6367 58.6448 98.598 58.7015 98.6066C59.9603 98.8036 61.2905 98.5124 62.3516 97.8077C62.893 97.4481 63.3773 96.9683 63.7524 96.42C64.1675 95.8131 64.3539 95.1914 64.5383 94.5002C64.5531 94.4447 64.6103 94.4121 64.6654 94.4265C64.7209 94.4415 64.7537 94.4983 64.7391 94.5538C64.5498 95.2641 64.3576 95.9034 63.9239 96.5374C63.534 97.1076 63.0301 97.6066 62.4668 97.9808C61.5892 98.5637 60.5344 98.8747 59.481 98.8747Z" fill="#515959"/>
<path d="M43.2145 152.142C42.8251 152.142 42.4639 152.115 42.1159 151.998C41.3074 151.727 40.7709 151.042 40.2524 150.38C39.814 149.82 39.3606 149.242 38.748 148.924C38.697 148.897 38.6772 148.834 38.7036 148.783C38.7301 148.732 38.7925 148.713 38.8436 148.739C39.4962 149.078 39.9638 149.675 40.416 150.252C40.9389 150.92 41.4326 151.55 42.1818 151.801C42.5983 151.94 43.0499 151.941 43.5538 151.929C45.7645 151.873 47.9981 151.711 50.1925 151.447C51.349 151.309 52.4643 151.135 53.3953 150.541C53.4438 150.51 53.508 150.525 53.5389 150.573C53.5698 150.621 53.5556 150.686 53.5073 150.717C52.5393 151.334 51.3988 151.512 50.2174 151.654C48.0168 151.918 45.7766 152.08 43.5593 152.136C43.4415 152.139 43.3268 152.142 43.2145 152.142Z" fill="#515959"/>
<path d="M104.969 152.24C103.289 152.24 101.714 151.759 100.485 150.829C100.439 150.795 100.43 150.729 100.465 150.684C100.5 150.638 100.565 150.629 100.61 150.663C102.45 152.055 105.094 152.411 107.683 151.615C109.741 150.983 111.715 149.711 113.897 147.612C113.935 147.575 113.994 147.573 114.035 147.607C114.076 147.64 114.085 147.699 114.056 147.743L113.807 148.132C113.775 148.18 113.711 148.194 113.663 148.163C113.654 148.157 113.646 148.15 113.639 148.142C111.59 150.039 109.706 151.211 107.744 151.814C106.814 152.1 105.876 152.24 104.969 152.24Z" fill="#515959"/>
<path d="M73.4842 62.4216C73.7668 62.4216 73.9958 62.1926 73.9958 61.91C73.9958 61.6275 73.7668 61.3984 73.4842 61.3984C73.2017 61.3984 72.9727 61.6275 72.9727 61.91C72.9727 62.1926 73.2017 62.4216 73.4842 62.4216Z" fill="#E92D29"/>
<path d="M74.3612 65.228C74.6437 65.228 74.8728 64.9989 74.8728 64.7164C74.8728 64.4339 74.6437 64.2048 74.3612 64.2048C74.0786 64.2048 73.8496 64.4339 73.8496 64.7164C73.8496 64.9989 74.0786 65.228 74.3612 65.228Z" fill="#E92D29"/>
<path d="M75.0042 68.6191C75.2868 68.6191 75.5158 68.3901 75.5158 68.1075C75.5158 67.825 75.2868 67.5959 75.0042 67.5959C74.7217 67.5959 74.4927 67.825 74.4927 68.1075C74.4927 68.3901 74.7217 68.6191 75.0042 68.6191Z" fill="#E92D29"/>
<path d="M75.4574 71.6448C75.7399 71.6448 75.969 71.4157 75.969 71.1332C75.969 70.8506 75.7399 70.6216 75.4574 70.6216C75.1748 70.6216 74.9458 70.8506 74.9458 71.1332C74.9458 71.4157 75.1748 71.6448 75.4574 71.6448Z" fill="#E92D29"/>
<path d="M75.8226 74.5241C76.1051 74.5241 76.3342 74.2951 76.3342 74.0125C76.3342 73.73 76.1051 73.501 75.8226 73.501C75.5401 73.501 75.311 73.73 75.311 74.0125C75.311 74.2951 75.5401 74.5241 75.8226 74.5241Z" fill="#E92D29"/>
<path d="M76.0858 77.7986C76.3683 77.7986 76.5974 77.5695 76.5974 77.287C76.5974 77.0044 76.3683 76.7754 76.0858 76.7754C75.8033 76.7754 75.5742 77.0044 75.5742 77.287C75.5742 77.5695 75.8033 77.7986 76.0858 77.7986Z" fill="#E92D29"/>
<path d="M76.349 81.0725C76.6315 81.0725 76.8606 80.8434 76.8606 80.5609C76.8606 80.2784 76.6315 80.0493 76.349 80.0493C76.0664 80.0493 75.8374 80.2784 75.8374 80.5609C75.8374 80.8434 76.0664 81.0725 76.349 81.0725Z" fill="#E92D29"/>
<path d="M76.6122 84.3467C76.8947 84.3467 77.1237 84.1176 77.1237 83.8351C77.1237 83.5525 76.8947 83.3235 76.6122 83.3235C76.3296 83.3235 76.1006 83.5525 76.1006 83.8351C76.1006 84.1176 76.3296 84.3467 76.6122 84.3467Z" fill="#E92D29"/>
<path d="M76.5682 87.9277C76.8508 87.9277 77.0798 87.6987 77.0798 87.4161C77.0798 87.1336 76.8508 86.9045 76.5682 86.9045C76.2857 86.9045 76.0566 87.1336 76.0566 87.4161C76.0566 87.6987 76.2857 87.9277 76.5682 87.9277Z" fill="#E92D29"/>
<path d="M76.5536 91.2748C76.8361 91.2748 77.0651 91.0458 77.0651 90.7633C77.0651 90.4807 76.8361 90.2517 76.5536 90.2517C76.271 90.2517 76.042 90.4807 76.042 90.7633C76.042 91.0458 76.271 91.2748 76.5536 91.2748Z" fill="#E92D29"/>
<path d="M44.1963 97.5836C43.9957 97.6354 43.832 97.7825 43.7691 97.9678C43.7099 98.1423 43.7456 98.3255 43.8696 98.4837C43.9853 98.6312 44.143 98.7107 44.3131 98.7107C44.3462 98.7107 44.3799 98.7078 44.4137 98.7016C44.6354 98.6614 44.8298 98.4918 44.8968 98.2791C44.9577 98.087 44.9073 97.8901 44.7583 97.7391C44.608 97.587 44.4036 97.5302 44.1963 97.5836ZM44.5389 98.1658C44.5139 98.2453 44.4312 98.3166 44.3469 98.3319C44.277 98.3442 44.2176 98.3185 44.1654 98.2517C44.1203 98.1942 44.107 98.1408 44.1248 98.0881C44.1467 98.0234 44.2131 97.9668 44.2899 97.9471C44.2899 97.9471 44.2899 97.9469 44.2901 97.9469C44.3067 97.9427 44.3259 97.9395 44.3466 97.9395C44.3913 97.9395 44.4429 97.9541 44.4907 98.0026C44.5416 98.0542 44.5572 98.1076 44.5389 98.1658Z" fill="#E92D29"/>
<path d="M73.6067 20.9134C73.7058 20.9852 73.8155 21.02 73.9257 21.02C74.1191 21.02 74.3148 20.9134 74.4615 20.7118C74.6666 20.4301 74.7221 20.012 74.421 19.7919C74.2744 19.6848 74.0796 19.6724 73.8866 19.7581C73.6203 19.8765 73.4068 20.1529 73.3792 20.416C73.3584 20.6153 73.4391 20.792 73.6067 20.9134ZM74.039 20.1014C74.068 20.0885 74.1038 20.0769 74.1376 20.0769C74.1599 20.0769 74.1814 20.0819 74.1996 20.0952C74.299 20.1678 74.2554 20.3571 74.1579 20.4909C74.1179 20.5461 73.9757 20.7169 73.8271 20.6095C73.7691 20.5673 73.7462 20.5197 73.7529 20.4553C73.7665 20.324 73.895 20.1651 74.039 20.1014Z" fill="#E92D29"/>
<path d="M78.2677 36.981C78.5688 36.7324 79.0236 36.3566 78.9911 35.8534C78.9876 35.7991 78.9429 35.7568 78.8886 35.7563C78.8773 35.7561 78.8664 35.7561 78.8551 35.7561C77.5852 35.7561 76.3421 36.5073 75.7539 37.6336C75.7273 37.6846 75.747 37.7473 75.7979 37.7738C75.8485 37.8004 75.9116 37.7807 75.9381 37.7298C76.48 36.692 77.6129 35.9928 78.782 35.9647C78.7497 36.2869 78.4584 36.5538 78.1354 36.8206C77.2194 37.5773 76.3943 38.4436 75.6828 39.3952C75.654 39.4337 75.6554 39.4868 75.6861 39.5238C75.7167 39.5608 75.7687 39.5719 75.8119 39.5507L78.0951 38.4319C78.2311 38.3653 78.3868 38.2901 78.5347 38.2999C78.6522 38.308 78.7832 38.4019 78.7758 38.5115C78.7704 38.5919 78.6995 38.6674 78.6211 38.7442L76.8428 40.4844C76.768 40.5575 76.5926 40.729 76.6496 40.9345C76.695 41.0982 76.85 41.1618 76.9746 41.2127C77.0186 41.2307 77.0603 41.2478 77.0955 41.2675C77.2957 41.3798 77.3655 41.653 77.4151 41.9001C77.6501 43.0726 77.8564 44.2662 78.0278 45.4483C78.2235 46.7972 78.3738 48.2198 77.8972 49.4945C77.871 49.4893 77.8436 49.4933 77.8187 49.5068C77.7589 49.5391 77.739 49.6129 77.7504 49.6692C77.7627 49.7295 77.8089 49.7722 77.8685 49.7781C77.8728 49.7785 77.8779 49.7788 77.8834 49.7788C77.9308 49.7788 78.0183 49.7578 78.0726 49.6181C78.5897 48.2841 78.4357 46.8119 78.2334 45.4183C78.0615 44.2326 77.8548 43.0353 77.619 41.8593C77.5601 41.5668 77.4744 41.2418 77.1973 41.0863C77.1509 41.0602 77.1015 41.04 77.0536 41.0204C76.9383 40.9731 76.8672 40.94 76.8502 40.879C76.8285 40.8008 76.9186 40.7011 76.9884 40.6329L78.7667 38.8927C78.8486 38.8125 78.9725 38.6914 78.9834 38.5252C78.9996 38.2851 78.7719 38.1076 78.549 38.0924C78.3459 38.0788 78.1556 38.1709 78.004 38.2451L76.1209 39.1677C76.7579 38.3673 77.4786 37.6328 78.2677 36.981Z" fill="#E92D29"/>
<path d="M62.7211 53.3261C62.6457 53.3261 62.571 53.3227 62.4982 53.3165C61.2158 53.2057 60.1111 52.6269 59.3031 51.6429C58.4096 50.5545 57.9908 49.0806 58.1544 47.599C58.1685 47.4702 58.2571 47.3095 58.3935 47.266C58.4812 47.2377 58.5712 47.263 58.634 47.3336C58.6937 47.4003 58.6882 47.503 58.6213 47.5627C58.5833 47.5968 58.5347 47.6096 58.4873 47.6021C58.4822 47.613 58.4784 47.6247 58.4772 47.6345C58.3232 49.0299 58.7157 50.4157 59.554 51.4368C60.305 52.3517 61.3327 52.8898 62.526 52.9929C63.0187 53.0347 63.6123 52.9295 63.7995 52.5045C63.8353 52.4225 63.9311 52.3851 64.0133 52.4211C64.0955 52.4573 64.1327 52.5531 64.0965 52.6351C63.8719 53.1472 63.2737 53.3261 62.7211 53.3261Z" fill="black"/>
<path d="M57.4675 46.3447C57.6166 47.7667 58.2997 49.1264 59.3516 50.0951C59.9086 50.608 60.5582 51.0095 61.2216 51.3743C61.6094 51.5876 62.0035 51.7894 62.4033 51.9795C62.7034 52.1223 63.1151 52.2364 63.3239 51.9778C63.4047 51.8776 63.4293 51.7438 63.4394 51.6156C63.4922 50.9389 63.2131 50.2768 62.8488 49.7041C62.2703 48.7942 61.4764 48.0459 60.7613 47.2388C60.3855 46.8148 60.0303 46.3728 59.6969 45.9149C59.3671 45.4616 59.1117 44.8946 58.7423 44.4783C58.3325 44.0165 58.0942 44.3235 57.8219 44.7273C57.481 45.233 57.4041 45.739 57.4675 46.3447Z" fill="black"/>
<path d="M58.8644 43.8413C58.6642 43.426 58.5329 43.0383 58.5761 42.5833C58.6002 42.3296 58.6032 42.0742 58.6314 41.8202C58.6459 41.6899 58.639 41.2081 58.7338 41.1223C56.6893 42.9691 58.0065 46.3612 59.6773 47.9781C60.5391 48.8122 61.6026 49.4199 62.7249 49.8422C62.8754 49.8989 63.2626 50.0475 63.2762 49.7629C63.2947 49.3661 62.9016 48.8762 62.5257 48.4637C62.3246 48.2429 62.1284 48.0444 62.003 47.8942C61.4731 47.2599 60.8687 46.6893 60.345 46.0576C60.0068 45.6497 59.7526 45.217 59.4888 44.7612C59.301 44.4367 59.0277 44.1797 58.8644 43.8413Z" fill="black"/>
<path d="M73.5183 46.2965C73.5674 46.3849 73.6262 46.4789 73.7254 46.5154C73.932 46.5913 74.1207 46.3775 74.2185 46.1914C75.1433 44.4336 75.2852 42.3544 74.7454 40.4618C74.6107 39.9895 74.4337 39.5238 74.163 39.1056C73.3029 37.7764 71.6256 37.1058 69.9954 36.8025C69.8016 36.7665 69.601 36.7344 69.4077 36.7726C69.2143 36.8108 69.0279 36.9352 68.9815 37.1147C68.9364 37.2892 69.0291 37.4663 69.119 37.6251C69.731 38.7063 70.3429 39.7875 70.9548 40.8686C71.3693 41.6008 71.7154 42.3555 72.1021 43.098C72.3864 43.6439 72.7687 44.175 72.9788 44.7511C73.1716 45.279 73.2298 45.7768 73.5183 46.2965Z" fill="black"/>
<path d="M72.898 45.0984C72.9971 45.1404 73.1127 45.1717 73.2097 45.1253C73.2859 45.089 73.3335 45.0125 73.374 44.9385C73.6951 44.3518 73.8235 43.6778 73.8713 43.0109C73.9568 41.8151 73.7919 40.5929 73.3172 39.492C72.8424 38.3912 72.0492 37.4176 71.024 36.7961C70.6438 36.5656 70.226 36.3817 69.7838 36.3353C69.2975 36.2842 68.6983 36.5069 68.6361 36.992C68.5917 37.3364 68.8373 37.6419 69.0527 37.9144C69.629 38.6437 70.0907 39.4633 70.4158 40.3341C70.9714 41.8221 71.197 44.378 72.898 45.0984Z" fill="#515959"/>
<path d="M68.9233 39.3213C68.3804 41.3791 69.4846 43.1769 70.782 44.6769C71.0426 44.9781 71.3712 45.2876 71.7693 45.2732C72.3002 45.254 72.6276 44.6765 72.7301 44.1552C72.969 42.9402 72.5718 41.6909 72.0588 40.5639C71.8283 40.0572 71.5664 39.5518 71.1692 39.1618C70.7717 38.7717 70.2151 38.509 69.6633 38.5838C69.5013 38.6058 69.3385 38.6588 69.2148 38.7657C69.0541 38.9044 68.9776 39.1159 68.9233 39.3213Z" fill="black"/>
<path d="M62.5709 50.5227C62.3781 51.2735 62.6225 52.1087 63.1517 52.6751C63.681 53.2417 64.4691 53.5402 65.2441 53.5224C65.5397 53.5155 65.8567 53.4542 66.0595 53.2391C66.2177 53.0714 66.2809 52.8372 66.327 52.6112C66.4892 51.8174 66.5031 50.9612 66.1561 50.229C65.3687 48.5674 63.0418 48.6899 62.5709 50.5227Z" fill="#F3B0AF"/>
<path d="M72.1016 48.88C72.2472 49.049 72.4151 49.2038 72.6164 49.3003C72.8662 49.4198 73.1521 49.4422 73.4285 49.4249C73.579 49.4155 73.7337 49.3934 73.8623 49.3148C74.0245 49.2156 74.1234 49.0401 74.1993 48.8657C74.5463 48.0675 74.5426 47.124 74.1894 46.3287C73.7308 45.2963 72.4913 44.0774 71.7445 45.4829C71.1796 46.5459 71.3116 47.9638 72.1016 48.88Z" fill="#F3B0AF"/>
<path d="M63.7069 50.7856C64.1308 51.4501 64.637 52.0587 65.1897 52.5842C66.4521 53.7844 67.1602 54.0941 68.8064 54.5665C70.2591 54.9833 70.9467 54.9868 72.3203 54.3406C73.2548 53.9009 73.4159 52.7811 73.548 52.1318C74.3087 48.3948 73.1639 45.5606 70.6954 42.6537C69.8288 41.6331 68.7809 40.6792 67.4813 40.3572C67.0572 40.2522 66.6028 40.2196 66.1877 40.3561C65.3155 40.6432 64.2964 41.8868 63.7996 42.6482C63.0832 43.7463 62.4989 45.066 62.4304 46.3901C62.3507 47.9355 62.8679 49.4704 63.7069 50.7856Z" fill="#FEBBBA"/>
<path d="M68.0063 47.3616C68.5944 47.7614 70.321 49.1364 70.0839 49.5439C69.8469 49.9514 69.3096 50.3591 68.8372 50.1288C68.3651 49.8985 66.9739 46.6596 68.0063 47.3616Z" fill="#F45355"/>
<path d="M69.0396 42.1693C69.5624 41.4781 69.6808 40.67 69.9075 39.8622C69.9803 39.6029 70.0533 39.3424 70.0839 39.0749C70.1807 38.2274 69.8601 37.2525 69.5108 36.4857C69.3477 36.1276 69.1384 35.7929 68.9296 35.4594C68.7501 35.1724 68.5707 34.8856 68.3911 34.5988C68.2289 34.3395 68.0655 34.0788 67.8584 33.854C67.463 33.4251 66.9137 33.1104 66.3766 32.8967C65.8655 32.6935 65.4392 32.3409 64.8844 32.217C65.094 32.2639 65.5979 32.8663 65.7722 33.0465C66.1041 33.3895 66.1523 33.8833 66.1123 34.3415C66.0617 34.9227 65.824 35.4414 65.5693 35.9565C64.9619 37.1849 63.6786 37.9873 62.3349 38.2691C61.5696 38.4295 60.5641 38.5771 59.9044 39.0068C59.0916 39.5365 58.5657 40.3038 58.3291 41.1569C58.0701 42.0911 58.1592 43.1279 58.6158 44.0724C58.7827 44.4175 59.0623 44.6796 59.2543 45.0104C59.524 45.4753 59.784 45.9166 60.1298 46.3327C60.5446 46.8317 61.0052 47.2896 61.442 47.7691C61.6416 47.9881 61.8251 48.2156 62.0094 48.4471C62.1002 48.5611 62.197 48.6707 62.3211 48.7477C62.4598 48.8336 62.5089 48.9459 62.6037 49.0728C62.6987 49.1998 62.8703 49.2336 62.9082 49.4156C62.8876 49.3168 62.869 49.2174 62.852 49.1179C62.7915 48.7625 62.7531 48.4032 62.7372 48.0428C62.7293 47.8627 62.7268 47.6823 62.7301 47.502C62.7325 47.3743 62.6997 47.253 62.7046 47.1277C62.7296 46.4773 62.9746 45.7927 63.2908 45.2303C63.6035 44.6742 64.0646 44.1919 64.6204 43.8738C65.3023 43.4836 65.9127 43.553 66.66 43.4922C67.5929 43.416 68.4838 42.9209 69.0396 42.1693Z" fill="#515959"/>
<path d="M69.1086 51.4332C69.0699 51.4581 69.0277 51.4885 69.0264 51.5265C69.0256 51.552 69.0439 51.5744 69.0617 51.5951C69.2982 51.8662 69.4985 51.9907 69.8823 52.1235C70.1205 52.2058 70.365 52.2845 70.627 52.3101C70.8891 52.3356 71.1741 52.3027 71.3958 52.1788C71.6516 52.036 71.7872 51.7963 71.8679 51.5626C72.0725 50.9702 71.9987 50.3334 71.6638 49.8013C71.702 49.8616 70.4752 50.558 70.352 50.6289C69.9142 50.888 69.5301 51.1613 69.1086 51.4332Z" fill="white"/>
<path d="M65.8945 49.2774C65.5328 49.2218 65.1828 49.6042 65.2526 49.9512C65.2987 50.1802 65.5122 50.3337 65.7359 50.3636C65.7511 50.3666 65.7665 50.368 65.7818 50.3692C65.7823 50.3692 65.7828 50.3692 65.7833 50.3693C65.8042 50.3707 65.825 50.3703 65.8459 50.3683C66.0105 50.3589 66.1667 50.2777 66.251 50.1022C66.2808 50.0402 66.2806 49.9803 66.2637 49.9272C66.3217 49.6429 66.2045 49.3248 65.8945 49.2774Z" fill="#59341F"/>
<path d="M70.2742 46.1725C70.0506 46.4522 70.153 46.8305 70.4332 46.9369C70.5442 47.0334 70.7054 47.0564 70.867 47.0006C71.2531 46.867 71.4078 46.4098 71.2104 46.1195C71.0104 45.8253 70.5195 45.8655 70.2742 46.1725Z" fill="#59341F"/>
<path d="M66.0602 47.6939C65.5131 47.8197 64.9893 48.0696 64.5518 48.422C64.4328 48.518 63.3696 49.622 63.9671 49.6365C64.0917 49.6395 64.1789 49.5208 64.2532 49.421C64.649 48.8889 65.2697 48.5762 65.8846 48.3279C66.0208 48.2729 66.1672 48.2127 66.2452 48.0881C66.3204 47.9681 66.2531 47.6495 66.0602 47.6939Z" fill="#493E48"/>
<path d="M71.4288 44.5055C71.3121 44.4872 71.1521 44.5321 71.0509 44.5497C70.6771 44.6146 70.3165 44.752 69.9734 44.9109C69.5888 45.0889 68.9661 45.3804 68.8877 45.8506C68.8721 45.945 68.9099 46.0554 68.998 46.0922C69.1389 46.1512 69.2709 46.0013 69.3687 45.8839C69.5879 45.6212 69.8944 45.4423 70.2167 45.3268C70.5388 45.2113 70.8787 45.1548 71.2168 45.1015C71.3686 45.0776 71.5435 45.0383 71.6109 44.9001C71.6662 44.7871 71.6132 44.5884 71.4962 44.5267C71.4765 44.5161 71.4537 44.5094 71.4288 44.5055Z" fill="#493E48"/>
<path d="M59.2473 43.1142C59.1903 43.1142 59.135 43.0843 59.1054 43.031C58.2247 41.4521 58.3943 39.4536 59.5084 38.2788C60.2733 37.4725 61.3488 37.1087 62.3889 36.7569C63.4832 36.3865 64.4415 36.0188 65.0958 35.264C65.7291 34.5335 65.9253 33.2555 65.1943 32.5896C65.1484 32.5475 65.1304 32.4832 65.1481 32.4235C65.1657 32.3638 65.216 32.3194 65.2775 32.3093C66.0574 32.181 66.7653 32.6652 67.2221 33.0936C68.625 34.4103 69.3002 36.407 68.984 38.3052C68.9712 38.3814 68.9068 38.4382 68.8296 38.4409C68.7446 38.4451 68.6839 38.3916 68.6659 38.3167L68.5844 37.9798C68.5634 37.8925 68.6168 37.8047 68.7041 37.7837C68.7091 37.7826 68.7143 37.7815 68.7194 37.7807C68.837 36.151 68.1891 34.4468 66.9995 33.3306C66.6636 33.0154 66.1794 32.6654 65.6521 32.6187C66.2464 33.4492 66.0107 34.7045 65.3411 35.477C64.6339 36.2925 63.5908 36.6932 62.4936 37.0644C61.4902 37.404 60.4534 37.7546 59.7438 38.5026C58.7248 39.577 58.5753 41.4151 59.3887 42.873C59.4324 42.9513 59.4045 43.0504 59.326 43.0939C59.3013 43.1077 59.274 43.1142 59.2473 43.1142Z" fill="black"/>
<path d="M66.7845 44.1415C66.0409 44.1415 65.2876 43.9642 64.6108 43.6188C64.4121 43.5175 64.2194 43.402 64.033 43.2903C63.7142 43.0992 63.4131 42.919 63.0814 42.8001C62.6426 42.6431 61.9908 42.5965 61.5979 42.9819C61.5339 43.0447 61.4312 43.0437 61.3683 42.9798C61.3054 42.9158 61.3064 42.8129 61.3705 42.7502C61.8698 42.2598 62.6381 42.2966 63.1907 42.4945C63.5525 42.6241 63.8816 42.8211 64.1996 43.0118C64.3813 43.1207 64.5692 43.2334 64.758 43.3297C65.7264 43.8236 66.8614 43.949 67.8716 43.6743C68.9105 43.3917 69.8211 42.673 70.3071 41.7519C70.3491 41.6727 70.4475 41.6421 70.5267 41.6842C70.606 41.726 70.6364 41.8242 70.5946 41.9036C70.067 42.9028 69.0812 43.6819 67.957 43.9877C67.578 44.0908 67.1826 44.1415 66.7845 44.1415Z" fill="black"/>
<path d="M74.188 46.1357C74.1372 46.1357 74.0873 46.112 74.0555 46.0676C74.0034 45.9946 74.0205 45.8931 74.0935 45.8411C75.1313 45.1011 75.6999 43.8799 75.6146 42.5748C75.5381 41.4047 74.9447 40.3639 74.0029 39.7154C73.9955 39.7232 73.9871 39.7301 73.9782 39.7364C73.9042 39.7872 73.803 39.7689 73.7524 39.6951L73.5765 39.44C73.534 39.3784 73.5392 39.2958 73.5891 39.2398C73.6389 39.1838 73.7208 39.1695 73.7865 39.2045C75.041 39.8723 75.8456 41.1241 75.9389 42.5536C76.0316 43.9718 75.4122 45.2996 74.2823 46.1054C74.2534 46.1259 74.2206 46.1357 74.188 46.1357Z" fill="black"/>
<path d="M65.4925 51.9615C64.8531 51.9615 64.2501 51.7036 63.7908 51.2325C63.3263 50.7562 63.0644 50.1186 63.0531 49.4365C63.0297 48.0225 64.1038 46.8539 65.4471 46.8317C65.4602 46.8315 65.473 46.8315 65.4859 46.8315C66.8119 46.8315 67.9026 47.9559 67.926 49.3563C67.9492 50.7704 66.8753 51.9393 65.532 51.9615C65.5186 51.9615 65.5056 51.9615 65.4925 51.9615ZM65.4858 47.4055C65.476 47.4055 65.4664 47.4055 65.4567 47.4058C64.4298 47.4226 63.6091 48.3295 63.6272 49.4269C63.636 49.9617 63.8401 50.4607 64.2019 50.8316C64.5591 51.1979 65.0277 51.4079 65.5224 51.387C66.5493 51.3702 67.37 50.4632 67.3519 49.3656C67.3339 48.2784 66.4993 47.4055 65.4858 47.4055Z" fill="#515959"/>
<path d="M70.3817 48.8C69.7423 48.8 69.1393 48.5421 68.68 48.0712C68.2156 47.5949 67.9537 46.9573 67.9423 46.2752C67.931 45.5933 68.1717 44.9472 68.6201 44.4558C69.0729 43.9601 69.6821 43.6811 70.3361 43.6702C70.9936 43.6504 71.6086 43.9184 72.0771 44.399C72.5416 44.875 72.8036 45.513 72.8148 46.1947C72.8382 47.6089 71.7641 48.7776 70.4208 48.7998C70.4079 48.8 70.3946 48.8 70.3817 48.8ZM70.3753 44.244C70.3655 44.244 70.3556 44.244 70.3458 44.2442C69.8516 44.2522 69.3893 44.4651 69.0443 44.843C68.6949 45.2256 68.5075 45.731 68.5164 46.2658C68.5253 46.8006 68.7294 47.2994 69.0909 47.6702C69.4481 48.0366 69.9182 48.2365 70.4114 48.2255C71.4383 48.2087 72.259 47.3017 72.2409 46.2041C72.2321 45.6693 72.028 45.1707 71.6664 44.7998C71.3162 44.4407 70.8588 44.244 70.3753 44.244Z" fill="#515959"/>
<path d="M67.485 48.4694C67.3991 48.4694 67.3273 48.402 67.3229 48.3152C67.3005 47.8687 67.4234 47.4978 67.6691 47.271C67.8392 47.1138 68.0924 47.0383 68.3293 47.0738C68.5298 47.1039 68.6916 47.2085 68.7845 47.368C68.8296 47.4455 68.8033 47.5449 68.7258 47.5901C68.6483 47.6353 68.549 47.6088 68.5038 47.5314C68.4468 47.4333 68.3399 47.4038 68.2812 47.3951C68.1416 47.3742 67.9878 47.4191 67.8896 47.5097C67.6553 47.7261 67.6375 48.0972 67.6475 48.2991C67.6521 48.3887 67.583 48.465 67.4934 48.4694C67.4905 48.4694 67.4877 48.4694 67.485 48.4694Z" fill="black"/>
<path d="M68.9576 56.354C69.1272 56.2769 69.2654 56.4201 69.507 56.5462C69.776 56.6866 70.064 56.7937 70.3321 56.9371C70.7845 57.1785 71.2352 57.4233 71.6841 57.6712C71.7251 57.6938 71.7683 57.7188 71.7892 57.7609C71.8131 57.8088 71.8018 57.8661 71.7899 57.9184C71.6676 58.4577 71.5404 58.9962 71.423 59.5365C71.396 59.6609 71.209 60.8352 71.185 60.825C70.1726 60.3889 69.218 59.8432 68.3692 59.1478C68.2638 59.0614 67.0619 58.1536 67.1404 58.0845C67.4953 57.7723 67.8768 57.4903 68.2118 57.1555C68.4161 56.9512 68.5985 56.7167 68.7859 56.4969C68.8491 56.4233 68.905 56.3781 68.9576 56.354Z" fill="white"/>
<path d="M76.409 58.5915C76.3885 57.7213 76.3984 56.8616 76.4863 55.9855C76.541 55.4394 76.6153 54.8954 76.7087 54.3547C76.8111 53.762 76.8691 53.1577 76.9572 52.5618C76.4714 52.8183 75.9857 53.075 75.4998 53.3314C75.1678 53.5066 74.6764 53.7608 74.5649 54.1401C74.401 54.6984 74.2371 55.2569 74.0732 55.8154C73.9777 56.141 73.8706 56.4564 73.8008 56.7889C73.7948 56.8175 73.7892 56.8489 73.803 56.8748C73.8155 56.898 73.8408 56.911 73.8645 56.9224C74.3865 57.1743 74.6056 57.5327 75.0076 57.9281C75.4343 58.3477 75.9099 58.7177 76.4219 59.0276C76.4167 58.8818 76.4124 58.7366 76.409 58.5915Z" fill="white"/>
<path d="M82.9581 76.2371C88.1039 82.0458 91.8181 88.9846 95.676 95.677C96.0346 96.2989 96.6392 97.194 96.461 97.9459C96.4047 98.1832 94.8645 99.5631 94.8629 99.5604C91.7742 94.7005 89.5038 89.6675 85.9407 85.0488C83.2086 81.5074 80.3669 77.9734 77.2682 74.7429C72.265 69.5267 66.2378 65.309 59.3906 63.1465C58.9325 63.0017 58.525 62.8291 58.0483 62.7472C58.2146 61.9703 58.6795 61.2271 59.2764 60.6669C59.4215 60.5308 59.5826 60.4003 59.7754 60.3509C60.0114 60.2907 60.2591 60.36 60.4928 60.4289C68.8539 62.8942 75.237 68.3185 81.2223 74.3796C81.8191 74.9841 82.3971 75.6038 82.9581 76.2371Z" fill="#3F241D"/>
<path opacity="0.58" d="M56.3174 104.674C54.0793 107.942 51.3951 115.38 50.3984 117.842C49.4014 120.303 48.3075 121.788 48.5418 122.765C48.7764 123.742 52.4102 123.312 54.3247 119.092C56.2394 114.872 56.9037 112.57 62.6866 108.427C68.4691 104.283 60.1324 99.1043 56.3174 104.674Z" fill="black"/>
<path opacity="0.58" d="M106.809 120.325C106.555 118.131 99.6345 107.536 97.264 104.667C94.8932 101.797 93.0843 99.863 92.086 100.736C91.0877 101.61 95.1602 107.224 96.4929 112.028C97.8254 116.832 99.4474 122.384 101.693 122.82C103.939 123.257 107.495 126.252 106.809 120.325Z" fill="black"/>
<path opacity="0.46" d="M66.2539 84.9019C66.0456 78.2856 62.9719 80.7341 63.7531 74.2742C64.5345 67.8141 63.2843 69.5854 60.6273 74.0126C57.9704 78.4398 57.3973 78.1814 54.5842 84.7455C51.7709 91.3097 53.8549 86.4126 47.8116 93.2373C46.2271 95.0267 45.0469 95.9455 44.1631 96.3355C44.2367 96.405 44.306 96.4783 44.3865 96.5421C44.7673 96.8446 45.2068 97.0626 45.6427 97.2783C46.704 97.8034 47.7705 98.3307 48.9 98.6865C49.295 98.8109 49.6973 98.9144 50.0924 99.0385C50.0744 99.0126 50.0566 98.9866 50.0371 98.9618C50.9039 99.1422 51.1075 98.3871 51.3814 97.759C51.7364 96.9441 52.1319 96.136 52.5604 95.3572C53.2502 94.1038 53.9978 92.876 54.5334 91.5452C54.8333 90.8001 55.064 90.0279 55.3874 89.2928C55.6776 88.6329 56.0402 88.0078 56.402 87.3845C57.0449 86.2766 57.6854 85.1673 58.3305 84.0608C58.6711 83.4766 59.1141 82.2767 59.8531 82.1295C60.2052 82.0593 60.5712 82.2418 60.8065 82.5128C61.0421 82.7838 61.1687 83.1311 61.2699 83.4754C61.8901 85.5846 61.4383 87.6099 61.2942 89.7394C61.2884 89.8245 61.2823 89.9116 61.2487 89.9899C61.209 90.0831 61.1347 90.1557 61.0733 90.2361C59.8478 91.8392 63.1054 92.1178 63.8903 92.3621C65.336 92.8123 66.8536 93.0591 68.3528 93.2457C69.2222 93.3541 70.0979 93.4367 70.9734 93.4051C72.0788 93.3651 73.1684 93.1435 74.2521 92.9229C74.983 92.774 75.7194 92.6317 76.4571 92.4892C72.4302 92.8029 66.4331 90.5889 66.2539 84.9019Z" fill="#E92D29"/>
<path d="M76.7557 70.9454C76.7305 70.7305 76.7032 70.5157 76.6751 70.301C76.1583 70.1334 75.8374 70.0413 75.8374 70.0413C75.8374 70.0413 76.2086 70.3995 76.7557 70.9454Z" fill="#E92D29"/>
<path d="M27.0273 85.8268H33.1609L33.1221 83.1483L27.1439 82.9541L27.0273 85.8268Z" fill="#B0872F"/>
<path d="M41.1189 76.8607C41.1169 76.8607 41.1151 76.8607 41.1129 76.8607C40.9928 76.8573 40.898 76.7575 40.9012 76.6373C40.9026 76.5852 41.0036 71.3913 37.8401 68.1663C36.1618 66.4552 33.8601 65.5881 30.9983 65.5881C30.9631 65.5881 30.9282 65.5883 30.8932 65.5884C27.9127 65.6105 25.5605 66.5181 23.9019 68.2862C20.9469 71.4364 21.1856 76.296 21.1883 76.3448C21.195 76.4648 21.1032 76.5675 20.9834 76.5742C20.8622 76.58 20.7604 76.4892 20.7537 76.3693C20.7421 76.1627 20.5031 71.2733 23.5845 67.9885C25.3279 66.1299 27.7857 65.176 30.89 65.1532C33.927 65.1327 36.3681 66.0429 38.153 67.8637C41.4458 71.2231 41.3424 76.429 41.3363 76.6491C41.3331 76.7672 41.2363 76.8607 41.1189 76.8607Z" fill="#B0872F"/>
<path d="M31.763 67.8813L29.6668 68.9398C29.6668 68.9398 28.9291 75.8111 25.5518 78.1402L27.1435 82.9539L33.1217 83.1481C33.1217 83.1481 35.2568 78.9554 35.2568 78.4896C35.2568 78.4896 31.4137 71.5976 31.763 67.8813ZM31.5107 79.023C31.4574 79.7476 30.9246 80.0786 30.3813 80.0778C29.8907 80.0771 29.3016 79.7205 29.2946 78.9381C29.2878 78.2029 29.8591 77.7977 30.3813 77.7977C31.1059 77.7976 31.5593 78.3611 31.5107 79.023Z" fill="#D1A53D"/>
<path d="M41.12 65.5886H30.8919L20.9644 65.5839C20.8442 65.5839 20.7469 65.4864 20.7471 65.3662C20.7471 65.246 20.8446 65.1487 20.9646 65.1487L30.8919 65.1534H41.12C41.2402 65.1534 41.3376 65.2509 41.3376 65.3709C41.3376 65.491 41.2401 65.5886 41.12 65.5886Z" fill="#B0872F"/>
<path d="M30.3817 78.0156C30.3794 78.0156 30.3772 78.0156 30.3748 78.0156C30.2546 78.0119 30.1603 77.9113 30.1642 77.7913L30.457 68.4246C30.4606 68.3046 30.5588 68.2103 30.6811 68.214C30.8014 68.2178 30.8957 68.3182 30.8918 68.4382L30.5989 77.8049C30.5954 77.9224 30.4987 78.0156 30.3817 78.0156Z" fill="white"/>
<path d="M39.4399 75.7651H42.3223L42.1476 77.9488L39.6146 77.6867L39.4399 75.7651Z" fill="#8B672A"/>
<path d="M19.7871 75.7651H22.6696L22.4948 77.9488L19.962 77.6867L19.7871 75.7651Z" fill="#8B672A"/>
<path d="M29.4507 64.2744H32.3332L32.1585 66.4581L29.6255 66.196L29.4507 64.2744Z" fill="#8B672A"/>
<path d="M20.9485 64.5918C21.4434 64.5916 21.7533 64.9766 21.7202 65.4288C21.6837 65.9238 21.3199 66.15 20.9485 66.1494C20.6134 66.1489 20.211 65.9053 20.2061 65.3708C20.2016 64.8685 20.5919 64.5918 20.9485 64.5918Z" fill="#8B672A"/>
<path d="M41.1043 64.5906C41.5992 64.5904 41.909 64.9754 41.8758 65.4276C41.8394 65.9226 41.4755 66.1488 41.1043 66.1482C40.769 66.1477 40.3667 65.9041 40.3619 65.3696C40.3572 64.8673 40.7475 64.5906 41.1043 64.5906Z" fill="#8B672A"/>
<path d="M142.613 160H15.6968C15.1202 160 14.6528 159.532 14.6528 158.956C14.6528 158.379 15.1204 157.912 15.6968 157.912H142.613C143.19 157.912 143.657 158.379 143.657 158.956C143.657 159.532 143.189 160 142.613 160Z" fill="#8B672A"/>
<path d="M99.6255 10.7946C99.2886 10.5175 97.2677 9.12907 97.1231 8.9623C96.9787 8.79536 103.157 4.09866 103.157 4.09866L115.162 0.420253L116.924 0.0625L111.383 4.25837C111.383 4.25837 104.691 8.69297 104.445 8.88597C104.199 9.0788 99.6255 10.7946 99.6255 10.7946Z" fill="#D1A53D"/>
<path d="M99.6255 10.7946C99.2886 10.5175 97.2677 9.12907 97.1231 8.9623C96.9787 8.79536 103.157 4.09866 103.157 4.09866L115.162 0.420253L116.924 0.0625L111.383 4.25837C111.383 4.25837 104.691 8.69297 104.445 8.88597C104.199 9.0788 99.6255 10.7946 99.6255 10.7946Z" fill="#D1A53D"/>
<path d="M97.3094 18.8285C97.3094 18.8285 97.2554 11.2732 97.56 10.9026C97.8648 10.5321 116.546 0.315772 116.924 0.0620824C117.303 -0.191439 97.3094 18.8285 97.3094 18.8285Z" fill="#D1A53D"/>
<path d="M97.1234 8.9622C96.9093 9.00289 94.1432 3.17913 94.4818 2.83634C94.8202 2.49355 117.856 -0.46313 116.924 0.0624048C115.993 0.587604 97.458 8.89865 97.1234 8.9622Z" fill="#D1A53D"/>
<path d="M79.5333 14.77C81.9028 16.0266 84.8759 15.9918 87.1616 14.551C88.3032 13.8314 89.2357 12.8009 89.8624 11.6079C90.4621 10.4667 91.069 8.69563 90.5279 7.43273C89.9941 6.18731 88.3309 5.85965 87.1968 6.41225C85.9756 7.00739 85.2865 8.34829 85.1015 9.64767C84.7312 12.2501 86.2718 14.9242 88.8768 15.5839C92.4046 16.4771 95.2425 13.2647 95.2784 9.91481C95.2804 9.72097 95.5821 9.70214 95.5801 9.89682C95.5468 13.0119 93.2041 16.2086 89.8562 16.0355C86.9465 15.8848 84.8082 13.4108 84.7476 10.555C84.7179 9.15307 85.1891 7.66574 86.2449 6.70142C87.1761 5.85091 88.5155 5.57923 89.6671 6.14932C90.9977 6.808 91.1423 8.23061 90.8955 9.55386C90.6165 11.0503 89.8803 12.4574 88.8349 13.5614C86.4128 16.1197 82.4893 16.6797 79.3963 15.0395C79.225 14.9486 79.3612 14.6788 79.5333 14.77Z" fill="#B0872F"/>
<path d="M111.353 82.6046C118.308 82.6046 123.945 76.9668 123.945 70.0123C123.945 63.0577 118.308 57.4199 111.353 57.4199C104.399 57.4199 98.7607 63.0577 98.7607 70.0123C98.7607 76.9668 104.399 82.6046 111.353 82.6046Z" stroke="#D1A53D" stroke-width="2.3693" stroke-miterlimit="10" stroke-dasharray="9.41 9.41"/>
<path d="M111.354 70.0122L130.837 50.5286" stroke="#D1A53D" stroke-width="2.3693" stroke-miterlimit="10" stroke-dasharray="9.48 9.48"/>
<path d="M111.354 70.0122H138.907" stroke="#D1A53D" stroke-width="2.3693" stroke-miterlimit="10" stroke-dasharray="9.48 9.48"/>
<path d="M44.7918 35.7822L35.2339 26.1265L25.5781 35.6844L35.1361 45.3401L44.7918 35.7822Z" stroke="#D1A53D" stroke-width="1.8659" stroke-miterlimit="10" stroke-dasharray="7.46 7.46"/>
<path d="M35.2363 26.127L41.5897 26.1591L50.9425 35.6066" stroke="#D1A53D" stroke-width="1.8659" stroke-miterlimit="10" stroke-dasharray="7.46 7.46"/>
<path d="M35.1396 45.3404L41.493 45.3725L51.1481 35.8142L44.7948 35.7822" stroke="#D1A53D" stroke-width="1.8659" stroke-miterlimit="10" stroke-dasharray="7.46 7.46"/>
</svg>
