<svg width="32" height="32" viewBox="0 0 32 32" fill="none" xmlns="http://www.w3.org/2000/svg">
<path d="M22.0373 32H9.96344V29.5349H14.7668V27.0115H3.14707C1.41614 27.0115 0 25.5956 0 23.8663V8.47795C0 6.75167 1.41917 5.3327 3.14707 5.3327H8.869V7.79783H3.14707C2.76953 7.79783 2.46659 8.10121 2.46659 8.47792V23.8663C2.46659 24.2415 2.77257 24.5464 3.14707 24.5464H28.8529C29.2247 24.5464 29.5334 24.2378 29.5334 23.8663V8.47792C29.5334 8.10393 29.228 7.79783 28.8529 7.79783H23.131V5.3327H28.8529C30.5832 5.3327 32 6.74864 32 8.47795V23.8663C32 25.5986 30.5866 27.0115 28.8529 27.0115H17.2332V29.5349H22.0366V32H22.0373ZM17.3807 6.30749V17.4829C17.3807 19.2974 14.6203 19.2974 14.6203 17.4829V6.30594L12.4318 6.30503C11.5163 6.30563 10.9932 5.21549 11.6082 4.50543L15.1659 0.387332C15.5952 -0.121824 16.3834 -0.132128 16.8228 0.374906L20.3365 4.44241C21.0188 5.11917 20.5491 6.30874 19.5675 6.30874L17.3805 6.30783L17.3807 6.30749Z" fill="white"/>
</svg>
