<svg width="72" height="72" viewBox="0 0 72 72" fill="none" xmlns="http://www.w3.org/2000/svg">
<circle cx="36" cy="36" r="36" fill="#BE202F"/>
<path d="M54 32C54 46 36 58 36 58C36 58 18 46 18 32C18 27.2261 19.8964 22.6477 23.2721 19.2721C26.6477 15.8964 31.2261 14 36 14C40.7739 14 45.3523 15.8964 48.7279 19.2721C52.1036 22.6477 54 27.2261 54 32Z" stroke="white" stroke-width="3" stroke-linecap="round" stroke-linejoin="round"/>
<path d="M36 38C39.3137 38 42 35.3137 42 32C42 28.6863 39.3137 26 36 26C32.6863 26 30 28.6863 30 32C30 35.3137 32.6863 38 36 38Z" stroke="white" stroke-width="3" stroke-linecap="round" stroke-linejoin="round"/>
</svg>
