<svg width="250" height="250" viewBox="0 0 250 250" fill="none" xmlns="http://www.w3.org/2000/svg">
<path opacity="0.3" d="M139.225 111.507H87.9588C83.9088 111.507 80.625 108.223 80.625 104.173V52.907C80.625 48.857 83.9088 45.5732 87.9588 45.5732H139.225C143.275 45.5732 146.559 48.857 146.559 52.907V104.173C146.557 108.223 143.275 111.507 139.225 111.507Z" fill="#D1A53D"/>
<path d="M128.854 96.4956H98.3281V98.0031H128.854V96.4956Z" fill="#D1A53D"/>
<path d="M124.531 101.248H102.652V102.756H124.531V101.248Z" fill="#D1A53D"/>
<path opacity="0.3" d="M241.348 174.358H168.39C163.619 174.358 159.75 170.491 159.75 165.718V77.0807C159.75 72.3094 163.617 68.4407 168.39 68.4407H241.348C246.119 68.4407 249.988 72.3082 249.988 77.0807V165.719C249.986 170.491 246.119 174.358 241.348 174.358Z" fill="#D1A53D"/>
<path d="M207.822 130.926H200.664V132.251H207.822V130.926Z" fill="#D1A53D"/>
<path d="M215.137 143.072H173.492V145.638H215.137V143.072Z" fill="#D1A53D"/>
<path d="M207.168 155.392H173.492V157.958H207.168V155.392Z" fill="#D1A53D"/>
<path d="M193.235 149.232H173.492V151.798H193.235V149.232Z" fill="#D1A53D"/>
<path d="M226.035 79.0032V80.2994H233.666V87.4619H234.962V79.0032H226.035ZM174.211 87.4619H175.507V80.2994H183.138V79.0032H174.211V87.4619ZM233.667 124.419V131.584H226.036V132.881H234.963V124.419H233.667ZM175.507 124.419H174.211V132.881H183.138V131.584H175.507V124.419Z" fill="#D1A53D"/>
<path d="M230.922 158.147C226.713 158.147 223.289 154.723 223.289 150.514C223.289 146.306 226.713 142.882 230.922 142.882C235.13 142.882 238.554 146.306 238.554 150.514C238.554 154.723 235.13 158.147 230.922 158.147ZM230.922 144.361C227.528 144.361 224.767 147.122 224.767 150.516C224.767 153.909 227.528 156.671 230.922 156.671C234.315 156.671 237.077 153.909 237.077 150.516C237.077 147.121 234.315 144.361 230.922 144.361Z" fill="#D1A53D"/>
<path d="M230.436 153.519L226.969 150.052L228.013 149.007L230.436 151.429L233.833 148.033L234.876 149.078L230.436 153.519Z" fill="#D1A53D"/>
<path opacity="0.2" d="M125 237.214C194.036 237.214 250 234.619 250 231.418C250 228.217 194.036 225.622 125 225.622C55.9644 225.622 0 228.217 0 231.418C0 234.619 55.9644 237.214 125 237.214Z" fill="#D1A53D"/>
<path opacity="0.1" d="M135.812 48.0393H91.3711V86.1693H135.812V48.0393Z" fill="#D1A53D"/>
<path d="M130.567 71.2519C129.104 67.3807 125.587 65.6019 123.927 65.0482C123.336 64.8519 122.281 64.5069 121.169 64.1469C119.164 63.4994 116.974 62.7944 116.974 62.7944H110.057C110.057 62.7944 107.662 63.5969 105.117 64.4894C105.117 64.4919 105.115 64.4919 105.115 64.4919C102.77 65.3144 100.301 66.2107 99.4673 66.6294C97.7286 67.4969 94.8036 73.7032 94.2124 74.4144C93.9074 74.7807 92.5498 77.1982 91.2148 79.8982H98.6661C99.4536 78.5457 100.06 77.4969 100.06 77.4969C100.06 77.4969 100.531 78.5307 101.102 79.8982H124.974C125.351 78.3107 125.586 76.3094 125.586 76.3094C125.586 76.3094 126.865 78.0482 128.26 79.8982H135.14C133.469 77.0907 131.392 73.4369 130.567 71.2519Z" fill="#BE202F"/>
<path d="M114.339 43.788C114.339 43.788 119.748 44.6405 118.924 53.1018C118.1 61.563 113.327 60.8705 113.007 60.8618C112.689 60.853 108.216 61.0155 107.867 50.6843C107.867 50.6843 107.715 43.0443 114.339 43.788Z" fill="#FEBBBA"/>
<path d="M119.009 50.7118C119.009 50.7118 119.602 50.0793 119.819 50.7193C120.037 51.3593 119.012 54.2155 118.974 54.3493C118.974 54.3493 118.866 54.598 118.724 54.4605C118.582 54.3243 119.009 50.7118 119.009 50.7118Z" fill="#FEBBBA"/>
<path d="M108.013 50.6043C108.013 50.6043 107.433 49.9605 107.203 50.5968C106.973 51.233 107.935 54.108 107.978 54.243C107.978 54.243 108.082 54.493 108.226 54.3593C108.371 54.2243 108.013 50.6043 108.013 50.6043Z" fill="#FEBBBA"/>
<path d="M119.008 52.0094L118.234 53.0444C118.234 53.0444 118.255 50.7744 118.132 50.4194C118.008 50.0631 117.818 48.9769 117.713 48.7206C117.609 48.4644 113.069 47.1919 109.058 49.0919C109.058 49.0919 109.234 50.7231 108.85 50.8694C108.467 51.0144 108.654 53.5269 108.654 53.5269L108.018 52.8081C108.018 52.8081 107.044 46.2981 107.284 45.6194C107.524 44.9406 108.292 40.8619 116.519 43.2831C116.519 43.2831 119.084 42.7394 119.599 44.5106C120.114 46.2819 119.008 52.0094 119.008 52.0094Z" fill="black"/>
<path d="M117.646 62.6419C117.643 62.6344 116.952 62.3007 116.952 62.3007C116.614 61.5469 116.866 58.3681 116.866 58.3681C116.866 58.3681 109.977 56.6144 110.174 57.9556C110.372 59.2969 109.581 62.4106 109.581 62.4106L106.047 64.1657C106.047 64.1657 109.812 74.2757 114.139 72.9707C118.467 71.6669 120.101 63.8007 120.101 63.8007L117.646 62.6419Z" fill="#FEBBBA"/>
<path d="M110.273 59.4457C110.273 59.4457 111.383 60.8782 113.31 60.8782C114.577 60.8782 115.486 60.5232 116.748 59.292C116.748 59.292 116.201 61.6295 113.318 61.847C113.317 61.847 111.227 62.1132 110.273 59.4457Z" fill="#E48E8D"/>
<path d="M87.3815 107.141C87.3815 107.141 91.3552 109.084 90.3727 114.373C89.3902 119.662 88.9552 120.374 90.054 122.441C91.1527 124.507 92.4502 133.322 91.4602 134.993C90.4715 136.664 79.2152 127.651 77.6552 120.089C76.094 112.527 78.644 109.164 79.5452 107.911C80.4465 106.657 83.8727 105.359 87.3815 107.141Z" fill="black"/>
<path d="M87.0603 225.211L86.783 225.627C87.0603 225.211 87.0604 225.211 87.0605 225.211L87.0607 225.211L87.0612 225.211L87.0628 225.212L87.0677 225.216L87.0851 225.228C87.0999 225.238 87.1211 225.252 87.1481 225.271C87.202 225.309 87.279 225.364 87.3744 225.435C87.565 225.576 87.8299 225.782 88.1304 226.04C88.7277 226.552 89.4825 227.287 90.0713 228.152C90.5463 228.85 91.0859 229.152 91.7746 229.285C92.46 229.417 93.2757 229.379 94.3439 229.33C94.4242 229.326 94.5059 229.322 94.5891 229.319L94.5894 229.319C95.73 229.268 96.0343 229.014 96.1321 228.845C96.1885 228.747 96.2234 228.605 96.2211 228.377C96.2187 228.145 96.1797 227.876 96.1266 227.541L96.1265 227.541C96.0982 227.361 95.9948 227.187 95.7927 227.011C95.5872 226.833 95.3036 226.676 94.9739 226.539C94.4641 226.328 93.9305 226.197 93.516 226.095C93.3849 226.063 93.2657 226.033 93.1629 226.006C92.9609 225.951 92.7829 225.824 92.6439 225.707C92.4958 225.581 92.3449 225.424 92.197 225.254C91.9007 224.913 91.5833 224.48 91.2815 224.045C90.9952 223.632 90.7152 223.204 90.4731 222.835C90.459 222.814 90.445 222.792 90.4311 222.771C90.1739 222.379 89.9737 222.076 89.8486 221.912C89.8486 221.912 89.8486 221.912 89.8485 221.912L90.2455 221.608C89.4867 220.618 89.0855 219.668 89.0855 219.668L88.6249 219.863L88.6093 219.826L88.6009 219.792C88.6008 219.791 88.6007 219.791 88.6006 219.79C88.5993 219.786 88.5964 219.777 88.5918 219.764C88.5825 219.738 88.5669 219.699 88.5438 219.656C88.4953 219.566 88.4296 219.485 88.3478 219.437C88.2498 219.38 87.8444 219.214 86.8219 220.054L87.0603 225.211ZM87.0603 225.211L86.283 224.693V225.627V228.863M87.0603 225.211L86.283 228.863M86.283 228.863C86.2434 228.484 86.1941 228.029 86.1399 227.567C86.0725 226.993 85.9967 226.403 85.922 225.934C85.8848 225.701 85.8465 225.49 85.8083 225.323C85.7893 225.24 85.7684 225.16 85.7451 225.09C85.7293 225.042 85.6974 224.949 85.6384 224.863C85.6378 224.862 85.6373 224.861 85.6366 224.859C85.6281 224.838 85.6157 224.803 85.6011 224.752C85.572 224.65 85.5403 224.507 85.5133 224.328C85.4593 223.972 85.4279 223.501 85.466 222.987C85.5428 221.951 85.8947 220.817 86.8217 220.054L86.283 228.863ZM85.643 224.873C85.643 224.873 85.6426 224.873 85.6418 224.871C85.6426 224.872 85.643 224.873 85.643 224.873ZM94.6117 229.818C96.9329 229.714 96.8292 228.779 96.6204 227.463L94.6117 229.818Z" fill="black" stroke="black"/>
<path d="M90.422 225.522C91.2183 226.042 93.297 225.522 93.297 225.522C92.7083 224.759 89.0883 219.668 89.0883 219.668C86.8883 218.387 86.0195 220.151 86.0195 220.151C86.917 220.424 89.6258 225.002 90.422 225.522Z" fill="#FEBBBA"/>
<path d="M113.583 147.157C113.583 147.157 115.025 147.433 115.518 146.756C115.936 146.179 116.894 145.737 117.189 145.601C117.583 145.418 118.584 144.406 118.819 144.901C119.054 145.396 117.25 146.648 116.924 146.987C116.598 147.326 118.693 147.474 119.055 147.804C119.416 148.133 118.971 151.589 117.546 151.32C116.12 151.052 114.774 149.823 114.514 149.826C114.254 149.828 113.469 149.671 113.469 149.671L113.583 147.157Z" fill="#FEBBBA"/>
<path d="M118.736 147.662C118.736 147.662 123.047 148.776 123.272 149.091C123.497 149.406 123.423 149.636 123.016 149.548C122.608 149.461 118.82 148.592 118.82 148.592C118.82 148.592 123.701 150.768 123.942 150.986C124.083 151.113 123.966 151.567 123.743 151.541C123.521 151.514 118.56 149.634 118.56 149.634C118.56 149.634 123.113 151.674 123.261 151.916C123.39 152.127 123.177 152.517 122.83 152.389C122.482 152.262 118.148 150.607 118.148 150.607C118.148 150.607 121.37 152.299 121.373 152.578C121.376 152.748 121.292 153.146 120.475 152.682C119.657 152.219 117.613 151.329 117.613 151.329L118.736 147.662Z" fill="#FEBBBA"/>
<path d="M74.7642 227.047L75.1226 226.698L74.4898 226.048C74.4633 225.741 74.4416 225.367 74.4702 224.963C74.5182 224.285 74.7031 223.694 75.1221 223.356C75.5954 222.974 76.1424 222.856 76.5932 222.84C76.8171 222.832 77.0097 222.85 77.1447 222.869C77.1529 222.871 77.1608 222.872 77.1684 222.873C77.2335 222.968 77.3235 223.1 77.4326 223.258C77.6662 223.596 77.9876 224.056 78.3388 224.542C78.6896 225.028 79.0723 225.544 79.428 225.992C79.7772 226.432 80.1212 226.835 80.3908 227.074L80.4617 227.137L80.5501 227.17C80.55 227.17 80.55 227.17 80.5501 227.17L80.5504 227.17L80.5506 227.17L80.5508 227.17L80.5524 227.171L80.5652 227.176C80.5773 227.18 80.5964 227.188 80.6215 227.198C80.6718 227.219 80.7459 227.251 80.8363 227.294C81.0182 227.381 81.2606 227.509 81.5064 227.677C82.0218 228.029 82.4413 228.477 82.5142 228.989C82.5657 229.35 82.5963 229.644 82.5859 229.891C82.5757 230.134 82.5271 230.294 82.4509 230.407C82.3076 230.622 81.9168 230.88 80.709 230.913C79.4994 230.947 78.5591 230.852 77.8838 230.598C77.2345 230.355 76.851 229.975 76.6791 229.406C76.4348 228.597 76.0474 227.924 75.7254 227.456C75.5636 227.222 75.4163 227.036 75.308 226.907C75.2539 226.842 75.2093 226.792 75.1774 226.757C75.1615 226.74 75.1487 226.726 75.1394 226.716L75.1282 226.704L75.1247 226.7L75.1235 226.699L75.123 226.699L75.1228 226.699C75.1227 226.698 75.1226 226.698 74.7642 227.047ZM74.2642 226.582L74.5358 226.565C74.5358 226.565 74.5358 226.565 74.5358 226.565C74.5358 226.565 74.5358 226.564 74.5357 226.564L74.2642 226.581V226.582ZM77.3394 222.906L77.3392 222.905L77.3394 222.906Z" fill="black" stroke="black"/>
<path d="M75.911 155.892C75.911 155.892 72.9798 159.702 72.1848 164.223C71.3898 168.744 72.6548 183.917 72.6198 186.152C72.5848 188.387 70.506 193.947 70.9223 198.156C71.3385 202.364 72.9785 223.313 72.9785 223.313L77.4698 222.422C77.4698 222.422 77.2098 201.066 77.4698 199.298C77.7298 197.531 78.251 191.092 78.3548 190.364C78.4585 189.637 84.9523 170.534 84.9523 167.276C84.9523 164.016 82.9773 150.574 75.911 155.892Z" fill="#515959"/>
<path d="M90.6323 157.382C90.6323 157.382 95.4473 175.759 96.0185 178.306C96.5898 180.852 97.4185 182.952 97.4185 184.033C97.4185 186.542 96.486 190.569 96.486 190.569L90.371 219.813H84.5473C84.5473 219.813 87.7923 202.268 87.8798 198.838C87.9673 195.399 90.6136 190.517 90.0948 189.062C89.5748 187.607 81.7286 170.823 81.7286 170.823C81.7286 170.823 75.7886 152.047 90.6323 157.382Z" fill="#515959"/>
<path d="M80.7236 226.699L77.4673 222.421L74.8086 222.966C74.8086 222.966 75.5236 224.881 76.8161 226.321C78.3474 228.028 80.7236 226.699 80.7236 226.699Z" fill="#FEBBBA"/>
<path d="M88.6424 126.151C88.6424 126.151 90.6274 126.338 92.1274 127.946C93.6274 129.553 95.0349 132.116 95.4286 132.973C95.8224 133.831 101.329 141.774 101.615 141.953C101.901 142.132 104.669 143.057 106.504 143.674C109.334 144.627 115.009 146.689 115.009 146.689L113.882 150.257C113.882 150.257 103.214 146.766 100.541 146.107C97.2736 145.302 89.7524 135.652 89.7524 135.652C89.7524 135.652 84.1424 129.079 88.6424 126.151Z" fill="#BE202F"/>
<path d="M85.1797 124.758C85.1797 124.758 87.7509 125.972 88.6447 126.151C89.5372 126.329 93.0022 130.829 93.6097 132.472C94.2172 134.114 93.6097 136.579 92.3597 139.472C91.1097 142.364 92.2884 143.329 91.7172 146.222C91.1459 149.114 91.3297 159.938 91.4372 161.544C91.5447 163.152 74.7197 165.588 71.3984 162.659C71.3984 162.659 73.6472 152.906 76.3097 150.122C76.8859 149.519 76.8247 145.508 76.4322 144.508C76.0397 143.508 71.6109 136.043 71.6109 136.043C71.6109 136.043 71.2859 128.472 73.2184 126.972C74.8972 125.668 79.4722 125.203 80.2934 124.918C81.1109 124.633 83.5009 124.508 85.1797 124.758Z" fill="#D1A53D"/>
<path d="M86.4066 121.791C86.4066 121.791 86.3303 122.498 86.2416 123.456C86.2078 123.834 86.1703 124.252 86.1353 124.681C86.0328 125.963 85.9516 127.341 86.0003 128.044C86.0003 128.044 83.3278 130.723 80.2891 124.919C80.2891 124.919 81.5666 122.526 80.6041 119.268C79.6428 116.008 86.4066 121.791 86.4066 121.791Z" fill="#FEBBBA"/>
<path d="M93.8847 140.541C93.8847 140.541 94.5285 136.262 93.8435 133.661C93.8435 133.661 93.8435 135.898 92.6172 139.074L93.8847 140.541Z" fill="#9B0022"/>
<path d="M78.2344 125.33C78.2344 125.33 80.0731 130.759 85.1194 130.36C90.1656 129.96 87.5119 125.777 87.5119 125.777C87.5119 125.777 86.2544 125.055 85.9006 124.988C85.5469 124.92 80.3206 124.854 80.3206 124.854L78.2344 125.33Z" fill="#FEBBBA"/>
<path d="M87.5117 125.776C87.5117 125.776 90.1555 133.087 90.1555 140.539C90.1555 147.992 90.368 160.131 91.2917 163.964C92.2155 167.798 94.8417 179.653 94.8417 179.653L96.9005 178.588C96.9005 178.588 91.9505 159.667 91.5767 158.303C91.203 156.938 91.8605 142.526 92.2155 141.318C92.5705 140.111 94.0805 134.739 93.8455 133.249C93.5492 131.371 91.7917 128.591 88.9517 126.201L87.5117 125.776Z" fill="#BE202F"/>
<path d="M79.2331 125.102C79.2331 125.102 80.8756 130.362 81.7081 137.099C82.5406 143.837 79.1531 175.109 76.8806 182.208L68.0781 180.788C68.0781 180.788 69.9731 158.683 72.5456 154.661C75.1181 150.638 75.9369 147.078 73.1594 138.682C70.3831 130.286 74.3769 126.127 74.3769 126.127C74.3769 126.127 78.4619 125.189 79.2331 125.102Z" fill="#BE202F"/>
<path d="M76.5942 140.981L88.0471 147.594L77.8734 165.214L66.8637 158.858L76.5942 140.981Z" fill="#8B672A" stroke="#8B672A"/>
<path d="M87.442 148.047L77.9633 164.466L67.4258 158.381L76.4933 141.724L87.442 148.047Z" fill="white"/>
<path d="M83.9291 145.603L83.7639 145.889L80.2698 143.872L80.4768 143.609L83.9291 145.603Z" fill="#8B672A" stroke="#8B672A"/>
<path d="M83.4367 159.688C83.4367 159.688 82.9517 159.691 82.7392 159.588C82.7392 159.588 82.3667 159.372 82.0917 159.234C82.0042 159.191 81.928 159.156 81.8755 159.137C81.658 159.062 81.158 158.962 80.6855 158.633C80.2142 158.306 78.543 156.371 78.543 156.371L79.3317 155.171L79.9105 153.942C79.9105 153.942 83.4192 154.168 83.8942 154.423C83.9405 154.448 83.9855 154.474 84.0255 154.503C84.4067 154.757 84.583 155.107 84.768 155.263C84.8355 155.321 85.468 155.941 85.4455 156.204C85.4155 156.571 85.2455 156.812 85.0255 156.932C85.0255 156.932 84.9342 157.646 84.583 157.979C84.583 157.979 84.5205 158.641 83.9642 158.931C83.9655 158.928 83.8267 159.592 83.4367 159.688Z" fill="#FEBBBA"/>
<path d="M76.2055 126.15C76.2055 126.15 72.9643 125.222 71.1068 128.793C69.2493 132.364 69.2593 133.888 69.0105 135.633C68.7755 137.279 67.718 141.776 67.6105 142.241C67.503 142.704 65.1068 148.242 66.2056 150.177C67.3105 152.122 78.528 157.848 78.4568 158.276C78.3855 158.703 80.3993 153.947 80.3993 153.947C80.3993 153.947 75.8593 151.417 75.1168 150.638C73.9093 149.373 71.3618 148.009 71.8855 146.439C72.5005 144.596 74.3468 138.374 74.7755 137.463C75.2055 136.553 78.9368 127.312 76.2055 126.15Z" fill="#BE202F"/>
<path d="M86.8067 107.727C86.8067 107.727 92.5767 109.541 89.4442 119.498C86.3117 129.457 78.4305 118.344 79.2555 112.277C80.0805 106.209 86.8067 107.727 86.8067 107.727Z" fill="#FEBBBA"/>
<path d="M90.0331 113.537C90.0331 113.537 87.1655 116.351 82.3668 116.702C82.3668 116.702 80.523 118.864 80.3805 119.713C80.3805 119.713 76.0993 112.416 81.3618 108.041C86.6256 103.667 91.9681 111.734 90.0331 113.537Z" fill="black"/>
<path d="M82.4248 116.901C82.3873 116.176 81.9411 114.527 80.8636 114.988C79.7861 115.449 80.9299 118.808 81.6436 118.602C81.6449 118.602 82.5123 118.616 82.4248 116.901Z" fill="#FEBBBA"/>
<path d="M86.2417 123.456C86.208 123.834 86.1705 124.252 86.1355 124.681C86.1355 124.681 83.588 124.529 81.8867 120.741C81.998 120.906 83.8642 123.647 86.2417 123.456Z" fill="#FF9A99"/>
<path d="M25.7509 214.522C29.4509 211.919 33.7809 193.787 34.0397 182.986C34.1722 177.453 35.8072 175.148 37.2509 173.114C38.6297 171.171 39.8209 169.492 39.1272 165.637C37.8009 158.271 41.2872 155.091 41.3234 155.059L40.9197 154.599C40.7647 154.736 37.1334 158.016 38.5247 165.746C39.1734 169.347 38.1047 170.853 36.7509 172.761C35.3309 174.762 33.5647 177.252 33.4272 182.972C33.1497 194.563 28.7234 211.684 25.3984 214.022L25.7509 214.522Z" fill="#D1A53D"/>
<path d="M17.9938 209.233C17.645 208.442 17.2825 207.623 16.8738 206.759C14.76 202.298 12.8875 201.563 9.78503 200.346C9.02753 200.048 8.16753 199.711 7.22503 199.287C2.78128 197.289 3.64128 194.347 4.40128 191.751C4.50753 191.387 4.61378 191.026 4.70503 190.667C5.09628 189.139 4.34503 188.373 3.20878 187.214C2.36378 186.352 1.31253 185.279 0.502532 183.586C-0.384968 181.732 0.0675302 180.737 0.60253 180.229C1.73003 179.161 4.32878 179.358 6.78253 180.698C7.54503 181.114 8.17253 181.772 8.83753 182.467C10.4025 184.106 12.3488 186.144 17.2738 186.167C20.0813 186.181 21.62 186.568 22.4163 187.463C23.32 188.479 23.15 189.999 22.9138 192.104C22.8325 192.832 22.74 193.657 22.6838 194.549C22.3488 199.868 25.4888 203.704 25.52 203.742C27.3963 205.976 29.7063 210.609 28.7088 213.462C28.2913 214.658 27.3563 215.409 25.93 215.698C25.3625 215.813 24.8425 215.868 24.365 215.868C20.9213 215.866 19.66 213.009 17.9938 209.233ZM6.49128 181.234C4.30003 180.038 1.95003 179.797 1.02503 180.673C0.322531 181.339 0.65378 182.481 1.05503 183.321C1.82128 184.923 2.79128 185.913 3.64628 186.786C4.83503 187.999 5.77503 188.958 5.29878 190.818C5.20503 191.183 5.09753 191.552 4.99003 191.922C4.23378 194.508 3.52003 196.949 7.47753 198.728C8.40753 199.146 9.25878 199.481 10.01 199.776C13.1413 201.004 15.21 201.817 17.4275 206.497C17.84 207.368 18.2025 208.191 18.5538 208.986C20.4675 213.324 21.6238 215.943 25.8088 215.097C27.0088 214.854 27.79 214.236 28.1313 213.258C29.01 210.744 26.9075 206.344 25.05 204.133C24.9138 203.971 21.7225 200.079 22.0725 194.509C22.13 193.603 22.2225 192.771 22.305 192.036C22.5238 190.088 22.6813 188.682 21.9588 187.869C21.2988 187.127 19.8525 186.791 17.2713 186.778C12.0875 186.754 10.04 184.611 8.39628 182.889C7.73753 182.199 7.17003 181.604 6.49128 181.234Z" fill="#D1A53D"/>
<path d="M25.8636 219.398L26.4748 219.366C26.4448 218.792 25.6736 205.259 20.2398 201.298C14.2786 196.953 12.3986 192.283 11.5036 189.149C10.4486 185.456 5.07985 184.469 4.85235 184.429L4.74609 185.032C4.79859 185.041 9.9661 185.993 10.9148 189.318C11.8348 192.539 13.7648 197.337 19.8786 201.793C25.0798 205.584 25.8561 219.261 25.8636 219.398Z" fill="#D1A53D"/>
<path d="M24.8288 222.442C23.55 221.806 23.5963 219.246 23.6663 215.371C23.755 210.474 23.8763 203.768 21.3125 197.599C18.59 191.047 21.0175 189.132 23.3663 187.279C25.9963 185.206 28.4813 183.246 23.7125 174.402C21.5225 170.341 20.8275 167.593 21.525 165.756C22.2138 163.941 24.1475 163.233 26.1938 162.483C29.7263 161.191 33.7313 159.724 33.2138 152.247C33.055 149.954 33.325 148.544 34.0625 147.811C34.8638 147.013 36.0438 147.099 37.41 147.199C39.475 147.351 41.8138 147.522 43.85 144.863C44.0613 144.199 46.01 138.271 48.34 137.256C48.8288 137.042 49.3088 137.046 49.765 137.263C51.3738 138.032 52.3075 138.944 52.6188 140.053C53.1613 141.979 51.75 144.153 50.115 146.669C47.5475 150.623 44.6363 155.106 47.655 160.439C51.6463 167.492 49.5388 169.959 46.62 173.374C44.9488 175.331 43.0538 177.549 41.7875 181.167C40.7688 184.077 42.5063 186.851 44.1875 189.533C46.295 192.898 48.475 196.378 43.8863 199.398C36.2975 204.391 28.8038 220.687 28.7288 220.851L28.6975 220.918L28.6388 220.964C27.2413 222.061 26.2225 222.583 25.4563 222.583C25.2275 222.584 25.0188 222.537 24.8288 222.442ZM43.5513 198.888C47.6413 196.198 45.8013 193.261 43.6713 189.859C41.9963 187.184 40.0963 184.153 41.2125 180.966C42.5175 177.241 44.4513 174.976 46.1575 172.978C49.0163 169.632 50.905 167.421 47.125 160.742C43.9238 155.086 47.0738 150.234 49.6038 146.338C51.1575 143.947 52.4988 141.881 52.0313 140.222C51.77 139.293 50.9425 138.508 49.5025 137.818C49.2088 137.678 48.9088 137.678 48.5863 137.819C46.425 138.761 44.44 145.037 44.42 145.101L44.4038 145.152L44.3713 145.194C42.1263 148.162 39.4875 147.968 37.3663 147.813C36.0988 147.721 35.0988 147.647 34.495 148.248C33.9013 148.839 33.6825 150.136 33.825 152.208C34.3738 160.144 29.955 161.762 26.405 163.061C24.41 163.791 22.6875 164.421 22.0975 165.976C21.4675 167.634 22.1525 170.221 24.2525 174.114C29.265 183.411 26.46 185.623 23.7463 187.762C21.4763 189.552 19.3338 191.242 21.8788 197.366C24.4913 203.652 24.3688 210.432 24.2788 215.382C24.2175 218.762 24.1688 221.431 25.1013 221.894C25.6475 222.166 26.6913 221.707 28.205 220.529C28.8125 219.211 35.99 203.863 43.5513 198.888Z" fill="#D1A53D"/>
<path d="M12.8527 151.412C16.7152 150.088 15.9127 157.532 17.5439 163.038C19.1752 168.544 35.6977 165.441 28.7627 179.232C21.8277 193.023 37.5339 183.844 32.8427 195.878C28.1514 207.913 32.4352 220.784 27.3352 217.511C22.2352 214.237 24.4702 199.082 19.1664 197.281C13.8627 195.479 12.9977 193.379 18.2489 188.484C23.5002 183.589 4.49017 178.729 9.18142 168.843C13.8727 158.959 8.39142 152.942 12.8527 151.412Z" fill="#D1A53D"/>
<path d="M25.5578 216.721C26.0441 214.661 30.1916 196.529 26.3216 194.338C22.9103 192.407 22.9941 184.893 23.5266 177.799C23.9978 171.519 15.9316 168.584 15.5878 168.462L15.3828 169.038C15.4628 169.067 23.3516 171.939 22.9153 177.753C22.3691 185.039 22.3103 192.771 26.0191 194.871C28.9578 196.534 26.2516 211.106 24.9616 216.581L25.5578 216.721Z" fill="white"/>
<path d="M40.1273 210.266L34.6136 231.184H22.2911L16.7773 210.266H40.1273Z" fill="#8B672A"/>
<path d="M40.1273 210.266C40.1273 210.266 27.9886 212.544 27.9886 231.184H22.2911L16.7773 210.266H40.1273Z" fill="#B0872F"/>
<path opacity="0.3" d="M195.446 61.0345H159.064C155.734 61.0345 153.035 58.3357 153.035 55.0057V23.437C153.035 20.107 155.734 17.4082 159.064 17.4082H195.446C198.776 17.4082 201.475 20.107 201.475 23.437V55.0057C201.476 58.3357 198.776 61.0345 195.446 61.0345Z" fill="#D1A53D"/>
<path d="M178.991 52.7832H175.148V53.4945H178.991V52.7832Z" fill="#D1A53D"/>
<path d="M180.545 13.5869C180.545 13.5869 183.64 15.2869 182.657 19.4669C181.675 23.6469 181.301 24.1981 182.1 25.8869C182.899 27.5756 183.6 34.6531 182.749 35.9481C181.897 37.2431 173.262 29.6331 172.304 23.5444C171.345 17.4556 173.504 14.8706 174.27 13.9056C175.036 12.9406 177.815 12.0344 180.545 13.5869Z" fill="black"/>
<path d="M186.356 48.1318H183.042C182.882 46.4968 182.733 45.3593 182.765 45.1906C182.813 44.9131 179.467 36.1343 179.154 35.4081C178.839 34.6843 177.613 32.7368 177.453 30.9031C177.291 29.0693 179.682 28.3293 179.682 28.3293C182.909 28.9081 184.002 33.3718 184.002 33.3718C184.002 33.3718 185.357 42.4243 186.042 44.9718C186.218 45.6243 186.313 46.7781 186.356 48.1318Z" fill="#FEBBBA"/>
<path d="M184.691 35.5519L179.756 37.6332C179.756 37.6332 175.22 26.3757 179.023 27.6332C182.813 28.8857 184.518 31.2407 184.691 35.5519Z" fill="#BE202F"/>
<path d="M183.59 40.852C183.446 41.9695 182.856 45.9282 182.988 46.9982C183.01 47.1745 183.083 47.5807 183.193 48.132H171.293C171.609 47.002 171.898 46.002 172.071 45.4207C172.65 43.5045 172.096 42.9907 171.804 41.457C171.69 40.857 171.29 39.717 170.855 38.4282C170.709 37.9982 170.559 37.5495 170.415 37.0995C169.891 35.477 169.649 33.8182 169.499 32.852C168.781 28.2745 172.301 27.8345 172.301 27.8345C173.61 27.5932 175.895 26.887 175.895 26.887L179.475 27.632C179.475 27.632 179.816 27.7595 180.313 28.127C180.313 28.127 180.315 28.127 180.315 28.1295C180.554 28.3057 180.83 28.537 181.12 28.8357C181.511 29.237 182.29 30.387 183.068 31.6507C183.305 32.0382 183.544 32.4357 183.769 32.827C184.496 34.087 185.014 35.1032 184.998 36.2482C184.984 37.3757 183.734 39.7345 183.59 40.852Z" fill="#BE202F"/>
<path d="M179.476 27.6331C179.476 27.6331 181.719 31.4668 180.885 31.7531C180.051 32.0393 175.655 31.0718 173.938 27.4506C173.938 27.4493 176.823 26.1381 179.476 27.6331Z" fill="#FEBBBA"/>
<path d="M179.155 29.3831C179.155 29.3831 177.162 30.2256 175.359 27.4506C175.359 27.4506 175.844 24.2994 174.819 22.4769C173.794 20.6544 179.298 24.6619 179.298 24.6619C179.298 24.6619 179.209 25.0381 179.116 25.5919C179.069 25.8756 179.02 26.2056 178.984 26.5569C178.952 26.8494 178.929 27.1556 178.919 27.4606C178.895 28.1706 178.946 28.8744 179.155 29.3831Z" fill="#FEBBBA"/>
<path d="M174.207 33.6768C173.797 35.7868 170.854 38.4293 170.854 38.4293C170.709 37.998 170.559 37.5505 170.414 37.1018C172.445 35.8055 174.207 33.6768 174.207 33.6768Z" fill="black"/>
<path d="M173.471 35.3555C173.284 36.1243 172.426 43.9105 172.519 44.1768C172.574 44.3293 172.989 46.1305 173.406 48.1318H169.564C169.171 46.8418 168.938 45.7705 168.994 45.1643C169.239 42.538 168.349 34.1655 168.349 34.1655C168.349 34.1655 167.552 29.1005 171.754 28.468C171.754 28.468 174.237 28.7943 174.387 30.628C174.538 32.463 173.657 34.5893 173.471 35.3555Z" fill="#FEBBBA"/>
<path d="M168.039 36.4305L173.254 37.6493C173.254 37.6493 177.391 29.6168 173.665 28.1493C169.738 26.6043 167.098 32.0493 168.039 36.4305Z" fill="#BE202F"/>
<path d="M180.063 14.0318C180.063 14.0318 184.595 15.6956 181.723 23.5169C178.85 31.3394 172.985 22.1819 173.871 17.3756C174.756 12.5693 180.063 14.0318 180.063 14.0318Z" fill="#FEBBBA"/>
<path d="M182.42 18.7868C182.42 18.7868 180.028 20.9217 176.189 21.0217C176.189 21.0217 175.291 23.2093 175.146 23.8805C175.146 23.8805 171.354 17.368 175.714 14.078C180.075 10.7893 184.03 17.423 182.42 18.7868Z" fill="black"/>
<path d="M176.705 21.4905C176.703 20.9118 176.409 19.5793 175.533 19.9068C174.656 20.2343 175.441 22.9555 176.019 22.818C176.019 22.818 176.712 22.8618 176.705 21.4905Z" fill="#FEBBBA"/>
<path d="M178.924 27.3281C176.794 26.7394 175.97 24.7081 175.945 24.6406C177.678 26.8794 178.984 26.5569 178.984 26.5569C178.953 26.8494 178.95 27.0319 178.924 27.3281Z" fill="#E48E8D"/>
<path d="M188.769 25.303V25.9993H192.865V29.8443H193.562V25.303H188.769ZM160.949 29.843H161.645V25.998H165.742V25.3018H160.949V29.843ZM192.865 49.683V53.5293H188.769V54.2255H193.562V49.683H192.865ZM161.645 49.683H160.949V54.2255H165.742V53.5293H161.645V49.683Z" fill="#D1A53D"/>
<path d="M116.159 89.1294H111.027V90.0794H116.159V89.1294Z" fill="#D1A53D"/>
<path d="M128.971 52.4231V53.3519H134.444V58.4869H135.372V52.4219H128.971V52.4231ZM91.8125 58.4881H92.7425V53.3531H98.215V52.4244H91.8138V58.4881H91.8125ZM134.444 84.9869V90.1244H128.971V91.0531H135.372V84.9856H134.444V84.9869ZM92.7425 84.9869H91.8125V91.0544H98.2138V90.1256H92.7413V84.9869H92.7425Z" fill="#D1A53D"/>
<path d="M230.568 123.826H226.228C226.149 123.652 226.084 123.501 226.032 123.38C224.744 120.338 218.106 113.365 218.106 113.365C218.106 113.365 218.106 113.368 218.106 113.38C218.106 113.38 218.102 113.383 218.102 113.387C218.102 113.387 218.102 113.391 218.102 113.395C218.098 113.406 218.094 113.413 218.091 113.425C218.087 113.44 218.083 113.458 218.076 113.482C218.072 113.493 218.068 113.508 218.068 113.52C218.064 113.531 218.061 113.538 218.057 113.55C217.784 114.566 216.448 119.628 215.779 123.825H186.407C186.339 123.436 186.259 123.065 186.169 122.722C185.901 121.68 185.719 120.648 185.603 119.685C185.599 119.636 185.592 119.589 185.588 119.541C185.566 119.363 185.547 119.186 185.532 119.012C185.279 116.376 185.468 114.354 185.483 114.149C185.401 114.327 184.807 116.503 184.029 119.19C183.602 120.663 183.119 122.291 182.639 123.825H175.703L184.407 98.7132C184.599 98.562 186.858 97.4707 188.506 96.6845C190.187 95.8832 192.216 94.7082 194.048 93.7032C194.986 93.1895 195.869 92.7245 196.636 92.3732L196.753 92.3207V92.317C198.018 91.7382 198.861 91.357 198.861 91.357C198.861 91.357 198.861 91.357 198.864 91.357C198.894 91.3532 199.094 91.3345 199.412 91.3045C201.179 91.1345 206.666 90.6207 208.501 90.5145C208.652 90.5032 208.781 90.4995 208.878 90.4957C208.962 90.492 209.026 90.492 209.063 90.4957C209.293 90.5107 210.427 90.9032 211.912 91.4707C211.968 91.4895 212.026 91.512 212.082 91.5345C212.154 91.5607 212.222 91.587 212.293 91.6132C212.422 91.662 212.554 91.712 212.686 91.7645C212.951 91.8707 213.226 91.9757 213.502 92.0857C213.597 92.1232 213.694 92.1607 213.793 92.1995C216.766 93.3782 220.173 94.8407 220.982 95.422C221.518 95.8032 223.184 98.9432 225.114 102.827C227.191 109.484 229.733 119.088 230.568 123.826Z" fill="white"/>
<path d="M209.016 89.6445C208.938 93.5932 201.294 95.7532 201.294 95.7532C201.294 95.7532 198.096 91.7445 198.86 91.3607C199.16 91.2095 199.281 90.612 199.319 89.9407C199.354 89.302 199.313 88.597 199.275 88.1495C199.253 87.8707 199.231 87.6907 199.231 87.6907C199.231 87.6907 200.324 86.5382 201.713 85.1657C204.141 82.7645 207.479 79.6895 207.484 80.9132C207.484 80.9782 207.475 81.0557 207.455 81.1457C206.869 83.897 209.016 89.6445 209.016 89.6445Z" fill="#FEBBBA"/>
<path d="M206.072 83.8594C206.056 83.8831 205.732 84.3681 205.178 85.0644C204.004 86.5406 201.798 88.9656 199.318 89.9394C199.353 89.3006 199.312 88.5956 199.274 88.1481C199.021 88.1419 198.767 88.1119 198.516 88.0569C199.196 86.8694 200.178 85.6231 200.178 85.6231L201.713 85.1644L206.072 83.8594Z" fill="#E48E8D"/>
<path d="M207.537 80.9645C206.876 82.4033 206.249 83.4458 206.07 83.8595C206.07 83.8595 206.07 83.8595 206.07 83.8608C205.954 84.1295 205.638 84.5683 205.177 85.0645C203.917 86.422 201.576 88.212 199.274 88.1495C199.02 88.1432 198.766 88.1133 198.515 88.0583C197.585 87.8545 196.487 87.4232 195.884 86.2407C191.115 76.9033 194.567 69.267 194.567 69.267C194.567 69.267 207.608 65.5795 209.648 69.5045C211.08 72.2583 209.091 77.5845 207.537 80.9645Z" fill="#FEBBBA"/>
<path d="M194.569 69.2669C194.569 69.2669 193.358 69.1994 193.059 66.9032C192.763 64.6344 193.361 64.0057 193.361 64.0057C193.361 64.0057 198.745 61.7519 200.679 61.4594C202.613 61.1669 207.366 60.8844 208.48 62.1594C208.48 62.1594 211.188 61.5307 211.925 66.0244C213.095 73.1544 207.938 80.0782 207.938 80.0782C207.938 80.0782 207.981 75.4194 206.954 74.8032C205.926 74.1857 205.04 75.6532 205.04 75.6532L202.939 76.0294C202.939 76.0294 206.13 69.1382 202.301 68.8832C198.471 68.6282 196.76 69.6669 194.569 69.2669Z" fill="#BE202F"/>
<path d="M205.095 73.797C205.295 71.7445 209.006 70.9608 208.757 73.112C208.509 75.2633 206.681 77.3295 205.837 77.257C204.992 77.1845 204.942 75.3608 205.095 73.797Z" fill="url(#paint0_linear_1054_25941)"/>
<path d="M226.819 103.021C225.61 99.1482 224.564 96.0844 224.099 95.7519C223.286 95.1707 216.849 93.3982 213.792 92.2007C213.694 92.1632 213.596 92.1257 213.501 92.0869C213.225 91.9769 212.95 91.8719 212.685 91.7657C212.552 91.7132 212.42 91.6632 212.292 91.6144C212.221 91.5882 212.152 91.5619 212.081 91.5357C212.025 91.5132 211.967 91.4907 211.911 91.4719C211.907 91.4757 211.904 91.4832 211.896 91.4869C211.624 91.7932 210.211 93.3982 208.522 95.8007C205.364 100.288 201.25 107.561 201.881 114.274C202.085 116.428 202.335 119.522 202.754 122.993C202.784 123.269 202.817 123.544 202.856 123.824H217.106C217.28 120.191 217.59 115.403 218.059 113.549C218.062 113.538 218.066 113.531 218.07 113.519C218.07 113.508 218.074 113.493 218.077 113.482C218.081 113.463 218.089 113.444 218.092 113.424C218.096 113.413 218.1 113.406 218.104 113.394C218.104 113.391 218.104 113.387 218.104 113.387C218.104 113.383 218.107 113.379 218.107 113.379C218.107 113.379 221.556 118.771 221.734 123.824H230.702C230.264 119.129 228.892 109.667 226.819 103.021Z" fill="#BE202F"/>
<path d="M196.694 92.4208C196.694 92.4208 195.618 96.002 194.228 104.945C194.228 104.945 194.228 104.945 194.228 104.948C194.179 105.247 194.133 105.553 194.084 105.866C194.081 105.9 194.073 105.937 194.069 105.976C194.036 106.18 194.006 106.392 193.974 106.603C193.971 106.63 193.967 106.652 193.963 106.678C193.941 106.818 193.918 106.962 193.899 107.108C193.847 107.46 193.793 107.822 193.741 108.188C193.219 111.837 192.524 117.637 191.818 123.825H186.186C185.879 122.106 185.593 120.542 185.616 119.468C185.604 119.491 185.597 119.517 185.589 119.541C185.139 120.787 184.644 122.143 184.142 123.462C184.097 123.583 184.052 123.703 184.006 123.825H174.297L183.968 98.5245C184.161 98.3733 186.651 97.032 188.297 96.2508C190.016 95.4308 192.188 94.422 194.114 93.5345C195.036 93.107 195.901 92.7108 196.634 92.3745L196.694 92.4208Z" fill="#BE202F"/>
<path d="M209.792 101.268L206.071 103.368L207.661 104.989L204.171 123.826H202.856C202.372 120.018 202.096 116.599 201.881 114.276C200.909 103.894 211.268 92.1869 211.911 91.4731C212.409 91.6619 212.946 91.8694 213.501 92.0894L209.792 101.268Z" fill="#E92D29"/>
<path d="M196.749 92.3232C196.749 92.3232 195.359 96.8607 193.742 108.189C193.221 111.834 192.522 117.638 191.816 123.826H191.268L190.547 106.028L192.318 104.109L190.743 102.141L194.113 93.5345C195.034 93.107 195.899 92.7107 196.633 92.3745L196.749 92.3232Z" fill="#E92D29"/>
<path d="M212.099 91.517L209.015 89.6445C209.015 89.6445 208.929 91.3358 201.293 95.7533L203.462 101.862L212.099 91.517Z" fill="#E7E7E7"/>
<path d="M199.26 90.4956C199.26 90.4956 199.38 92.3206 201.291 95.7519L197.059 101.269L196.75 92.3206L199.26 90.4956Z" fill="#E7E7E7"/>
<path d="M201.305 95.752C201.305 95.752 202.126 99.0332 201.831 99.9519C201.831 99.9519 200.027 100.608 198.73 99.7882C198.73 99.7882 199.648 97.4907 201.305 95.752Z" fill="#BE202F"/>
<path d="M200.31 106.908C199.445 112.802 199.445 118.763 199.767 123.825H196.152C196.103 123.111 196.057 122.366 196.012 121.588C195.339 109.918 199.464 99.492 199.464 99.492L201.304 99.0308C201.304 99.032 200.712 104.188 200.31 106.908Z" fill="#BE202F"/>
<path d="M185.731 114.181C185.594 116.981 185.614 119.467 185.614 119.467V119.468C185.612 119.482 185.61 119.557 185.604 119.682C185.597 119.634 185.592 119.588 185.586 119.541C185.139 120.787 184.641 122.142 184.141 123.461C184.025 121.932 183.995 120.507 184.029 119.188C184.23 111.337 186.699 107.221 186.699 107.221C186.132 108.591 185.861 111.527 185.731 114.181Z" fill="#9B0022"/>
<path d="M146.589 137.609L135.038 143.958L123.438 125.703L137.469 120.831L146.589 137.609Z" fill="#8B672A"/>
<path d="M145.858 137.061L135.056 142.998L124.207 125.927L137.328 121.369L145.858 137.061Z" fill="white"/>
<path d="M142.049 133.161C142.138 133.616 141.848 133.92 141.632 134.078C141.592 134.106 141.551 134.133 141.508 134.159C141.715 134.097 141.929 134.041 142.137 134.003C142.469 133.942 142.86 133.911 143.203 134.033C143.516 134.145 143.951 134.131 144.491 134.09C144.528 134.087 144.565 134.084 144.603 134.081C144.821 134.064 145.052 134.046 145.264 134.043C145.51 134.039 145.786 134.054 146.034 134.139C146.363 134.252 147.329 134.578 148.214 134.876L149.265 135.23L149.302 134.177C149.291 134.171 149.28 134.166 149.268 134.16C149.065 134.062 148.785 133.925 148.477 133.773C147.865 133.47 147.129 133.098 146.674 132.839C146.277 132.613 145.533 132.329 144.82 132.069C144.713 132.03 144.607 131.992 144.504 131.954C144.274 131.871 144.059 131.793 143.883 131.726C143.754 131.677 143.638 131.632 143.545 131.591C143.498 131.571 143.452 131.549 143.41 131.527C143.398 131.521 143.382 131.512 143.364 131.501C143.321 131.493 143.259 131.483 143.173 131.471C142.985 131.445 142.721 131.415 142.399 131.382C141.989 131.34 141.5 131.294 140.977 131.245C140.677 131.217 140.367 131.188 140.054 131.158C139.318 131.087 138.571 131.012 137.942 130.935M142.049 133.161C142.049 133.162 142.049 133.162 142.049 133.162L141.559 133.257L142.049 133.161ZM142.049 133.161C142.009 132.954 141.894 132.787 141.783 132.664C141.668 132.536 141.525 132.42 141.374 132.314C141.07 132.104 140.677 131.902 140.253 131.717C139.548 131.41 138.708 131.131 137.942 130.935M137.942 130.935C137.784 130.894 137.629 130.858 137.479 130.825L137.469 130.873C137.527 130.881 137.587 130.889 137.649 130.897C137.743 130.91 137.841 130.922 137.942 130.935ZM136.616 130.338C136.616 130.338 136.617 130.339 136.617 130.341C136.616 130.339 136.616 130.338 136.616 130.338Z" fill="#FEBBBA" stroke="#FEBBBA"/>
<path d="M135.558 140.626L134.806 139.763C134.181 139.045 133.498 138.262 133.264 137.996C133.088 137.797 132.968 137.543 132.875 137.311C132.796 137.109 132.723 136.885 132.654 136.673C132.642 136.636 132.63 136.6 132.619 136.564C132.448 136.04 132.291 135.623 132.062 135.37L135.558 140.626ZM135.558 140.626L134.564 141.078C134.553 141.068 134.542 141.058 134.53 141.047C134.358 140.894 134.121 140.683 133.857 140.453C133.334 139.994 132.697 139.446 132.275 139.117C131.906 138.83 131.349 138.239 130.826 137.669C130.749 137.584 130.672 137.501 130.598 137.419C130.429 137.234 130.271 137.061 130.138 136.92C130.042 136.818 129.954 136.726 129.879 136.654C129.842 136.619 129.804 136.583 129.767 136.553C129.757 136.544 129.742 136.532 129.724 136.518C129.699 136.481 129.665 136.426 129.62 136.349C129.522 136.182 129.391 135.944 129.235 135.654C129.035 135.283 128.8 134.838 128.549 134.362C128.407 134.092 128.259 133.813 128.11 133.532C127.727 132.81 127.334 132.078 126.999 131.489C127.498 132.172 128.129 132.909 128.73 133.489C129.068 133.817 129.411 134.108 129.727 134.312C129.885 134.414 130.049 134.503 130.213 134.561C130.371 134.617 130.572 134.66 130.781 134.618C131.238 134.526 131.41 134.139 131.474 133.875C131.492 133.801 131.505 133.724 131.514 133.645C131.536 133.892 131.568 134.145 131.619 134.382C131.691 134.718 131.815 135.097 132.062 135.37L135.558 140.626ZM126.008 130.596C126.006 130.597 126.005 130.597 126.005 130.597C126.005 130.597 126.006 130.597 126.008 130.596Z" fill="#FEBBBA" stroke="#FEBBBA"/>
<path d="M170.852 222.921C170.852 222.921 171.217 225.457 171.263 225.837C171.309 226.218 175.328 225.613 175.328 225.613L175.653 222.594C175.653 222.594 171.354 222.563 170.852 222.921Z" fill="#FEBBBA"/>
<path d="M171.221 225.515C171.221 225.515 169.947 227.044 168.716 227.709C167.484 228.376 165.549 228.639 164.821 229.329C164.294 229.827 162.906 231.969 168.021 231.927C173.136 231.883 175.602 232.229 176.149 231.408C176.697 230.587 175.357 225.344 175.357 225.344C175.357 225.344 174.146 225.779 171.221 225.515Z" fill="black"/>
<path d="M142.055 222.921C142.055 222.921 142.42 225.457 142.466 225.837C142.512 226.218 146.531 225.613 146.531 225.613L146.856 222.594C146.855 222.594 142.556 222.563 142.055 222.921Z" fill="#FEBBBA"/>
<path d="M142.422 225.516C142.422 225.516 141.149 227.044 139.917 227.709C138.686 228.376 134.154 228.923 133.426 229.612C132.9 230.109 132.026 232.113 139.224 231.926C144.336 231.792 146.805 232.228 147.352 231.407C147.9 230.586 146.56 225.343 146.56 225.343C146.56 225.343 145.417 225.809 142.422 225.516Z" fill="black"/>
<path d="M167.524 157.757C167.524 157.757 171.3 163.757 171.019 169.179C170.737 174.603 172.387 180.523 172.955 186.188C173.587 192.504 176.175 207.456 176.269 210.834C176.362 214.213 175.868 225.001 175.868 225.001L170.687 225.119C170.687 225.119 166.336 198.981 165.21 196.313C164.084 193.646 158.495 174.632 158.307 172.498C158.119 170.363 167.524 157.757 167.524 157.757Z" fill="#515959"/>
<path d="M147.644 158.569C147.644 158.569 144.798 173.433 144.423 176.752C144.048 180.071 143.797 192.814 143.609 194.889C143.422 196.964 142.357 222.036 141.355 225.118H147.978C147.978 225.118 153.062 206.892 153.062 198.268C153.062 189.644 156.989 179.521 159.525 173.831C162.06 168.141 167.864 168.006 169.423 157.449C169.422 157.449 149.754 155.221 147.644 158.569Z" fill="#515959"/>
<path d="M161.002 107.77C161.01 107.772 161.017 107.775 161.023 107.777C162.31 108.433 163.843 109.602 163.891 111.629C163.918 112.718 163.653 114.115 163.209 115.557C162.766 116.993 162.157 118.438 161.519 119.615L161.519 119.615C160.959 120.649 159.83 121.317 158.472 121.607C157.119 121.895 155.618 121.786 154.433 121.346C154 121.185 153.578 120.694 153.252 119.823C152.933 118.971 152.744 117.853 152.704 116.623C152.622 114.15 153.143 111.36 154.244 109.541C155.29 107.814 156.939 107.361 158.398 107.352C159.128 107.348 159.795 107.457 160.281 107.569C160.523 107.624 160.718 107.68 160.851 107.721C160.918 107.741 160.968 107.758 161.002 107.77Z" fill="#FEBBBA" stroke="#FEBBBA"/>
<path d="M160.851 124.015C160.838 124.089 160.826 124.157 160.815 124.22C160.643 124.218 160.424 124.215 160.174 124.21C159.534 124.198 158.686 124.175 157.851 124.131C157.012 124.087 156.203 124.022 155.631 123.93C155.485 123.907 155.364 123.883 155.267 123.86C155.367 123.479 155.379 123.061 155.372 122.747C155.368 122.541 155.354 122.355 155.34 122.212C155.388 122.175 155.443 122.133 155.504 122.086C155.749 121.899 156.099 121.634 156.516 121.326C157.35 120.708 158.447 119.921 159.509 119.231C160.585 118.531 161.575 117.965 162.211 117.756C162.294 117.728 162.364 117.709 162.422 117.697C162.414 117.726 162.404 117.759 162.391 117.796C161.85 119.373 161.439 121.087 161.163 122.4C161.025 123.058 160.921 123.619 160.851 124.015ZM155.017 123.779C155.017 123.779 155.018 123.78 155.02 123.781C155.018 123.78 155.017 123.779 155.017 123.779ZM162.594 117.679C162.594 117.679 162.594 117.679 162.592 117.679L162.594 117.679Z" fill="#FEBBBA" stroke="#FEBBBA"/>
<path d="M162.865 117.959C162.865 117.959 162.388 118.747 160.44 118.441C158.492 118.136 156.115 115.543 155.302 115.258C154.488 114.973 154.48 114.496 154.48 114.496L153.972 115.239L153.108 115.294C153.108 115.294 153.895 112.976 152.707 112.031C151.518 111.084 153.94 104.526 160.188 106.709C160.188 106.709 164.987 108.032 164.812 110.762C164.638 113.492 163.939 116.601 162.865 117.959Z" fill="black"/>
<path d="M154.262 123.952C154.262 123.952 154.284 122.664 154.868 122.541C155.452 122.417 161.312 121.853 162.029 122.136V123.636C162.028 123.636 160.647 124.484 154.262 123.952Z" fill="#9B0022"/>
<path d="M154.606 113.504C154.716 113.047 155.88 111.738 156.325 113.139C156.77 114.541 155.651 116.424 155.027 116.263C154.404 116.102 154.33 114.666 154.606 113.504Z" fill="url(#paint1_linear_1054_25941)"/>
<path d="M131.005 139.169C131.008 139.168 131.012 139.168 131.015 139.168C130.974 139.186 130.968 139.188 131.005 139.169Z" fill="black"/>
<path d="M171.782 172.049C171.782 172.049 168.673 172.964 163.373 173.549C158.073 174.134 144.829 173.338 144.745 172.712C144.662 172.086 147.594 149.394 147.428 148.226C147.262 147.057 147.172 142.893 147.172 142.893C147.107 144.034 145.944 148.694 144.54 151.234C144.033 152.152 142.333 155.029 141.513 154.374C137.545 151.207 131.402 139.269 131.012 139.168C131.339 139.026 133.923 137.836 134.285 137.714C134.603 137.608 137.465 140.639 139.199 142.518C139.973 143.356 140.522 143.964 140.522 143.964C141.023 142.838 142.847 135.739 143.413 133.282C144.692 127.742 144.495 127.511 144.495 127.511C148.373 126.338 154.259 123.951 154.259 123.951L162.025 123.634C162.025 123.634 169.153 125.203 171.96 126.472C172.227 126.592 172.228 132.831 172.959 134.467L170.632 139.377C170.632 139.377 169.288 149.103 169.008 153.429C168.88 155.414 171.782 172.049 171.782 172.049Z" fill="#BE202F"/>
<path d="M173.283 142.566C173.08 143.221 172.159 143.773 171.561 144.016C171.179 144.171 170.75 144.221 170.318 144.141L170.014 144.085L164.691 143.097C164.691 143.097 163.526 129.686 171.963 126.472C172.184 126.544 175.145 136.561 173.283 142.566Z" fill="#BE202F"/>
<path d="M171.563 144.016C171.181 144.171 170.752 144.221 170.319 144.141L170.016 144.084L170.541 137.23L171.563 144.016Z" fill="#9B0022"/>
<path d="M140.523 143.965L139.873 146.72C139.873 146.72 139.167 143.956 139.2 142.52C139.974 143.356 140.523 143.965 140.523 143.965Z" fill="#9B0022"/>
<path d="M162.664 107.772C162.664 107.772 169.307 106.939 162.777 118.036L162.664 107.772Z" fill="black"/>
<path d="M128.777 124.724L128.102 123.564L133.42 121.729L134.095 122.883L128.777 124.724Z" fill="#8B672A"/>
<g opacity="0.2">
<path opacity="0.95" d="M233.216 61.2631H236.984L235.83 58.8706H232.062L233.216 61.2631Z" fill="url(#paint2_linear_1054_25941)"/>
<path opacity="0.95" d="M231.453 61.2631H232.351L231.198 58.8706H230.301L231.453 61.2631Z" fill="url(#paint3_linear_1054_25941)"/>
<path opacity="0.95" d="M218.436 58.4143H233.693L233.186 57.218H217.93L218.436 58.4143Z" fill="url(#paint4_linear_1054_25941)"/>
</g>
<g opacity="0.2">
<path d="M136.504 20.2769H130.743C130.548 20.2769 130.391 20.1194 130.391 19.9244V18.6806C130.391 18.4856 130.548 18.3281 130.743 18.3281H136.504C136.699 18.3281 136.857 18.4856 136.857 18.6806V19.9244C136.857 20.1194 136.699 20.2769 136.504 20.2769Z" fill="url(#paint5_linear_1054_25941)"/>
<path d="M136.504 24.9495H130.743C130.548 24.9495 130.391 24.792 130.391 24.597V23.3532C130.391 23.1582 130.548 23.0007 130.743 23.0007H136.504C136.699 23.0007 136.857 23.1582 136.857 23.3532V24.597C136.857 24.792 136.699 24.9495 136.504 24.9495Z" fill="url(#paint6_linear_1054_25941)"/>
<path d="M136.504 29.6218H130.743C130.548 29.6218 130.391 29.4643 130.391 29.2693V28.0256C130.391 27.8306 130.548 27.6731 130.743 27.6731H136.504C136.699 27.6731 136.857 27.8306 136.857 28.0256V29.2693C136.857 29.4631 136.699 29.6218 136.504 29.6218Z" fill="url(#paint7_linear_1054_25941)"/>
<path d="M141.015 20.2769H139.88C139.685 20.2769 139.527 20.1194 139.527 19.9244V18.6806C139.527 18.4856 139.685 18.3281 139.88 18.3281H141.015C141.21 18.3281 141.367 18.4856 141.367 18.6806V19.9244C141.366 20.1194 141.209 20.2769 141.015 20.2769Z" fill="url(#paint8_linear_1054_25941)"/>
<path d="M141.015 24.9495H139.88C139.685 24.9495 139.527 24.792 139.527 24.597V23.3532C139.527 23.1582 139.685 23.0007 139.88 23.0007H141.015C141.21 23.0007 141.367 23.1582 141.367 23.3532V24.597C141.366 24.792 141.209 24.9495 141.015 24.9495Z" fill="url(#paint9_linear_1054_25941)"/>
<path d="M141.015 29.6218H139.88C139.685 29.6218 139.527 29.4643 139.527 29.2693V28.0256C139.527 27.8306 139.685 27.6731 139.88 27.6731H141.015C141.21 27.6731 141.367 27.8306 141.367 28.0256V29.2693C141.366 29.4631 141.209 29.6218 141.015 29.6218Z" fill="url(#paint10_linear_1054_25941)"/>
</g>
<g opacity="0.2">
<path d="M112.976 125.497H119.74L117.67 121.203H110.906L112.976 125.497Z" fill="url(#paint11_linear_1054_25941)"/>
<path d="M109.812 125.497H111.425L109.355 121.203H107.742L109.812 125.497Z" fill="url(#paint12_linear_1054_25941)"/>
</g>
<defs>
<linearGradient id="paint0_linear_1054_25941" x1="208.765" y1="74.5198" x2="205.047" y2="74.5481" gradientUnits="userSpaceOnUse">
<stop stop-color="#FEBBBA"/>
<stop offset="1" stop-color="#FF928E"/>
</linearGradient>
<linearGradient id="paint1_linear_1054_25941" x1="156.424" y1="114.374" x2="154.463" y2="114.385" gradientUnits="userSpaceOnUse">
<stop stop-color="#FEBBBA"/>
<stop offset="1" stop-color="#FF928E"/>
</linearGradient>
<linearGradient id="paint2_linear_1054_25941" x1="232.062" y1="58.8706" x2="234.028" y2="62.7576" gradientUnits="userSpaceOnUse">
<stop stop-color="#D1A53D"/>
<stop offset="1" stop-color="#B0872F"/>
</linearGradient>
<linearGradient id="paint3_linear_1054_25941" x1="230.529" y1="60.0669" x2="232.351" y2="60.0669" gradientUnits="userSpaceOnUse">
<stop stop-color="#D1A53D"/>
<stop offset="0.5375" stop-color="#B0872F"/>
</linearGradient>
<linearGradient id="paint4_linear_1054_25941" x1="217.93" y1="57.218" x2="218.121" y2="59.6431" gradientUnits="userSpaceOnUse">
<stop stop-color="#D1A53D"/>
<stop offset="1" stop-color="#B0872F"/>
</linearGradient>
<linearGradient id="paint5_linear_1054_25941" x1="130.391" y1="18.3281" x2="131.525" y2="21.9478" gradientUnits="userSpaceOnUse">
<stop stop-color="#D1A53D"/>
<stop offset="1" stop-color="#B0872F"/>
</linearGradient>
<linearGradient id="paint6_linear_1054_25941" x1="130.391" y1="23.0007" x2="131.525" y2="26.6204" gradientUnits="userSpaceOnUse">
<stop stop-color="#D1A53D"/>
<stop offset="1" stop-color="#B0872F"/>
</linearGradient>
<linearGradient id="paint7_linear_1054_25941" x1="130.391" y1="27.6731" x2="131.525" y2="31.2928" gradientUnits="userSpaceOnUse">
<stop stop-color="#D1A53D"/>
<stop offset="1" stop-color="#B0872F"/>
</linearGradient>
<linearGradient id="paint8_linear_1054_25941" x1="139.527" y1="18.3281" x2="141.506" y2="20.1245" gradientUnits="userSpaceOnUse">
<stop stop-color="#D1A53D"/>
<stop offset="1" stop-color="#B0872F"/>
</linearGradient>
<linearGradient id="paint9_linear_1054_25941" x1="139.527" y1="23.0007" x2="141.506" y2="24.7971" gradientUnits="userSpaceOnUse">
<stop stop-color="#D1A53D"/>
<stop offset="1" stop-color="#B0872F"/>
</linearGradient>
<linearGradient id="paint10_linear_1054_25941" x1="139.527" y1="27.6731" x2="141.506" y2="29.4695" gradientUnits="userSpaceOnUse">
<stop stop-color="#D1A53D"/>
<stop offset="1" stop-color="#B0872F"/>
</linearGradient>
<linearGradient id="paint11_linear_1054_25941" x1="110.906" y1="121.203" x2="114.432" y2="128.179" gradientUnits="userSpaceOnUse">
<stop stop-color="#D1A53D"/>
<stop offset="1" stop-color="#B0872F"/>
</linearGradient>
<linearGradient id="paint12_linear_1054_25941" x1="107.742" y1="121.203" x2="112.041" y2="124.749" gradientUnits="userSpaceOnUse">
<stop stop-color="#D1A53D"/>
<stop offset="1" stop-color="#B0872F"/>
</linearGradient>
</defs>
</svg>
