<svg width="250" height="250" viewBox="0 0 250 250" fill="none" xmlns="http://www.w3.org/2000/svg">
<path d="M250 191.2H0V191.325H250V191.2Z" fill="#EBEBEB"/>
<path d="M86.6095 194.39H75.0195V194.515H86.6095V194.39Z" fill="#EBEBEB"/>
<path d="M229.386 197.07H201.051V197.195H229.386V197.07Z" fill="#EBEBEB"/>
<path d="M49.6944 197.07H21.3594V197.195H49.6944V197.07Z" fill="#EBEBEB"/>
<path d="M157.533 151.515H145.988V191.47H157.533V151.515Z" fill="#E6E6E6"/>
<path d="M149.358 151.515H137.812V191.47H149.358V151.515Z" fill="#E6E6E6"/>
<path opacity="0.3" d="M147.168 191.47H149.358V185.23H144.863L147.168 191.47Z" fill="#D1A53D"/>
<path d="M91.3223 151.515H79.7773V191.47H91.3223V151.515Z" fill="#E6E6E6"/>
<path opacity="0.3" d="M149.364 151.515H89.4141V188.4H149.364V151.515Z" fill="#D1A53D"/>
<path d="M145.628 180.1H122.148C120.888 180.1 119.868 179.075 119.863 177.815V155.36C119.868 154.1 120.888 153.08 122.148 153.075H145.623C146.883 153.08 147.903 154.1 147.908 155.36V177.815C147.903 179.075 146.883 180.095 145.628 180.1ZM122.148 153.59C121.168 153.59 120.373 154.385 120.368 155.365V177.82C120.358 178.8 121.143 179.605 122.128 179.62C122.133 179.62 122.143 179.62 122.148 179.62H145.623C146.603 179.63 147.408 178.84 147.418 177.855C147.418 177.845 147.418 177.83 147.418 177.82V155.365C147.413 154.385 146.618 153.59 145.638 153.59H122.148Z" fill="#E0E0E0"/>
<path d="M116.619 180.1H93.1444C91.8844 180.1 90.8644 179.075 90.8594 177.815V155.36C90.8644 154.1 91.8844 153.08 93.1444 153.075H116.619C117.879 153.075 118.904 154.095 118.904 155.36V177.815C118.904 179.075 117.879 180.1 116.619 180.1ZM93.1444 153.59C92.1644 153.59 91.3694 154.385 91.3694 155.365V177.82C91.3694 178.8 92.1644 179.595 93.1444 179.595H116.619C117.599 179.595 118.394 178.8 118.399 177.82V155.365C118.394 154.385 117.599 153.59 116.619 153.59H93.1444Z" fill="#E0E0E0"/>
<path d="M114.44 160.175C113.22 160.175 112.23 159.19 112.23 157.975C112.225 156.755 113.215 155.765 114.43 155.765C115.65 155.76 116.64 156.745 116.64 157.965C116.64 157.97 116.64 157.97 116.64 157.975C116.64 159.19 115.655 160.175 114.44 160.175Z" fill="#FAFAFA"/>
<path d="M124.329 160.175C123.109 160.185 122.119 159.2 122.109 157.985C122.099 156.765 123.084 155.775 124.299 155.765C125.519 155.755 126.509 156.74 126.519 157.955C126.519 157.965 126.519 157.975 126.519 157.99C126.514 159.195 125.534 160.17 124.329 160.175Z" fill="#FAFAFA"/>
<path d="M91.6041 191.47H89.4141V185.23H93.9041L91.6041 191.47Z" fill="#F0F0F0"/>
<path d="M87.6505 151.515H76.1055V191.47H87.6505V151.515Z" fill="#E6E6E6"/>
<path d="M85.4523 191.47H87.6473V185.23H83.1523L85.4523 191.47Z" fill="#F0F0F0"/>
<path opacity="0.3" d="M87.6492 151.515H27.6992V188.4H87.6492V151.515Z" fill="#D1A53D"/>
<path d="M83.9145 180.1H60.4345C59.1745 180.1 58.1495 179.08 58.1445 177.815V155.36C58.1495 154.1 59.1695 153.075 60.4345 153.075H83.9095C85.1695 153.08 86.1895 154.1 86.1945 155.36V177.815C86.1945 179.075 85.1745 180.095 83.9145 180.1ZM60.4345 153.59C59.4545 153.59 58.6595 154.385 58.6545 155.365V177.82C58.6445 178.8 59.4295 179.605 60.4145 179.62C60.4195 179.62 60.4295 179.62 60.4345 179.62H83.9095C84.8895 179.63 85.6945 178.84 85.7045 177.855C85.7045 177.845 85.7045 177.83 85.7045 177.82V155.365C85.6995 154.385 84.9095 153.595 83.9295 153.59H60.4345Z" fill="#E0E0E0"/>
<path d="M54.9034 180.1H31.4334C30.1734 180.1 29.1484 179.08 29.1484 177.815V155.36C29.1484 154.1 30.1684 153.075 31.4334 153.075H54.9084C56.1684 153.08 57.1884 154.1 57.1934 155.36V177.815C57.1884 179.075 56.1684 180.095 54.9034 180.1ZM31.4334 153.59C30.4534 153.59 29.6584 154.385 29.6534 155.365V177.82C29.6434 178.8 30.4284 179.605 31.4134 179.62C31.4184 179.62 31.4284 179.62 31.4334 179.62H54.9084C55.8884 179.62 56.6834 178.825 56.6884 177.845V155.365C56.6884 154.385 55.8884 153.59 54.9084 153.59H31.4334Z" fill="#E0E0E0"/>
<path d="M52.7295 160.175C51.5095 160.175 50.5196 159.19 50.5196 157.975C50.5146 156.755 51.5046 155.765 52.7196 155.765C53.9396 155.76 54.9296 156.745 54.9296 157.965C54.9296 157.97 54.9296 157.97 54.9296 157.975C54.9296 159.19 53.9445 160.175 52.7295 160.175Z" fill="#FAFAFA"/>
<path d="M62.6185 160.175C61.3985 160.185 60.4085 159.2 60.3985 157.985C60.3885 156.765 61.3735 155.775 62.5885 155.765C63.8085 155.755 64.7985 156.74 64.8085 157.955C64.8085 157.965 64.8085 157.975 64.8085 157.99C64.7985 159.195 63.8235 160.17 62.6185 160.175Z" fill="#FAFAFA"/>
<path opacity="0.3" d="M29.8892 191.47H27.6992V185.23H32.1892L29.8892 191.47Z" fill="#D1A53D"/>
<path opacity="0.3" d="M133.64 40.76H112.16V62.24H133.64V40.76Z" fill="#D1A53D"/>
<path d="M134.595 40.765H133.645V62.245H134.595V40.765Z" fill="#E0E0E0"/>
<path d="M130.734 43.675H115.074V59.335H130.734V43.675Z" fill="white"/>
<path opacity="0.3" d="M125.523 54.12C124.073 55.565 121.728 55.565 120.283 54.12C118.838 52.675 118.838 50.325 120.283 48.88C121.728 47.435 124.078 47.435 125.523 48.88C126.968 50.33 126.968 52.675 125.523 54.12Z" fill="#D1A53D"/>
<path opacity="0.3" d="M112.599 68.38H87.4141V93.565H112.599V68.38Z" fill="#D1A53D"/>
<path d="M113.713 68.385H112.598V93.57H113.713V68.385Z" fill="#E0E0E0"/>
<path d="M109.188 71.795H90.8281V90.155H109.188V71.795Z" fill="white"/>
<path opacity="0.3" d="M103.92 77.0551H96.0898V84.8851H103.92V77.0551Z" fill="#D1A53D"/>
<path d="M225.252 60.28H211.617V63.465H225.252V60.28Z" fill="#E6E6E6"/>
<path opacity="0.3" d="M211.616 60.28H155.176V63.465H211.616V60.28Z" fill="#D1A53D"/>
<path d="M187.245 43.37H171.355V60.285H187.245V43.37Z" fill="#E0E0E0"/>
<path opacity="0.3" d="M171.355 43.37H167.285V60.285H171.355V43.37Z" fill="#D1A53D"/>
<path d="M191.412 40.76H179.477V60.28H191.412V40.76Z" fill="#E6E6E6"/>
<path opacity="0.3" d="M179.481 40.76H176.031V60.28H179.481V40.76Z" fill="#D1A53D"/>
<path opacity="0.3" d="M193.061 43.37H182.996V60.285H193.061V43.37Z" fill="#D1A53D"/>
<path opacity="0.3" d="M182.995 43.37H180.695V60.285H182.995V43.37Z" fill="#8B672A"/>
<path d="M204.43 46.23H191.23V60.28H204.43V46.23Z" fill="#E6E6E6"/>
<path opacity="0.3" d="M191.232 46.23H187.852V60.28H191.232V46.23Z" fill="#8B672A"/>
<path d="M207.892 44.0651H197.977V60.2851H207.892V44.0651Z" fill="#E6E6E6"/>
<path opacity="0.3" d="M197.974 44.0651H195.109V60.2851H197.974V44.0651Z" fill="#D1A53D"/>
<path opacity="0.3" d="M210.525 46.23H200.895V60.28H210.525V46.23Z" fill="#D1A53D"/>
<path opacity="0.3" d="M200.894 46.23H198.984V60.28H200.894V46.23Z" fill="#8B672A"/>
<path opacity="0.3" d="M203.545 154.71C207.815 149.125 217.98 147.05 221.495 143.535C226.095 138.92 226.075 131.995 222.155 129.495C218.755 127.325 207.475 142.01 206.205 143.645C201.83 149.285 200.57 153.475 199.745 157.53C199.835 154.085 199.93 150.915 200 148.475C200.24 140.505 200.535 137.945 200.67 137.16C201.155 136.77 201.7 136.325 202.02 136.085C204.75 134.05 210.8 131.625 213.83 128.67C218.245 124.35 217.535 119.18 214.435 117.255C211.2 115.245 205.47 120 202.43 124.715C199.39 129.43 200.69 133.945 199.84 137.835C199.66 138.605 199.475 141.52 199.305 145.565C198.585 141.58 196.385 138.015 193.14 135.59C188.95 132.245 185.335 128.18 181.885 128.705C178.435 129.23 180.31 134.615 183.02 138.395C185.45 141.76 197.445 145.12 199.21 147.825C199 153.305 198.815 160.25 198.685 166.72C197.74 163.38 198.39 163.1 194.515 157.975C192.21 154.935 182.765 151.17 181.645 153.27C180.525 155.37 182.23 159.31 185.795 162.075C188.67 164.305 195.025 164.3 196.53 165.685C196.875 166.005 198.01 167.245 198.665 167.96C198.51 175.85 198.44 182.82 198.52 185.195L199.135 185.22C199.105 184.61 199.18 180.595 199.3 175.28C200.85 172.45 211.285 170.8 214.505 167.86C217.875 164.785 220.295 161.195 218.855 158.79C217.65 156.785 208.165 159.51 204.28 162.835C201.71 165.045 200.14 167.405 199.42 170.58C199.505 166.96 199.61 163.07 199.705 159.405C200.48 158.49 202.265 156.385 203.545 154.71Z" fill="#B0872F"/>
<path opacity="0.3" d="M204.457 191.365H193.627C193.032 191.365 192.522 190.595 192.407 189.525L191.637 182.52H206.442L205.672 189.525C205.552 190.595 205.047 191.365 204.457 191.365Z" fill="#D1A53D"/>
<path opacity="0.3" d="M206.751 185.23H191.321C190.951 185.23 190.641 184.72 190.601 184.04L190.286 178.86C190.236 178.065 190.571 177.37 191.006 177.37H207.066C207.501 177.37 207.836 178.065 207.786 178.86L207.471 184.04C207.436 184.72 207.121 185.23 206.751 185.23Z" fill="#D1A53D"/>
<g opacity="0.3">
<path d="M125 213.78C178.541 213.78 221.945 211.246 221.945 208.12C221.945 204.994 178.541 202.46 125 202.46C71.4584 202.46 28.0547 204.994 28.0547 208.12C28.0547 211.246 71.4584 213.78 125 213.78Z" fill="#D1A53D"/>
</g>
<path d="M107.247 77.84C106.142 80.525 99.6369 80.3451 92.8169 77.5301C85.9969 74.7151 81.3669 70.2601 82.4769 67.5801C82.7319 66.9601 83.4468 64.635 84.2168 64.31C86.7568 63.24 91.5918 65.65 96.8268 67.81C101.702 69.82 107.272 71.1151 108.137 73.7601C108.667 75.3751 107.562 77.075 107.247 77.84Z" fill="#407BFF"/>
<path d="M108.141 73.7651C108.556 75.8701 107.641 76.8801 107.246 77.8401C106.836 78.8301 105.696 79.4301 104.081 79.6501C103.886 79.6801 103.681 79.7001 103.471 79.7151C102.386 79.7951 101.131 79.7301 99.7612 79.5201C99.5862 79.5001 99.4112 79.4651 99.2312 79.4351C97.8912 79.2051 96.4612 78.8351 94.9862 78.3451C94.8262 78.2901 94.6662 78.2351 94.5062 78.1751C93.9462 77.9801 93.3762 77.7651 92.8112 77.5301C92.2462 77.3001 91.6962 77.0501 91.1612 76.7951C91.0062 76.7251 90.8562 76.6501 90.7062 76.5751C89.3612 75.9101 88.1412 75.1851 87.0712 74.4451C86.9312 74.3501 86.7962 74.2501 86.6612 74.1601C85.5412 73.3451 84.6012 72.5101 83.8912 71.6851C83.7662 71.5451 83.6562 71.4101 83.5462 71.2701C82.4712 69.9051 82.0462 68.6101 82.4712 67.5751C82.7462 66.9051 83.3512 64.6301 84.2062 64.3051C85.0612 63.9851 86.1662 64.0301 87.4462 64.3001C87.6112 64.3351 87.7812 64.3751 87.9512 64.4201C90.4762 65.0601 93.6012 66.4851 96.8162 67.8101C100.611 69.3751 105.096 71.0001 107.291 72.8751C107.426 72.9901 107.551 73.1051 107.666 73.2251C107.856 73.4051 108.006 73.5851 108.141 73.7651Z" fill="#8B672A"/>
<path opacity="0.2" d="M88.1897 64.005L87.9597 64.425L83.8997 71.69C83.7747 71.55 83.6647 71.415 83.5547 71.275L87.4547 64.305L87.7547 63.765L88.1897 64.005Z" fill="#D1A53D"/>
<path opacity="0.2" d="M91.2591 66.9651L87.0741 74.4501C86.9341 74.3551 86.7991 74.2551 86.6641 74.1651L90.8241 66.7201L91.2591 66.9651Z" fill="#D1A53D"/>
<path opacity="0.2" d="M98.9556 71.265L94.9956 78.35C94.8356 78.295 94.6756 78.24 94.5156 78.18L98.5206 71.02L98.9556 71.265Z" fill="#D1A53D"/>
<path opacity="0.2" d="M95.3759 69.265L91.1659 76.8C91.0109 76.73 90.8609 76.655 90.7109 76.58L94.9359 69.02L95.3759 69.265Z" fill="#D1A53D"/>
<path opacity="0.2" d="M103.619 72.635L99.7644 79.525C99.5894 79.505 99.4144 79.47 99.2344 79.44L103.179 72.385L103.619 72.635Z" fill="#D1A53D"/>
<path d="M93.7598 75.2426C100.578 78.055 107.002 78.16 108.109 75.4772C109.216 72.7943 104.585 68.3396 97.7672 65.5272C90.9491 62.7148 84.5248 62.6098 83.4181 65.2927C82.3115 67.9755 86.9416 72.4303 93.7598 75.2426Z" fill="#B0872F"/>
<path opacity="0.2" d="M94.6019 73.923C99.9982 76.1489 105.007 76.4159 105.789 74.5192C106.572 72.6226 102.831 69.2807 97.435 67.0548C92.0386 64.8289 87.0299 64.5619 86.2475 66.4586C85.4652 68.3552 89.2056 71.6972 94.6019 73.923Z" fill="white"/>
<path d="M141.706 53.57C143.481 55.865 140.091 61.415 134.261 65.935C128.431 70.45 122.261 72.25 120.486 69.955C120.076 69.425 118.416 67.645 118.516 66.82C118.851 64.085 123.346 61.09 127.826 57.62C131.996 54.39 135.886 50.2 138.616 50.765C140.271 51.115 141.201 52.92 141.706 53.57Z" fill="#407BFF"/>
<path d="M138.613 50.77C140.648 51.46 141.068 52.75 141.703 53.57C142.358 54.415 142.313 55.705 141.703 57.215C141.633 57.4 141.548 57.585 141.458 57.775C140.988 58.755 140.308 59.815 139.448 60.895C139.343 61.035 139.228 61.17 139.113 61.31C138.248 62.355 137.218 63.415 136.053 64.45C135.928 64.56 135.798 64.67 135.668 64.785C135.218 65.17 134.753 65.56 134.263 65.935C133.783 66.31 133.293 66.665 132.803 67C132.663 67.1 132.523 67.19 132.388 67.285C131.143 68.12 129.908 68.82 128.728 69.38C128.573 69.455 128.423 69.52 128.273 69.59C127.013 70.155 125.813 70.555 124.753 70.765C124.573 70.805 124.398 70.835 124.223 70.86C122.503 71.115 121.168 70.84 120.483 69.955C120.038 69.385 118.368 67.73 118.508 66.825C118.653 65.92 119.243 64.985 120.113 64.015C120.228 63.89 120.343 63.76 120.468 63.635C122.278 61.765 125.068 59.76 127.818 57.63C131.063 55.12 134.703 52.035 137.423 51.06C137.588 50.995 137.753 50.95 137.913 50.905C138.163 50.84 138.388 50.795 138.613 50.77Z" fill="#8B672A"/>
<path opacity="0.2" d="M120.223 63.2201L120.468 63.6301L124.748 70.7651C124.568 70.8051 124.393 70.8351 124.218 70.8601L120.113 64.0101L119.793 63.4801L120.223 63.2201Z" fill="#D1A53D"/>
<path opacity="0.2" d="M124.318 62.03L128.728 69.38C128.573 69.455 128.423 69.52 128.273 69.59L123.883 62.28L124.318 62.03Z" fill="#D1A53D"/>
<path opacity="0.2" d="M131.875 57.495L136.05 64.455C135.925 64.565 135.795 64.675 135.665 64.79L131.445 57.755L131.875 57.495Z" fill="#D1A53D"/>
<path opacity="0.2" d="M128.364 59.605L132.804 67.005C132.664 67.105 132.524 67.195 132.389 67.29L127.934 59.865L128.364 59.605Z" fill="#D1A53D"/>
<path opacity="0.2" d="M135.383 54.125L139.443 60.9C139.338 61.04 139.223 61.175 139.108 61.315L134.953 54.385L135.383 54.125Z" fill="#D1A53D"/>
<path d="M132.744 63.9792C138.575 59.4631 141.862 53.9419 140.085 51.6474C138.308 49.3528 132.14 51.1538 126.308 55.67C120.477 60.1862 117.191 65.7074 118.968 68.0019C120.745 70.2964 126.912 68.4954 132.744 63.9792Z" fill="#B0872F"/>
<path opacity="0.2" d="M132.019 62.5909C136.635 59.0165 139.358 54.8039 138.101 53.1818C136.845 51.5597 132.085 53.1423 127.47 56.7167C122.855 60.2911 120.132 64.5037 121.388 66.1258C122.644 67.7479 127.404 66.1653 132.019 62.5909Z" fill="white"/>
<path d="M117.568 42.8201C116.983 46.1101 109.623 47.5051 101.258 46.0201C92.8933 44.5351 86.5933 40.6551 87.1783 37.3651C87.3133 36.6001 87.5483 33.8151 88.3333 33.2601C90.9283 31.4301 96.9583 32.9551 103.383 34.1001C109.363 35.1651 115.948 35.2501 117.573 38.0151C118.553 39.6951 117.733 41.8801 117.568 42.8201Z" fill="#407BFF"/>
<path d="M117.568 38.0151C118.553 40.2801 117.773 41.6401 117.563 42.8201C117.348 44.0351 116.213 44.9901 114.448 45.6351C114.238 45.7201 114.013 45.7901 113.778 45.8601C112.578 46.2151 111.148 46.4551 109.558 46.5551C109.353 46.5751 109.153 46.5801 108.943 46.5901C107.383 46.6601 105.683 46.5951 103.903 46.4051C103.713 46.3851 103.513 46.3601 103.318 46.3351C102.643 46.2501 101.948 46.1501 101.253 46.0251C100.563 45.9051 99.8832 45.7601 99.2182 45.6051C99.0282 45.5651 98.8382 45.5151 98.6532 45.4701C96.9782 45.0501 95.4282 44.5401 94.0382 43.9651C93.8532 43.8901 93.6832 43.8151 93.5082 43.7451C92.0532 43.1051 90.7832 42.3901 89.7832 41.6451C89.6082 41.5201 89.4482 41.3951 89.2932 41.2651C87.7482 39.9951 86.9532 38.6401 87.1782 37.3751C87.3232 36.5551 87.4432 33.8451 88.3282 33.2701C89.2132 32.6951 90.4682 32.4751 91.9682 32.4701C92.1632 32.4701 92.3632 32.4701 92.5682 32.4801C95.5632 32.5801 99.4332 33.4151 103.373 34.1151C108.023 34.9451 113.468 35.6651 116.403 37.2401C116.583 37.3351 116.753 37.4351 116.913 37.5401C117.158 37.6801 117.373 37.8451 117.568 38.0151Z" fill="#8B672A"/>
<path opacity="0.2" d="M92.7319 31.94L92.5719 32.465L89.7869 41.635C89.6119 41.51 89.4519 41.385 89.2969 41.255L91.9719 32.455L92.1769 31.775L92.7319 31.94Z" fill="#D1A53D"/>
<path opacity="0.2" d="M96.9106 34.5151L94.0456 43.9601C93.8606 43.8851 93.6906 43.8101 93.5156 43.7401L96.3656 34.3451L96.9106 34.5151Z" fill="#D1A53D"/>
<path opacity="0.2" d="M106.624 37.46L103.909 46.405C103.719 46.385 103.519 46.36 103.324 46.335L106.069 37.295L106.624 37.46Z" fill="#D1A53D"/>
<path opacity="0.2" d="M102.11 36.09L99.2252 45.6C99.0352 45.56 98.8452 45.51 98.6602 45.465L101.555 35.92L102.11 36.09Z" fill="#D1A53D"/>
<path opacity="0.2" d="M112.209 37.8501L109.564 46.5501C109.359 46.5701 109.159 46.5751 108.949 46.5851L111.654 37.6801L112.209 37.8501Z" fill="#D1A53D"/>
<path d="M101.76 43.2109C110.122 44.6991 117.376 43.2388 117.962 39.9493C118.547 36.6597 112.242 32.7866 103.88 31.2985C95.5174 29.8103 88.2637 31.2706 87.6783 34.5601C87.0929 37.8496 93.3975 41.7227 101.76 43.2109Z" fill="#B0872F"/>
<path opacity="0.2" d="M102.386 41.5195C109.003 42.6971 114.702 41.7674 115.116 39.443C115.53 37.1185 110.501 34.2796 103.884 33.102C97.2666 31.9245 91.567 32.8542 91.1534 35.1786C90.7397 37.503 95.7686 40.3419 102.386 41.5195Z" fill="white"/>
<path d="M161.221 126.815L109.766 129.81C107.941 129.915 106.151 130.355 104.486 131.1L48.5965 156.115C46.5665 157.025 45.4465 159.2 45.9015 161.345L55.1465 205.015C55.7815 208.01 59.1215 209.59 61.8965 208.205L117.061 180.665L168.001 178.945C170.676 178.855 172.676 176.46 172.251 173.855L165.431 132.035C165.076 129.875 163.441 126.75 161.221 126.815Z" fill="#8B672A"/>
<path opacity="0.1" d="M161.221 126.815L109.766 129.81C107.941 129.915 106.151 130.355 104.486 131.1L48.5965 156.115C46.5665 157.025 45.4465 159.2 45.9015 161.345L55.1465 205.015C55.7815 208.01 59.1215 209.59 61.8965 208.205L117.061 180.665L168.001 178.945C170.676 178.855 172.676 176.46 172.251 173.855L165.431 132.035C165.076 129.875 163.441 126.75 161.221 126.815Z" fill="black"/>
<path d="M57.9336 98.3866L30.9297 123.275L79.3818 175.845L106.386 150.957L57.9336 98.3866Z" fill="#BE202F"/>
<path opacity="0.5" d="M106.393 150.95L79.3875 175.84L30.9375 123.275L48.6575 106.94L57.9425 98.3799L59.4875 100.06L106.393 150.95Z" fill="#FAFAFA"/>
<path d="M58.1086 101.599L34.2812 123.56L79.6024 172.733L103.43 150.772L58.1086 101.599Z" stroke="#BE202F" stroke-miterlimit="10"/>
<path d="M74.2163 142.984C76.9493 140.465 76.604 135.644 73.445 132.217C70.2861 128.789 65.5097 128.053 62.7767 130.572C60.0437 133.091 60.389 137.911 63.5479 141.339C66.7069 144.766 71.4832 145.503 74.2163 142.984Z" fill="#BE202F"/>
<path opacity="0.1" d="M79.1012 154.505L69.5062 157.82L48.6562 106.94L57.9412 98.3799L59.4863 100.06L79.1012 154.505Z" fill="black"/>
<path d="M80.9627 77.7876L46.4375 90.3035L70.803 157.516L105.328 145L80.9627 77.7876Z" fill="#BE202F"/>
<path opacity="0.5" d="M80.9627 77.7876L46.4375 90.3035L70.803 157.516L105.328 145L80.9627 77.7876Z" fill="#FAFAFA"/>
<path d="M79.878 80.8209L49.4141 91.8645L72.2051 154.734L102.669 143.69L79.878 80.8209Z" stroke="#BE202F" stroke-miterlimit="10"/>
<path d="M78.7397 125.214C82.234 123.947 83.7788 119.368 82.1903 114.986C80.6017 110.604 76.4813 108.078 72.987 109.345C69.4928 110.612 67.9479 115.191 69.5365 119.573C71.1251 123.955 75.2455 126.481 78.7397 125.214Z" fill="#BE202F"/>
<path d="M161.557 128.59L110.807 131.45C109.007 131.55 107.242 131.985 105.602 132.725L50.5322 157.585C48.5322 158.485 47.4322 160.66 47.8872 162.805L57.1222 206.48C57.7572 209.475 61.0572 211.06 63.7922 209.685L118.142 182.305L168.387 180.715C171.027 180.63 172.992 178.245 172.567 175.64L165.732 133.825C165.372 131.66 163.747 128.53 161.557 128.59Z" fill="#D1A53D"/>
<path opacity="0.2" d="M112.871 139.1L156.416 136.42" stroke="black" stroke-width="2" stroke-miterlimit="10" stroke-linecap="round" stroke-linejoin="round"/>
<path opacity="0.2" d="M107.656 140.225L115.611 176.765" stroke="black" stroke-width="2" stroke-miterlimit="10" stroke-linecap="round" stroke-linejoin="round"/>
<path opacity="0.2" d="M54.6172 173.215L60.2272 201.325C60.2272 201.32 64.5272 190.17 54.6172 173.215Z" fill="#FAFAFA"/>
<path opacity="0.2" d="M55.3516 173.545C55.5416 174.06 105.177 152.745 105.177 152.745C105.177 152.745 106.432 168.065 91.4966 176.445C76.5616 184.82 55.3516 173.545 55.3516 173.545Z" fill="#FAFAFA"/>
<path d="M88.3219 174.375C89.5093 174.375 90.4719 173.412 90.4719 172.225C90.4719 171.038 89.5093 170.075 88.3219 170.075C87.1345 170.075 86.1719 171.038 86.1719 172.225C86.1719 173.412 87.1345 174.375 88.3219 174.375Z" fill="#8B672A"/>
<path opacity="0.2" d="M105.207 152.745C105.207 152.745 111.362 162.005 109.872 177.79L105.207 152.745Z" fill="black"/>
<g opacity="0.2">
<g opacity="0.2">
<path opacity="0.2" d="M52.2422 162.175L53.3872 161.67" stroke="#FAFAFA" stroke-linecap="round" stroke-linejoin="round"/>
<path opacity="0.2" d="M55.7617 160.62L102.112 140.13" stroke="#FAFAFA" stroke-linecap="round" stroke-linejoin="round" stroke-dasharray="5.2 5.2"/>
<path opacity="0.2" d="M103.301 139.605L104.441 139.1" stroke="#FAFAFA" stroke-linecap="round" stroke-linejoin="round"/>
</g>
</g>
<path opacity="0.2" d="M114.332 147.315L157.877 144.63" stroke="black" stroke-width="2" stroke-miterlimit="10" stroke-linecap="round" stroke-linejoin="round"/>
<path opacity="0.2" d="M116.293 157.56L159.838 154.875" stroke="black" stroke-width="2" stroke-miterlimit="10" stroke-linecap="round" stroke-linejoin="round"/>
<path d="M150.291 84.7799C150.291 84.7799 149.196 96.4449 144.861 97.4499C140.526 98.4549 136.866 96.6499 136.866 96.6499L133.341 93.9399L131.621 99.9349C131.621 99.9349 133.501 102.49 137.426 100.72C137.426 100.72 144.421 103.805 148.296 100.72C152.171 97.6349 153.406 89.1899 153.406 89.1899L150.291 84.7799Z" fill="url(#paint0_linear_891_25161)"/>
<path d="M153.778 79.1299C153.778 79.1299 150.753 73.9749 152.128 64.6299C153.503 55.2849 161.338 54.1149 164.363 54.7999C167.388 55.4849 169.863 58.3849 171.923 63.9099C173.983 69.4399 174.743 70.8799 178.178 69.9199C181.613 68.9599 190.753 65.9349 193.298 68.6149C195.838 71.2949 195.018 74.3199 195.018 74.3199C195.018 74.3199 207.733 71.2249 206.633 82.5649C205.533 93.9049 187.183 104.49 169.728 93.2849C152.273 82.0799 153.778 79.1299 153.778 79.1299Z" fill="black"/>
<path d="M153.636 106.575C153.636 106.575 150.181 136.29 150.296 150.23C150.411 164.17 155.366 196.995 155.366 196.995H161.471C161.471 196.995 160.666 170.735 160.781 161.75C160.896 152.765 162.511 137.91 162.511 137.91C162.511 137.91 164.471 151.27 166.771 155.995C169.076 160.715 181.861 177.42 190.731 182.6L194.876 178.8C194.876 178.8 185.661 167.395 182.206 161.755C178.751 156.11 175.641 154.5 174.371 144.015C173.106 133.535 175.291 116.715 171.606 106.58H153.636V106.575Z" fill="#515959"/>
<path opacity="0.2" d="M162.507 137.905L159.852 119.07C159.852 119.07 157.757 130.395 161.887 144.22L162.507 137.905Z" fill="black"/>
<path d="M156.617 198.665L156.822 204.5L160.917 204.84L161.122 204.295V198.255L156.617 198.665Z" fill="url(#paint1_linear_891_25161)"/>
<path d="M154.672 196.445L155.047 198.63L162.077 198.8L162.522 196.175L154.672 196.445Z" fill="#E92D29"/>
<path d="M188.797 183L195.312 176.93L196.747 179.215L191.152 184.335L188.797 183Z" fill="#E92D29"/>
<path d="M191.938 183L196.238 186.62L198.997 183.375L195.467 179.725L191.938 183Z" fill="url(#paint2_linear_891_25161)"/>
<path d="M199.83 183.125L202.43 184.725C202.935 185.035 203.04 185.725 202.645 186.17C200.76 188.295 195.945 193.705 195.465 194.09C194.87 194.57 194.15 193.75 193.98 193C193.98 193 195.345 191.19 195.465 190.03C195.555 189.175 195.51 187.935 195.485 187.34C195.475 187.115 195.55 186.895 195.695 186.725L198.6 183.32C198.91 182.96 199.43 182.875 199.83 183.125Z" fill="black"/>
<path d="M161.916 204.99L162.456 207.995C162.561 208.58 162.116 209.12 161.521 209.12C158.676 209.13 151.436 209.155 150.831 209.05C150.076 208.925 150.211 207.845 150.656 207.215C150.656 207.215 152.916 207.025 153.856 206.34C154.551 205.835 155.446 204.975 155.876 204.56C156.036 204.4 156.251 204.31 156.476 204.305L160.951 204.2C161.421 204.195 161.831 204.53 161.916 204.99Z" fill="black"/>
<path d="M172.258 90.095L178.498 85.715C178.498 85.715 176.838 79.075 174.383 78.745C171.928 78.415 159.713 76.09 151.943 78.745C151.943 78.745 149.153 79.54 148.293 87.375L151.613 88.435C151.613 88.435 152.808 103.105 153.538 105.36H171.263C171.263 105.365 171.463 92.75 172.258 90.095Z" fill="#BE202F"/>
<path d="M173.605 89.1499C173.605 89.1499 175.965 95.8999 176.39 99.5299C176.39 99.5299 170.77 97.2949 169.315 96.2649L168.22 92.3149L164.48 90.5199L163.395 93.4799L166.475 97.3499C166.475 97.3499 174.935 105.27 179.23 103.455C183.525 101.64 177.53 86.3899 177.53 86.3899L173.605 89.1499Z" fill="url(#paint3_linear_891_25161)"/>
<path d="M157.733 59.5949C157.733 59.5949 155.573 63.9199 155.753 67.4299C155.933 70.9399 157.688 72.3849 161.068 72.8799C161.068 72.8799 162.508 77.3799 158.728 77.8349C158.438 77.8699 158.338 79.0149 158.363 79.1999C158.463 79.9299 159.183 80.3299 159.838 80.4999C160.538 80.6849 161.283 80.7149 162.008 80.7399C163.628 80.7949 164.963 80.1399 166.038 78.9449C166.123 78.8549 166.878 77.8799 166.878 77.8799C166.878 77.8799 165.078 76.9849 165.708 71.1249C165.708 71.1249 166.923 70.4499 167.598 68.7849C167.598 68.7849 168.768 68.1999 169.038 67.0299C169.308 65.8599 168.273 64.2399 166.383 65.8599C166.383 65.8599 162.828 64.0599 161.473 57.7549C161.468 57.7449 160.073 59.3249 157.733 59.5949Z" fill="url(#paint4_linear_891_25161)"/>
<path d="M158.748 66.4699L159.058 64.1599L157.418 65.9699C157.418 65.9699 157.938 66.5699 158.748 66.4699Z" fill="#A24E3F"/>
<path d="M159.695 68.1599C159.695 68.1599 161.42 68.4249 162.25 67.3149" stroke="#222221" stroke-width="0.75" stroke-miterlimit="10" stroke-linecap="round" stroke-linejoin="round"/>
<path d="M161.422 60.925C161.422 60.925 162.522 60.5 163.657 61.52" stroke="#222221" stroke-miterlimit="10" stroke-linecap="round" stroke-linejoin="round"/>
<path d="M158.437 60.425C158.437 60.425 157.457 60.27 156.992 60.84" stroke="#222221" stroke-miterlimit="10" stroke-linecap="round" stroke-linejoin="round"/>
<path d="M161.625 64.5373C161.858 64.5675 162.083 64.3101 162.128 63.9623C162.173 63.6145 162.021 63.3081 161.789 63.2778C161.556 63.2475 161.331 63.505 161.285 63.8527C161.24 64.2005 161.392 64.507 161.625 64.5373Z" fill="#222221"/>
<path d="M157.629 63.7711C157.861 63.8013 158.087 63.544 158.132 63.1962C158.177 62.8485 158.025 62.542 157.793 62.5117C157.56 62.4815 157.334 62.7388 157.289 63.0866C157.244 63.4343 157.396 63.7408 157.629 63.7711Z" fill="#222221"/>
<path d="M161.782 63.2799L160.992 62.9349C160.992 62.9349 161.152 63.6449 161.782 63.2799Z" fill="#222221"/>
<path d="M157.86 62.5399L157.07 62.1949C157.07 62.1949 157.235 62.9049 157.86 62.5399Z" fill="#222221"/>
<path d="M152.922 104.585V106.67L172.122 106.83L171.607 104.35L152.922 104.585Z" fill="#E92D29"/>
<path opacity="0.4" d="M152.922 104.585V106.67L172.122 106.83L171.607 104.35L152.922 104.585Z" fill="white"/>
<path d="M121.807 84.6251L110.5 95.0461L130.787 117.058L142.094 106.637L121.807 84.6251Z" fill="#BE202F"/>
<path opacity="0.5" d="M142.098 106.634L130.79 117.056L110.504 95.046L117.923 88.2064L121.811 84.6222L122.458 85.3256L142.098 106.634Z" fill="#FAFAFA"/>
<path d="M121.879 85.97L111.902 95.1653L130.879 115.755L140.856 106.559L121.879 85.97Z" stroke="#BE202F" stroke-miterlimit="10"/>
<path d="M128.624 103.298C129.768 102.244 129.623 100.225 128.301 98.7901C126.978 97.355 124.978 97.0466 123.834 98.1013C122.689 99.156 122.834 101.174 124.157 102.609C125.479 104.045 127.479 104.353 128.624 103.298Z" fill="#BE202F"/>
<path opacity="0.1" d="M130.67 108.122L126.652 109.51L117.922 88.2064L121.81 84.6222L122.457 85.3256L130.67 108.122Z" fill="black"/>
<path d="M131.448 75.9999L116.992 81.2405L127.194 109.383L141.65 104.143L131.448 75.9999Z" fill="#BE202F"/>
<path opacity="0.5" d="M131.448 75.9999L116.992 81.2405L127.194 109.383L141.65 104.143L131.448 75.9999Z" fill="#FAFAFA"/>
<path d="M130.994 77.2701L118.238 81.8942L127.781 108.218L140.537 103.594L130.994 77.2701Z" stroke="#BE202F" stroke-miterlimit="10"/>
<path d="M130.519 95.858C131.982 95.3276 132.629 93.4102 131.964 91.5754C131.298 89.7405 129.573 88.6831 128.11 89.2135C126.647 89.7439 126 91.6612 126.665 93.4961C127.33 95.3309 129.056 96.3883 130.519 95.858Z" fill="#BE202F"/>
<defs>
<linearGradient id="paint0_linear_891_25161" x1="153.38" y1="93.3552" x2="131.736" y2="93.6555" gradientUnits="userSpaceOnUse">
<stop stop-color="#FEBBBA"/>
<stop offset="1" stop-color="#FF928E"/>
</linearGradient>
<linearGradient id="paint1_linear_891_25161" x1="161.117" y1="201.517" x2="156.64" y2="201.551" gradientUnits="userSpaceOnUse">
<stop stop-color="#FEBBBA"/>
<stop offset="1" stop-color="#FF928E"/>
</linearGradient>
<linearGradient id="paint2_linear_891_25161" x1="198.989" y1="183.141" x2="191.974" y2="183.22" gradientUnits="userSpaceOnUse">
<stop stop-color="#FEBBBA"/>
<stop offset="1" stop-color="#FF928E"/>
</linearGradient>
<linearGradient id="paint3_linear_891_25161" x1="180.758" y1="94.9772" x2="163.485" y2="95.1682" gradientUnits="userSpaceOnUse">
<stop stop-color="#FEBBBA"/>
<stop offset="1" stop-color="#FF928E"/>
</linearGradient>
<linearGradient id="paint4_linear_891_25161" x1="169.064" y1="69.1425" x2="155.81" y2="69.2272" gradientUnits="userSpaceOnUse">
<stop stop-color="#FEBBBA"/>
<stop offset="1" stop-color="#FF928E"/>
</linearGradient>
</defs>
</svg>
